analizaR datos políticos
…
5.0.6 ROC plot

5.0.7 Separation plots

6 Modelos de supervivencia
6.1 El modelo Cox de riesgos proporcionales:

4.3 Ordenar la base

Una de las operaciones más comunes con bases de datos es ordenarlas de acuerdo a alguna de las variables. Esto nos puede dar insights (¿traducción?) inmediatos sobre nuestras observaciones. Por ejemplo, ordenemos la base de acuerdo a población:

arrange(qog_mod, wdi_pop)

## # A tibble: 139 x 7
##                    cname wdi_gdppppcon2011 wdi_pop   ti_cpi lp_muslim80
##                    <chr>             <dbl>   <int>    <dbl>       <dbl>
##  1              Dominica         722668736   72005 58.00000         0.0
##  2            Seychelles        2229991168   89900 54.00000         0.3
##  3                 Tonga         513904512  105139 31.39194         0.0
##  4              Kiribati         183852816  108544 30.80074         0.0
##  5              St Lucia        1871906688  182305 71.00000         0.0
##  6 Sao Tome and Principe         540452288  182386 42.00000         0.0
##  7                 Samoa        1047012608  190390 52.00000         0.0
##  8              Barbados        4333428224  282503 75.00000         0.2
##  9               Iceland       13266284544  323764 78.00000         0.0
## 10               Bahamas        8497731584  377841 71.00000         0.0
## # ... with 129 more rows, and 2 more variables: fh_ipolity2 <dbl>,
## #   region <chr>

El lector debe notar cómo el primer argumento, “qog_mod”, toma la base de datos y los siguientes enuncian cómo ordenarla, en este caso, por “wdi_pop”, la variable de población.

Debe notar también cómo el comando anterior no crea ningún objeto, solo muestra los resultados en la consola. Para crear uno tenemos que seguir la fórmula típica de asignación:

qog_mod_ordenada <- arrange(qog_mod, wdi_pop)

Podemos realizar ambas operaciones, mostrar los resultados y crear el objeto, rodeando este último comando con paréntesis:

( qog_mod_ordenada <- arrange(qog_mod, wdi_pop) )

## # A tibble: 139 x 7
##                    cname wdi_gdppppcon2011 wdi_pop   ti_cpi lp_muslim80
##                    <chr>             <dbl>   <int>    <dbl>       <dbl>
##  1              Dominica         722668736   72005 58.00000         0.0
##  2            Seychelles        2229991168   89900 54.00000         0.3
##  3                 Tonga         513904512  105139 31.39194         0.0
##  4              Kiribati         183852816  108544 30.80074         0.0
##  5              St Lucia        1871906688  182305 71.00000         0.0
##  6 Sao Tome and Principe         540452288  182386 42.00000         0.0
##  7                 Samoa        1047012608  190390 52.00000         0.0
##  8              Barbados        4333428224  282503 75.00000         0.2
##  9               Iceland       13266284544  323764 78.00000         0.0
## 10               Bahamas        8497731584  377841 71.00000         0.0
## # ... with 129 more rows, and 2 more variables: fh_ipolity2 <dbl>,
## #   region <chr>

La operación para ordenar realizada antes iba de menor a mayor, en términos de población. Si queremos el orden inverso (decreciente), basta con añadir un signo menos (-) antes de la variable:

arrange(qog_mod, -wdi_pop)

## # A tibble: 139 x 7
##               cname wdi_gdppppcon2011    wdi_pop ti_cpi lp_muslim80
##               <chr>             <dbl>      <int>  <dbl>       <dbl>
##  1            China      1.602399e+13 1357379968     40         2.4
##  2            India      6.566166e+12 1279498880     36        11.6
##  3    United States      1.623049e+13  316497536     73         0.8
##  4        Indonesia      2.430922e+12  251268272     32        43.4
##  5           Brazil      3.109302e+12  204259376     42         0.1
##  6 Pakistan (1971-)      8.109545e+11  181192640     28        96.8
##  7          Nigeria      9.414628e+11  172816512     25        45.0
##  8       Bangladesh      4.468354e+11  157157392     27        85.9
##  9            Japan      4.535077e+12  127338624     74         0.0
## 10           Mexico      1.997247e+12  123740112     34         0.0
## # ... with 129 more rows, and 2 more variables: fh_ipolity2 <dbl>,
## #   region <chr>

¡Con eso tenemos los países con mayor población en el mundo! ¿Qué pasa si queremos los países con mayor población dentro de cada región? Tendríamos que realizar un ordenamiento en dos pasos: primero por región y luego por población. Con arrange() esto es simple:

arrange(qog_mod, region, -wdi_pop)

## # A tibble: 139 x 7
##                  cname wdi_gdppppcon2011  wdi_pop ti_cpi lp_muslim80
##                  <chr>             <dbl>    <int>  <dbl>       <dbl>
##  1           Australia      990474338304 23125868     81         0.2
##  2         New Zealand      148189986816  4442100     91         0.0
##  3                Cuba      226685157376 11362505     46         0.0
##  4               Haiti       16999370752 10431249     19         0.0
##  5  Dominican Republic      122657308672 10281408     29         0.0
##  6             Jamaica       22884503552  2714734     38         0.1
##  7 Trinidad and Tobago       40973463552  1348240     38         6.5
##  8             Bahamas        8497731584   377841     71         0.0
##  9            Barbados        4333428224   282503     75         0.2
## 10            St Lucia        1871906688   182305     71         0.0
## # ... with 129 more rows, and 2 more variables: fh_ipolity2 <dbl>,
## #   region <chr>

A propósito del resultado anterior, el lector puede deducir que cuando arrange() ordena variables categóricas (en vez de numéricas) lo hace alfabéticamente. Añadir un signo menos (-) antes de la variable hará que el orden sea al revés en términos del alfabeto:

arrange(qog_mod, desc(region), -wdi_pop) # no sé por qué - no funciona, ARREGLAR

## # A tibble: 139 x 7
##                   cname wdi_gdppppcon2011  wdi_pop ti_cpi lp_muslim80
##                   <chr>             <dbl>    <int>  <dbl>       <dbl>
##  1       France (1963-)      2.459435e+12 65925496     71         3.0
##  2          Netherlands      7.623825e+11 16804432     83         1.0
##  3              Belgium      4.521544e+11 11182817     75         1.1
##  4              Austria      3.734136e+11  8479375     69         0.6
##  5          Switzerland      4.442016e+11  8089346     85         0.3
##  6           Luxembourg      4.884228e+10   543360     80         0.0
##  7               Turkey      1.392197e+12 75010200     50        99.2
##  8                 Iraq      5.108955e+11 33781384     16        95.8
##  9         Saudi Arabia      1.478748e+12 30201052     46        98.8
## 10 United Arab Emirates      5.609863e+11  9039978     69        94.9
## # ... with 129 more rows, and 2 more variables: fh_ipolity2 <dbl>,
## #   region <chr>
…
