analizaR datos políticos
…
¿Qué pasa si queremos solo las filas de países sudamericanos con más de 10 millones de habitantes (nos quedamos con 8 de 12)?

¿Cuáles son los filtros que aplican los siguientes comandos?

filter(qog_mod, fh_ipolity2 > 9)

## # A tibble: 39 x 7
##             cname wdi_gdppppcon2011  wdi_pop ti_cpi lp_muslim80
##             <chr>             <dbl>    <int>  <dbl>       <dbl>
##  1      Australia      9.904743e+11 23125868     81         0.2
##  2        Austria      3.734136e+11  8479375     69         0.6
##  3        Bahamas      8.497732e+09   377841     71         0.0
##  4       Barbados      4.333428e+09   282503     75         0.2
##  5        Belgium      4.521544e+11 11182817     75         1.1
##  6         Canada      1.484142e+12 35158304     81         0.6
##  7     Cape Verde      3.109325e+09   507258     58         0.0
##  8          Chile      3.831625e+11 17575832     71         0.0
##  9     Costa Rica      6.541985e+10  4706433     53         0.0
## 10 Cyprus (1975-)      2.592799e+10  1141652     63        18.5
## # ... with 29 more rows, and 2 more variables: fh_ipolity2 <dbl>,
## #   region <chr>
…
filter(qog_mod, cname != "Albania")

## # A tibble: 138 x 7
##          cname wdi_gdppppcon2011   wdi_pop ti_cpi lp_muslim80 fh_ipolity2
##          <chr>             <dbl>     <int>  <dbl>       <dbl>       <dbl>
##  1 Afghanistan       57566228480  30682500      8        99.3   2.0188808
##  2     Algeria      507901640704  38186136     36        99.1   4.2500000
##  3      Angola      152477499392  23448202     23         0.0   3.2500000
##  4   Australia      990474338304  23125868     81         0.2  10.0000000
##  5     Austria      373413642240   8479375     69         0.6  10.0000000
##  6     Bahamas        8497731584    377841     71         0.0  10.0000000
##  7     Bahrain       56583507968   1349427     48        95.0   0.8333333
##  8  Bangladesh      446835425280 157157392     27        85.9   6.4166670
##  9    Barbados        4333428224    282503     75         0.2  10.0000000
## 10     Belgium      452154359808  11182817     75         1.1   9.5000000
## # ... with 128 more rows, and 1 more variables: region <chr>
…
