analizaR datos políticos
…
6 Modelos de supervivencia
6.1 El modelo Cox de riesgos proporcionales:

4.8 Concatenar comandos: las pipes

A menudo no queremos hacer una sola de las operaciones con bases de datos reseñadas antes, sino que una seguidilla de estas. Si quisiéramos crear una nueva base a través de, por ejemplo, (1) seleccionar las variables de país, población y GDP, (2) crear la variable de GDP per capita, y (3) ordenar los países de mayor a menor según GDP per capita, nuestro procedimiento en R sería algo como esto:

qog_mod_seguidilla_1 <- select(qog_mod, cname, wdi_pop, wdi_gdppppcon2011)
qog_mod_seguidilla_2 <- mutate(qog_mod_seguidilla_1, 
                               gdp_ppp_per_capita = wdi_gdppppcon2011/wdi_pop)
qog_mod_seguidilla_3 <- arrange(qog_mod_seguidilla_2, -gdp_ppp_per_capita)

qog_mod_seguidilla_3

## # A tibble: 139 x 4
##                   cname   wdi_pop wdi_gdppppcon2011 gdp_ppp_per_capita
##                   <chr>     <int>             <dbl>              <dbl>
##  1                Qatar   2101288      2.803021e+11          133395.36
##  2           Luxembourg    543360      4.884228e+10           89889.36
##  3            Singapore   5399200      4.196306e+11           77720.89
##  4               Kuwait   3593689      2.665846e+11           74181.33
##  5               Norway   5079623      3.216514e+11           63321.91
##  6 United Arab Emirates   9039978      5.609863e+11           62056.15
##  7          Switzerland   8089346      4.442016e+11           54911.93
##  8        United States 316497536      1.623049e+13           51281.58
##  9         Saudi Arabia  30201052      1.478748e+12           48963.45
## 10              Ireland   4598294      2.123570e+11           46181.70
## # ... with 129 more rows

El lector notará que esto es bastante complicado y nos deja con dos objetos intermedios que no nos interesan, “qog_mod_seguidilla_1” y “qog_mod_seguidilla_2”.

La solución del paquete tidyverse que estamos utilizando son las pipes. El lector notará que en las tres funciones de nuestra seguidilla anterior (select, mutate y arrange) el primer argumento es la base de datos a tratar. En vez de crear objetos intermedios podemos “chutear” la base de datos a través de nuestros comandos con pipes, omitiendo los primeros argumentos:

qog_mod_seguidilla <- qog_mod %>%
  select(cname, wdi_pop, wdi_gdppppcon2011) %>%
  mutate(gdp_ppp_per_capita = wdi_gdppppcon2011/wdi_pop) %>%
  arrange(-gdp_ppp_per_capita)

qog_mod_seguidilla

## # A tibble: 139 x 4
##                   cname   wdi_pop wdi_gdppppcon2011 gdp_ppp_per_capita
##                   <chr>     <int>             <dbl>              <dbl>
##  1                Qatar   2101288      2.803021e+11          133395.36
##  2           Luxembourg    543360      4.884228e+10           89889.36
##  3            Singapore   5399200      4.196306e+11           77720.89
##  4               Kuwait   3593689      2.665846e+11           74181.33
##  5               Norway   5079623      3.216514e+11           63321.91
##  6 United Arab Emirates   9039978      5.609863e+11           62056.15
##  7          Switzerland   8089346      4.442016e+11           54911.93
##  8        United States 316497536      1.623049e+13           51281.58
##  9         Saudi Arabia  30201052      1.478748e+12           48963.45
## 10              Ireland   4598294      2.123570e+11           46181.70
## # ... with 129 more rows
…
