analizaR datos políticos
…
(hay que decidir cómo se va a hacer esto: desde carpeta local, url, paquete, etc.) (F:opino que creemos un url del libro y usemos los html, en el paquete ADP solo pondria funciones)

4.2 Describir la base

(aquí podría ir describe_all() u otra función de descripción de la base, habría que decidir si esto tiene sentido en términos pedagógicos; otra opción es hacer otro capítulo con group_by(), tabyl(), crosstab(), etc; me inclino por esta última opción)

Para aproximarnos a nuestra base recién cargada tenemos varias opciones. Podemos, como antes, simplemente usar su nombre como un comando para un resumen rápido:

qog_mod
## # A tibble: 139 x 7
##          cname wdi_gdppppcon2011   wdi_pop ti_cpi lp_muslim80 fh_ipolity2
##          <chr>             <dbl>     <int>  <dbl>       <dbl>       <dbl>
##  1 Afghanistan           5.8e+10  30682500      8        99.3        2.02
##  2     Albania           2.9e+10   2897366     31        20.5        8.08
##  3     Algeria           5.1e+11  38186136     36        99.1        4.25
##  4      Angola           1.5e+11  23448202     23         0.0        3.25
##  5   Australia           9.9e+11  23125868     81         0.2       10.00
##  6     Austria           3.7e+11   8479375     69         0.6       10.00
##  7     Bahamas           8.5e+09    377841     71         0.0       10.00
##  8     Bahrain           5.7e+10   1349427     48        95.0        0.83
##  9  Bangladesh           4.5e+11 157157392     27        85.9        6.42
## 10    Barbados           4.3e+09    282503     75         0.2       10.00
## # ... with 129 more rows, and 1 more variables: region <chr>
…
Una alternativa que nos permite ver la base completa es la función View(), análoga a clickear nuestro objeto en la pestaña “Environment” de Rstudio:

View(qog_mod)

4.3 Ordenar la base con arrange()

Una de las operaciones más comunes con bases de datos es ordenarlas de acuerdo a alguna de las variables. Esto nos puede dar insights (¿traducción?) inmediatos sobre nuestras observaciones. Por ejemplo, ordenemos la base de acuerdo a población:

arrange(qog_mod, wdi_pop)
## # A tibble: 139 x 7
##                    cname wdi_gdppppcon2011 wdi_pop ti_cpi lp_muslim80
##                    <chr>             <dbl>   <int>  <dbl>       <dbl>
##  1              Dominica           7.2e+08   72005     58         0.0
##  2            Seychelles           2.2e+09   89900     54         0.3
##  3                 Tonga           5.1e+08  105139     31         0.0
##  4              Kiribati           1.8e+08  108544     31         0.0
##  5              St Lucia           1.9e+09  182305     71         0.0
##  6 Sao Tome and Principe           5.4e+08  182386     42         0.0
##  7                 Samoa           1.0e+09  190390     52         0.0
##  8              Barbados           4.3e+09  282503     75         0.2
##  9               Iceland           1.3e+10  323764     78         0.0
## 10               Bahamas           8.5e+09  377841     71         0.0
## # ... with 129 more rows, and 2 more variables: fh_ipolity2 <dbl>,
## #   region <chr>

El lector debe notar cómo el primer argumento, “qog_mod”, toma la base de datos y los siguientes enuncian cómo ordenarla, en este caso, por “wdi_pop”, la variable de población.

Debe notar también cómo el comando anterior no crea ningún objeto, solo muestra los resultados en la consola. Para crear uno tenemos que seguir la fórmula típica de asignación:

qog_mod_ordenada <- arrange(qog_mod, wdi_pop)

Podemos realizar ambas operaciones, mostrar los resultados y crear el objeto, rodeando este último comando con paréntesis:

( qog_mod_ordenada <- arrange(qog_mod, wdi_pop) )
## # A tibble: 139 x 7
##                    cname wdi_gdppppcon2011 wdi_pop ti_cpi lp_muslim80
##                    <chr>             <dbl>   <int>  <dbl>       <dbl>
##  1              Dominica           7.2e+08   72005     58         0.0
##  2            Seychelles           2.2e+09   89900     54         0.3
##  3                 Tonga           5.1e+08  105139     31         0.0
##  4              Kiribati           1.8e+08  108544     31         0.0
##  5              St Lucia           1.9e+09  182305     71         0.0
##  6 Sao Tome and Principe           5.4e+08  182386     42         0.0
##  7                 Samoa           1.0e+09  190390     52         0.0
##  8              Barbados           4.3e+09  282503     75         0.2
##  9               Iceland           1.3e+10  323764     78         0.0
## 10               Bahamas           8.5e+09  377841     71         0.0
## # ... with 129 more rows, and 2 more variables: fh_ipolity2 <dbl>,
## #   region <chr>

La operación para ordenar realizada antes iba de menor a mayor, en términos de población. Si queremos el orden inverso (decreciente), basta con añadir un signo menos (-) antes de la variable:

arrange(qog_mod, -wdi_pop)
## # A tibble: 139 x 7
##               cname wdi_gdppppcon2011    wdi_pop ti_cpi lp_muslim80
##               <chr>             <dbl>      <int>  <dbl>       <dbl>
##  1            China           1.6e+13 1357379968     40         2.4
##  2            India           6.6e+12 1279498880     36        11.6
##  3    United States           1.6e+13  316497536     73         0.8
##  4        Indonesia           2.4e+12  251268272     32        43.4
##  5           Brazil           3.1e+12  204259376     42         0.1
##  6 Pakistan (1971-)           8.1e+11  181192640     28        96.8
##  7          Nigeria           9.4e+11  172816512     25        45.0
##  8       Bangladesh           4.5e+11  157157392     27        85.9
##  9            Japan           4.5e+12  127338624     74         0.0
## 10           Mexico           2.0e+12  123740112     34         0.0
## # ... with 129 more rows, and 2 more variables: fh_ipolity2 <dbl>,
## #   region <chr>

¡Con eso tenemos los países con mayor población en el mundo! ¿Qué pasa si queremos los países con mayor población dentro de cada región? Tendríamos que realizar un ordenamiento en dos pasos: primero por región y luego por población. Con arrange() esto es simple:

arrange(qog_mod, region, -wdi_pop)
## # A tibble: 139 x 7
##                  cname wdi_gdppppcon2011  wdi_pop ti_cpi lp_muslim80
##                  <chr>             <dbl>    <int>  <dbl>       <dbl>
##  1           Australia           9.9e+11 23125868     81         0.2
##  2         New Zealand           1.5e+11  4442100     91         0.0
##  3                Cuba           2.3e+11 11362505     46         0.0
##  4               Haiti           1.7e+10 10431249     19         0.0
##  5  Dominican Republic           1.2e+11 10281408     29         0.0
##  6             Jamaica           2.3e+10  2714734     38         0.1
##  7 Trinidad and Tobago           4.1e+10  1348240     38         6.5
##  8             Bahamas           8.5e+09   377841     71         0.0
##  9            Barbados           4.3e+09   282503     75         0.2
## 10            St Lucia           1.9e+09   182305     71         0.0
## # ... with 129 more rows, and 2 more variables: fh_ipolity2 <dbl>,
## #   region <chr>

A propósito del resultado anterior, el lector puede deducir que cuando arrange() ordena variables categóricas (en vez de numéricas) lo hace alfabéticamente. Añadir un signo menos (-) antes de la variable hará que el orden sea al revés en términos del alfabeto:

arrange(qog_mod, desc(region), -wdi_pop) # no sé por qué - no funciona, ARREGLAR
## # A tibble: 139 x 7
##                   cname wdi_gdppppcon2011  wdi_pop ti_cpi lp_muslim80
##                   <chr>             <dbl>    <int>  <dbl>       <dbl>
##  1       France (1963-)           2.5e+12 65925496     71         3.0
##  2          Netherlands           7.6e+11 16804432     83         1.0
##  3              Belgium           4.5e+11 11182817     75         1.1
##  4              Austria           3.7e+11  8479375     69         0.6
##  5          Switzerland           4.4e+11  8089346     85         0.3
##  6           Luxembourg           4.9e+10   543360     80         0.0
##  7               Turkey           1.4e+12 75010200     50        99.2
##  8                 Iraq           5.1e+11 33781384     16        95.8
##  9         Saudi Arabia           1.5e+12 30201052     46        98.8
## 10 United Arab Emirates           5.6e+11  9039978     69        94.9
## # ... with 129 more rows, and 2 more variables: fh_ipolity2 <dbl>,
## #   region <chr>

4.4 Seleccionar columnas de la base con select()

A veces queremos trabajar solo con algunas variables de una base de datos. Para esto existe la función select(). Pensemos que queremos solo el nombre de cada país (cname) y su porcentaje de población musulmana para 1980:

select(qog_mod, cname, lp_muslim80)
## # A tibble: 139 x 2
##          cname lp_muslim80
##          <chr>       <dbl>
##  1 Afghanistan        99.3
##  2     Albania        20.5
##  3     Algeria        99.1
##  4      Angola         0.0
##  5   Australia         0.2
##  6     Austria         0.6
##  7     Bahamas         0.0
##  8     Bahrain        95.0
##  9  Bangladesh        85.9
## 10    Barbados         0.2
## # ... with 129 more rows

Al igual que para arrange(), aquí el primer argumento designa la base a modificar y los demás cómo se debería hacer eso -en este caso, qué variables deben ser seleccionadas.

Añadir un signo menos (-) aquí indica qué variables no seleccionar. Por ejemplo, quitemos el porcentaje de población musulmana para 1980 de la base:

select(qog_mod, -lp_muslim80)
## # A tibble: 139 x 6
##          cname wdi_gdppppcon2011   wdi_pop ti_cpi fh_ipolity2
##          <chr>             <dbl>     <int>  <dbl>       <dbl>
##  1 Afghanistan           5.8e+10  30682500      8        2.02
##  2     Albania           2.9e+10   2897366     31        8.08
##  3     Algeria           5.1e+11  38186136     36        4.25
##  4      Angola           1.5e+11  23448202     23        3.25
##  5   Australia           9.9e+11  23125868     81       10.00
##  6     Austria           3.7e+11   8479375     69       10.00
##  7     Bahamas           8.5e+09    377841     71       10.00
##  8     Bahrain           5.7e+10   1349427     48        0.83
##  9  Bangladesh           4.5e+11 157157392     27        6.42
## 10    Barbados           4.3e+09    282503     75       10.00
## # ... with 129 more rows, and 1 more variables: region <chr>

Aparte de seleccionar variables específicas, select() es capaz de entender referencias a intervalos de variables. Por ejemplo, podemos querer las cuatro primeras variables:

select(qog_mod, cname:ti_cpi)
## # A tibble: 139 x 4
##          cname wdi_gdppppcon2011   wdi_pop ti_cpi
##          <chr>             <dbl>     <int>  <dbl>
##  1 Afghanistan           5.8e+10  30682500      8
##  2     Albania           2.9e+10   2897366     31
##  3     Algeria           5.1e+11  38186136     36
##  4      Angola           1.5e+11  23448202     23
##  5   Australia           9.9e+11  23125868     81
##  6     Austria           3.7e+11   8479375     69
##  7     Bahamas           8.5e+09    377841     71
##  8     Bahrain           5.7e+10   1349427     48
##  9  Bangladesh           4.5e+11 157157392     27
## 10    Barbados           4.3e+09    282503     75
## # ... with 129 more rows
select(qog_mod, 1:4) # lo mismo, aunque no recomendado
## # A tibble: 139 x 4
##          cname wdi_gdppppcon2011   wdi_pop ti_cpi
##          <chr>             <dbl>     <int>  <dbl>
##  1 Afghanistan           5.8e+10  30682500      8
##  2     Albania           2.9e+10   2897366     31
##  3     Algeria           5.1e+11  38186136     36
##  4      Angola           1.5e+11  23448202     23
##  5   Australia           9.9e+11  23125868     81
##  6     Austria           3.7e+11   8479375     69
##  7     Bahamas           8.5e+09    377841     71
##  8     Bahrain           5.7e+10   1349427     48
##  9  Bangladesh           4.5e+11 157157392     27
## 10    Barbados           4.3e+09    282503     75
## # ... with 129 more rows

Otra herramienta para complejizar nuestra selección se encuentra en las funciones de ayuda. Entre ellas, starts_with es de particular utilidad, permitiendo seleccionar variables que empiecen con cierto patrón. Por ejemplo, podríamos querer, a partir del nombre del país, todas las variables que provengan de los World Development Indicators (WDI) del Banco Mundial:

select(qog_mod, cname, starts_with("wdi_"))
## # A tibble: 139 x 3
##          cname wdi_gdppppcon2011   wdi_pop
##          <chr>             <dbl>     <int>
##  1 Afghanistan           5.8e+10  30682500
##  2     Albania           2.9e+10   2897366
##  3     Algeria           5.1e+11  38186136
##  4      Angola           1.5e+11  23448202
##  5   Australia           9.9e+11  23125868
##  6     Austria           3.7e+11   8479375
##  7     Bahamas           8.5e+09    377841
##  8     Bahrain           5.7e+10   1349427
##  9  Bangladesh           4.5e+11 157157392
## 10    Barbados           4.3e+09    282503
## # ... with 129 more rows

Otra función de ayuda útil es everything(), que se lee como “todas las demás variables”. Es especialmente útil para cambiar el orden de las variables en una bases de datos. Por ejemplo, pasemos región al segundo lugar entre las variables:

select(qog_mod, cname, region, everything())
## # A tibble: 139 x 7
##          cname                    region wdi_gdppppcon2011   wdi_pop
##          <chr>                     <chr>             <dbl>     <int>
##  1 Afghanistan             Southern Asia           5.8e+10  30682500
##  2     Albania           Southern Europe           2.9e+10   2897366
##  3     Algeria           Northern Africa           5.1e+11  38186136
##  4      Angola             Middle Africa           1.5e+11  23448202
##  5   Australia Australia and New Zealand           9.9e+11  23125868
##  6     Austria            Western Europe           3.7e+11   8479375
##  7     Bahamas                 Caribbean           8.5e+09    377841
##  8     Bahrain              Western Asia           5.7e+10   1349427
##  9  Bangladesh             Southern Asia           4.5e+11 157157392
## 10    Barbados                 Caribbean           4.3e+09    282503
## # ... with 129 more rows, and 3 more variables: ti_cpi <dbl>,
## #   lp_muslim80 <dbl>, fh_ipolity2 <dbl>

4.5 Renombrar columnas de la base con rename()

La notación para el GDP es un poco confusa. ¿Y si queremos cambiar el nombre de la variable? Aprovechemos también de cambiar el nombre de la variable de identificación por país.

rename(qog_mod, wdi_gdp = wdi_gdppppcon2011, country_name = cname)
## # A tibble: 139 x 7
##    country_name wdi_gdp   wdi_pop ti_cpi lp_muslim80 fh_ipolity2
##           <chr>   <dbl>     <int>  <dbl>       <dbl>       <dbl>
##  1  Afghanistan 5.8e+10  30682500      8        99.3        2.02
##  2      Albania 2.9e+10   2897366     31        20.5        8.08
##  3      Algeria 5.1e+11  38186136     36        99.1        4.25
##  4       Angola 1.5e+11  23448202     23         0.0        3.25
##  5    Australia 9.9e+11  23125868     81         0.2       10.00
##  6      Austria 3.7e+11   8479375     69         0.6       10.00
##  7      Bahamas 8.5e+09    377841     71         0.0       10.00
##  8      Bahrain 5.7e+10   1349427     48        95.0        0.83
##  9   Bangladesh 4.5e+11 157157392     27        85.9        6.42
## 10     Barbados 4.3e+09    282503     75         0.2       10.00
## # ... with 129 more rows, and 1 more variables: region <chr>
…
¿Qué pasa si queremos solo las filas de países sudamericanos con más de 10 millones de habitantes (nos quedamos con 8 de 12)?

¿Cuáles son los filtros que aplican los siguientes comandos?

filter(qog_mod, fh_ipolity2 > 9)
## # A tibble: 39 x 7
##             cname wdi_gdppppcon2011  wdi_pop ti_cpi lp_muslim80
##             <chr>             <dbl>    <int>  <dbl>       <dbl>
##  1      Australia           9.9e+11 23125868     81         0.2
##  2        Austria           3.7e+11  8479375     69         0.6
##  3        Bahamas           8.5e+09   377841     71         0.0
##  4       Barbados           4.3e+09   282503     75         0.2
##  5        Belgium           4.5e+11 11182817     75         1.1
##  6         Canada           1.5e+12 35158304     81         0.6
##  7     Cape Verde           3.1e+09   507258     58         0.0
##  8          Chile           3.8e+11 17575832     71         0.0
##  9     Costa Rica           6.5e+10  4706433     53         0.0
## 10 Cyprus (1975-)           2.6e+10  1141652     63        18.5
## # ... with 29 more rows, and 2 more variables: fh_ipolity2 <dbl>,
## #   region <chr>
…
filter(qog_mod, cname != "Albania")
## # A tibble: 138 x 7
##          cname wdi_gdppppcon2011   wdi_pop ti_cpi lp_muslim80 fh_ipolity2
##          <chr>             <dbl>     <int>  <dbl>       <dbl>       <dbl>
##  1 Afghanistan           5.8e+10  30682500      8        99.3        2.02
##  2     Algeria           5.1e+11  38186136     36        99.1        4.25
##  3      Angola           1.5e+11  23448202     23         0.0        3.25
##  4   Australia           9.9e+11  23125868     81         0.2       10.00
##  5     Austria           3.7e+11   8479375     69         0.6       10.00
##  6     Bahamas           8.5e+09    377841     71         0.0       10.00
##  7     Bahrain           5.7e+10   1349427     48        95.0        0.83
##  8  Bangladesh           4.5e+11 157157392     27        85.9        6.42
##  9    Barbados           4.3e+09    282503     75         0.2       10.00
## 10     Belgium           4.5e+11  11182817     75         1.1        9.50
## # ... with 128 more rows, and 1 more variables: region <chr>
…
4.7 Crear nuevas variables en la base con mutate()

Muchas veces queremos crear nuevas variables, a partir de las que ya tenemos. Por ejemplo, podríamos querer el GDP per capita, en vez del absoluto. Tenemos los ingredientes para calcularlo: el GDP absoluto y la población. Creemos una nueva variable, entonces:

mutate(qog_mod, gdp_ppp_per_capita = wdi_gdppppcon2011/wdi_pop)
## # A tibble: 139 x 8
##          cname wdi_gdppppcon2011   wdi_pop ti_cpi lp_muslim80 fh_ipolity2
##          <chr>             <dbl>     <int>  <dbl>       <dbl>       <dbl>
##  1 Afghanistan           5.8e+10  30682500      8        99.3        2.02
##  2     Albania           2.9e+10   2897366     31        20.5        8.08
##  3     Algeria           5.1e+11  38186136     36        99.1        4.25
##  4      Angola           1.5e+11  23448202     23         0.0        3.25
##  5   Australia           9.9e+11  23125868     81         0.2       10.00
##  6     Austria           3.7e+11   8479375     69         0.6       10.00
##  7     Bahamas           8.5e+09    377841     71         0.0       10.00
##  8     Bahrain           5.7e+10   1349427     48        95.0        0.83
##  9  Bangladesh           4.5e+11 157157392     27        85.9        6.42
## 10    Barbados           4.3e+09    282503     75         0.2       10.00
## # ... with 129 more rows, and 2 more variables: region <chr>,
## #   gdp_ppp_per_capita <dbl>
…
