02A - Manejo de datos | Programación para las Ciencias Sociales
…
Resúmenes simples para data frames

El resumen más simple de un objeto en R suele poder obtenerse con su nombre comando. Nota cómo debajo de cada nombre, algunas variables tienen <dbl> y otras <chr>. ¿Qué significa esto?

df_aprob

## # A tibble: 1,020 x 12
##    country    year quarter president               net_approval pres_sex pres_sex_d exec_corr gdp_growth unemp       wdi_gdp  wdi_pop
##    <chr>     <dbl>   <dbl> <chr>                          <dbl> <chr>         <dbl>     <dbl>      <dbl> <dbl>         <dbl>    <dbl>
##  1 Argentina  2000       1 Fernando de la Rúa             40.1  male              0      14.0       -0.8  15   552151219031. 37057452
##  2 Argentina  2000       2 Fernando de la Rúa             16.4  male              0      14.0       -0.8  15   552151219031. 37057452
##  3 Argentina  2000       3 Fernando de la Rúa             24.0  male              0      14.0       -0.8  15   552151219031. 37057452
##  4 Argentina  2000       4 Fernando de la Rúa            -18.3  male              0      14.0       -0.8  15   552151219031. 37057452
##  5 Argentina  2001       1 Fernando de la Rúa             -6.97 male              0      14.0       -4.4  18.3 527807756979. 37471509
##  6 Argentina  2001       2 Fernando de la Rúa            -20.1  male              0      14.0       -4.4  18.3 527807756979. 37471509
##  7 Argentina  2001       3 Fernando de la Rúa            -19.4  male              0      14.0       -4.4  18.3 527807756979. 37471509
##  8 Argentina  2001       4 Fernando de la Rúa            -23.2  male              0      14.0       -4.4  18.3 527807756979. 37471509
##  9 Argentina  2002       1 Eduardo Alberto Duhalde        -2.01 male              0      25.0      -10.9  17.9 470305820970. 37889370
## 10 Argentina  2002       2 Eduardo Alberto Duhalde       -20.1  male              0      25.0      -10.9  17.9 470305820970. 37889370
## # … with 1,010 more rows
…
wdi_pop

Manejo de datos: operaciones básicas

En todas las operaciones básicas que veremos hoy el primer argumento en la función será el data frame a editar.

Seleccionar columnas con select()

Seleccionemos solo la columna de países:

select(df_aprob, country)

## # A tibble: 1,020 x 1
##    country  
##    <chr>    
##  1 Argentina
##  2 Argentina
##  3 Argentina
##  4 Argentina
##  5 Argentina
##  6 Argentina
##  7 Argentina
##  8 Argentina
##  9 Argentina
## 10 Argentina
## # … with 1,010 more rows

Recuerda que esto no creó ningún objeto nuevo, es solo un comando que estamos ejecutando en la consola. Si quisiéramos crear un objeto nuevo, tendríamos que asignarlo:

df_aprob_reducida <- select(df_aprob, country)
df_aprob_reducida

## # A tibble: 1,020 x 1
##    country  
##    <chr>    
##  1 Argentina
##  2 Argentina
##  3 Argentina
##  4 Argentina
##  5 Argentina
##  6 Argentina
##  7 Argentina
##  8 Argentina
##  9 Argentina
## 10 Argentina
## # … with 1,010 more rows

Podemos seleccionar múltiples columnas a la vez, separadas por comas:

select(df_aprob, country, year, unemp)

## # A tibble: 1,020 x 3
##    country    year unemp
##    <chr>     <dbl> <dbl>
##  1 Argentina  2000  15  
##  2 Argentina  2000  15  
##  3 Argentina  2000  15  
##  4 Argentina  2000  15  
##  5 Argentina  2001  18.3
##  6 Argentina  2001  18.3
##  7 Argentina  2001  18.3
##  8 Argentina  2001  18.3
##  9 Argentina  2002  17.9
## 10 Argentina  2002  17.9
## # … with 1,010 more rows

Supongamos que queremos las primeras cinco variables de la base de datos. Las siguientes tres formas nos permitirán obtenerlas:

select(df_aprob, country, year, quarter, president, net_approval)

## # A tibble: 1,020 x 5
##    country    year quarter president               net_approval
##    <chr>     <dbl>   <dbl> <chr>                          <dbl>
##  1 Argentina  2000       1 Fernando de la Rúa             40.1 
##  2 Argentina  2000       2 Fernando de la Rúa             16.4 
##  3 Argentina  2000       3 Fernando de la Rúa             24.0 
##  4 Argentina  2000       4 Fernando de la Rúa            -18.3 
##  5 Argentina  2001       1 Fernando de la Rúa             -6.97
##  6 Argentina  2001       2 Fernando de la Rúa            -20.1 
##  7 Argentina  2001       3 Fernando de la Rúa            -19.4 
##  8 Argentina  2001       4 Fernando de la Rúa            -23.2 
##  9 Argentina  2002       1 Eduardo Alberto Duhalde        -2.01
## 10 Argentina  2002       2 Eduardo Alberto Duhalde       -20.1 
## # … with 1,010 more rows

select(df_aprob, country:net_approval) # esta es la forma recomendada para la mayoría de los casos

## # A tibble: 1,020 x 5
##    country    year quarter president               net_approval
##    <chr>     <dbl>   <dbl> <chr>                          <dbl>
##  1 Argentina  2000       1 Fernando de la Rúa             40.1 
##  2 Argentina  2000       2 Fernando de la Rúa             16.4 
##  3 Argentina  2000       3 Fernando de la Rúa             24.0 
##  4 Argentina  2000       4 Fernando de la Rúa            -18.3 
##  5 Argentina  2001       1 Fernando de la Rúa             -6.97
##  6 Argentina  2001       2 Fernando de la Rúa            -20.1 
##  7 Argentina  2001       3 Fernando de la Rúa            -19.4 
##  8 Argentina  2001       4 Fernando de la Rúa            -23.2 
##  9 Argentina  2002       1 Eduardo Alberto Duhalde        -2.01
## 10 Argentina  2002       2 Eduardo Alberto Duhalde       -20.1 
## # … with 1,010 more rows

select(df_aprob, 1:5)

## # A tibble: 1,020 x 5
##    country    year quarter president               net_approval
##    <chr>     <dbl>   <dbl> <chr>                          <dbl>
##  1 Argentina  2000       1 Fernando de la Rúa             40.1 
##  2 Argentina  2000       2 Fernando de la Rúa             16.4 
##  3 Argentina  2000       3 Fernando de la Rúa             24.0 
##  4 Argentina  2000       4 Fernando de la Rúa            -18.3 
##  5 Argentina  2001       1 Fernando de la Rúa             -6.97
##  6 Argentina  2001       2 Fernando de la Rúa            -20.1 
##  7 Argentina  2001       3 Fernando de la Rúa            -19.4 
##  8 Argentina  2001       4 Fernando de la Rúa            -23.2 
##  9 Argentina  2002       1 Eduardo Alberto Duhalde        -2.01
## 10 Argentina  2002       2 Eduardo Alberto Duhalde       -20.1 
## # … with 1,010 more rows

El comando select() también nos sirve para reordenar las columnas. Supongamos que queremos que la variable president sea la primera. Podemos hacer algo como esto:

select(df_aprob, president, country:year, net_approval:unemp)

## # A tibble: 1,020 x 9
##    president               country    year net_approval pres_sex pres_sex_d exec_corr gdp_growth unemp
##    <chr>                   <chr>     <dbl>        <dbl> <chr>         <dbl>     <dbl>      <dbl> <dbl>
##  1 Fernando de la Rúa      Argentina  2000        40.1  male              0      14.0       -0.8  15  
##  2 Fernando de la Rúa      Argentina  2000        16.4  male              0      14.0       -0.8  15  
##  3 Fernando de la Rúa      Argentina  2000        24.0  male              0      14.0       -0.8  15  
##  4 Fernando de la Rúa      Argentina  2000       -18.3  male              0      14.0       -0.8  15  
##  5 Fernando de la Rúa      Argentina  2001        -6.97 male              0      14.0       -4.4  18.3
##  6 Fernando de la Rúa      Argentina  2001       -20.1  male              0      14.0       -4.4  18.3
##  7 Fernando de la Rúa      Argentina  2001       -19.4  male              0      14.0       -4.4  18.3
##  8 Fernando de la Rúa      Argentina  2001       -23.2  male              0      14.0       -4.4  18.3
##  9 Eduardo Alberto Duhalde Argentina  2002        -2.01 male              0      25.0      -10.9  17.9
## 10 Eduardo Alberto Duhalde Argentina  2002       -20.1  male              0      25.0      -10.9  17.9
## # … with 1,010 more rows

Esta forma es un poco tediosa. Hay una función de ayuda que nos será útil en este caso, se llama everything()

select(df_aprob, president, everything()) # selecciona "president" y todo lo demás

## # A tibble: 1,020 x 12
##    president               country    year quarter net_approval pres_sex pres_sex_d exec_corr gdp_growth unemp       wdi_gdp  wdi_pop
##    <chr>                   <chr>     <dbl>   <dbl>        <dbl> <chr>         <dbl>     <dbl>      <dbl> <dbl>         <dbl>    <dbl>
##  1 Fernando de la Rúa      Argentina  2000       1        40.1  male              0      14.0       -0.8  15   552151219031. 37057452
##  2 Fernando de la Rúa      Argentina  2000       2        16.4  male              0      14.0       -0.8  15   552151219031. 37057452
##  3 Fernando de la Rúa      Argentina  2000       3        24.0  male              0      14.0       -0.8  15   552151219031. 37057452
##  4 Fernando de la Rúa      Argentina  2000       4       -18.3  male              0      14.0       -0.8  15   552151219031. 37057452
##  5 Fernando de la Rúa      Argentina  2001       1        -6.97 male              0      14.0       -4.4  18.3 527807756979. 37471509
##  6 Fernando de la Rúa      Argentina  2001       2       -20.1  male              0      14.0       -4.4  18.3 527807756979. 37471509
##  7 Fernando de la Rúa      Argentina  2001       3       -19.4  male              0      14.0       -4.4  18.3 527807756979. 37471509
##  8 Fernando de la Rúa      Argentina  2001       4       -23.2  male              0      14.0       -4.4  18.3 527807756979. 37471509
##  9 Eduardo Alberto Duhalde Argentina  2002       1        -2.01 male              0      25.0      -10.9  17.9 470305820970. 37889370
## 10 Eduardo Alberto Duhalde Argentina  2002       2       -20.1  male              0      25.0      -10.9  17.9 470305820970. 37889370
## # … with 1,010 more rows

Renombrar columnas con rename()

Podemos cambiar el nombre de una columna con el comando rename(). Por ejemplo:

rename(df_aprob, trimeste = quarter) # noten que no estoy modificando la base, solo imprimiéndola!

## # A tibble: 1,020 x 12
##    country    year trimeste president               net_approval pres_sex pres_sex_d exec_corr gdp_growth unemp       wdi_gdp  wdi_pop
##    <chr>     <dbl>    <dbl> <chr>                          <dbl> <chr>         <dbl>     <dbl>      <dbl> <dbl>         <dbl>    <dbl>
##  1 Argentina  2000        1 Fernando de la Rúa             40.1  male              0      14.0       -0.8  15   552151219031. 37057452
##  2 Argentina  2000        2 Fernando de la Rúa             16.4  male              0      14.0       -0.8  15   552151219031. 37057452
##  3 Argentina  2000        3 Fernando de la Rúa             24.0  male              0      14.0       -0.8  15   552151219031. 37057452
##  4 Argentina  2000        4 Fernando de la Rúa            -18.3  male              0      14.0       -0.8  15   552151219031. 37057452
##  5 Argentina  2001        1 Fernando de la Rúa             -6.97 male              0      14.0       -4.4  18.3 527807756979. 37471509
##  6 Argentina  2001        2 Fernando de la Rúa            -20.1  male              0      14.0       -4.4  18.3 527807756979. 37471509
##  7 Argentina  2001        3 Fernando de la Rúa            -19.4  male              0      14.0       -4.4  18.3 527807756979. 37471509
##  8 Argentina  2001        4 Fernando de la Rúa            -23.2  male              0      14.0       -4.4  18.3 527807756979. 37471509
##  9 Argentina  2002        1 Eduardo Alberto Duhalde        -2.01 male              0      25.0      -10.9  17.9 470305820970. 37889370
## 10 Argentina  2002        2 Eduardo Alberto Duhalde       -20.1  male              0      25.0      -10.9  17.9 470305820970. 37889370
## # … with 1,010 more rows

Filtrar observaciones con filter()

A menudo queremos quedarnos solo con algunas observaciones de nuestra base de datos, filtrando de acuerdo a características específicas. Podemos hacer esto gracias a la función filter() y algo llamado “operadores lógicos”. Para comenzar, quedémonos solo con las observaciones de Chile:

filter(df_aprob, country == "Chile")

## # A tibble: 60 x 12
##    country  year quarter president                          net_approval pres_sex pres_sex_d exec_corr gdp_growth unemp       wdi_gdp  wdi_pop
##    <chr>   <dbl>   <dbl> <chr>                                     <dbl> <chr>         <dbl>     <dbl>      <dbl> <dbl>         <dbl>    <dbl>
##  1 Chile    2000       1 Eduardo Frei Ruiz-Tagle                    6.22 male              0      3.63        5.3   9.2 218492826314. 15262754
##  2 Chile    2000       2 Ricardo Lagos Escobar                     19.8  male              0      3.63        5.3   9.2 218492826314. 15262754
##  3 Chile    2000       3 Ricardo Lagos Escobar                     19.5  male              0      3.63        5.3   9.2 218492826314. 15262754
##  4 Chile    2000       4 Ricardo Lagos Escobar                     14.8  male              0      3.63        5.3   9.2 218492826314. 15262754
##  5 Chile    2001       1 Ricardo Lagos Escobar                      7.99 male              0      3.63        3.3   9.1 225709747742. 15444969
##  6 Chile    2001       2 Ricardo Lagos Escobar                      1.81 male              0      3.63        3.3   9.1 225709747742. 15444969
##  7 Chile    2001       3 Ricardo Lagos Escobar                     -1.40 male              0      3.63        3.3   9.1 225709747742. 15444969
##  8 Chile    2001       4 Ricardo Lagos Escobar                      6.90 male              0      3.63        3.3   9.1 225709747742. 15444969
##  9 Chile    2002       1 Ricardo Lagos Escobar                      6.60 male              0      3.63        3.1   8.9 232722483093. 15623635
## 10 Chile    2002       2 Ricardo Lagos Escobar                      3.65 male              0      3.63        3.1   8.9 232722483093. 15623635
## # … with 50 more rows
…
&
intersección

|
unión

%in%
está contenido en

Por ejemplo, podemos obtener todas las observaciones (país-año-trimestre) en las que la aprobación presidencial neta es positiva:

filter(df_aprob, net_approval > 0)

## # A tibble: 709 x 12
##    country    year quarter president               net_approval pres_sex pres_sex_d exec_corr gdp_growth unemp       wdi_gdp  wdi_pop
##    <chr>     <dbl>   <dbl> <chr>                          <dbl> <chr>         <dbl>     <dbl>      <dbl> <dbl>         <dbl>    <dbl>
##  1 Argentina  2000       1 Fernando de la Rúa              40.1 male              0      14.0       -0.8  15   552151219031. 37057452
##  2 Argentina  2000       2 Fernando de la Rúa              16.4 male              0      14.0       -0.8  15   552151219031. 37057452
##  3 Argentina  2000       3 Fernando de la Rúa              24.0 male              0      14.0       -0.8  15   552151219031. 37057452
##  4 Argentina  2003       2 Eduardo Alberto Duhalde         26.5 male              0      50.1        8.8  17.4 511866938234. 38309379
##  5 Argentina  2003       3 Néstor Carlos Kirchner          53.7 male              0      50.1        8.8  16.1 511866938234. 38309379
##  6 Argentina  2003       4 Néstor Carlos Kirchner          53.0 male              0      50.1        8.8  14.5 511866938234. 38309379
##  7 Argentina  2004       1 Néstor Carlos Kirchner          57.1 male              0      50.1        9    14.3 558086338624. 38728696
##  8 Argentina  2004       2 Néstor Carlos Kirchner          52.8 male              0      50.1        9    14.7 558086338624. 38728696
##  9 Argentina  2004       3 Néstor Carlos Kirchner          39.1 male              0      50.1        9    13.1 558086338624. 38728696
## 10 Argentina  2004       4 Néstor Carlos Kirchner          44.9 male              0      50.1        9    12.0 558086338624. 38728696
## # … with 699 more rows

Podemos también realizar filtros más complejos. Obtengamos solo las observaciones del Cono Sur:

filter(df_aprob, country == "Argentina" | country == "Chile" | country == "Uruguay")

## # A tibble: 180 x 12
##    country    year quarter president               net_approval pres_sex pres_sex_d exec_corr gdp_growth unemp       wdi_gdp  wdi_pop
##    <chr>     <dbl>   <dbl> <chr>                          <dbl> <chr>         <dbl>     <dbl>      <dbl> <dbl>         <dbl>    <dbl>
##  1 Argentina  2000       1 Fernando de la Rúa             40.1  male              0      14.0       -0.8  15   552151219031. 37057452
##  2 Argentina  2000       2 Fernando de la Rúa             16.4  male              0      14.0       -0.8  15   552151219031. 37057452
##  3 Argentina  2000       3 Fernando de la Rúa             24.0  male              0      14.0       -0.8  15   552151219031. 37057452
##  4 Argentina  2000       4 Fernando de la Rúa            -18.3  male              0      14.0       -0.8  15   552151219031. 37057452
##  5 Argentina  2001       1 Fernando de la Rúa             -6.97 male              0      14.0       -4.4  18.3 527807756979. 37471509
##  6 Argentina  2001       2 Fernando de la Rúa            -20.1  male              0      14.0       -4.4  18.3 527807756979. 37471509
##  7 Argentina  2001       3 Fernando de la Rúa            -19.4  male              0      14.0       -4.4  18.3 527807756979. 37471509
##  8 Argentina  2001       4 Fernando de la Rúa            -23.2  male              0      14.0       -4.4  18.3 527807756979. 37471509
##  9 Argentina  2002       1 Eduardo Alberto Duhalde        -2.01 male              0      25.0      -10.9  17.9 470305820970. 37889370
## 10 Argentina  2002       2 Eduardo Alberto Duhalde       -20.1  male              0      25.0      -10.9  17.9 470305820970. 37889370
## # … with 170 more rows

filter(df_aprob, country %in% c("Argentina", "Chile", "Uruguay")) # lo mismo, con otro op. lógico

## # A tibble: 180 x 12
##    country    year quarter president               net_approval pres_sex pres_sex_d exec_corr gdp_growth unemp       wdi_gdp  wdi_pop
##    <chr>     <dbl>   <dbl> <chr>                          <dbl> <chr>         <dbl>     <dbl>      <dbl> <dbl>         <dbl>    <dbl>
##  1 Argentina  2000       1 Fernando de la Rúa             40.1  male              0      14.0       -0.8  15   552151219031. 37057452
##  2 Argentina  2000       2 Fernando de la Rúa             16.4  male              0      14.0       -0.8  15   552151219031. 37057452
##  3 Argentina  2000       3 Fernando de la Rúa             24.0  male              0      14.0       -0.8  15   552151219031. 37057452
##  4 Argentina  2000       4 Fernando de la Rúa            -18.3  male              0      14.0       -0.8  15   552151219031. 37057452
##  5 Argentina  2001       1 Fernando de la Rúa             -6.97 male              0      14.0       -4.4  18.3 527807756979. 37471509
##  6 Argentina  2001       2 Fernando de la Rúa            -20.1  male              0      14.0       -4.4  18.3 527807756979. 37471509
##  7 Argentina  2001       3 Fernando de la Rúa            -19.4  male              0      14.0       -4.4  18.3 527807756979. 37471509
##  8 Argentina  2001       4 Fernando de la Rúa            -23.2  male              0      14.0       -4.4  18.3 527807756979. 37471509
##  9 Argentina  2002       1 Eduardo Alberto Duhalde        -2.01 male              0      25.0      -10.9  17.9 470305820970. 37889370
## 10 Argentina  2002       2 Eduardo Alberto Duhalde       -20.1  male              0      25.0      -10.9  17.9 470305820970. 37889370
## # … with 170 more rows
…
