02C - Manejo de datos (extras) | Programación para las Ciencias Sociales
…
Aparte de hacer resúmenes, crear múltiples variables según una misma operación es bastante común.

Supongamos que queremos las cifras relativas (tasas) para cada tipo de delito, como en el siguiente ejemplo:

df_casos_policiales_l %>% 
  mutate(lesiones_leves_c1000 = lesiones_leves * 1000 / poblacion_ine_2017) %>% 
  select(comuna, poblacion_ine_2017, lesiones_leves, lesiones_leves_c1000) # solo para legibilidad

## # A tibble: 340 x 4
##    comuna          poblacion_ine_2017 lesiones_leves lesiones_leves_c1000
##    <chr>                        <dbl>          <dbl>                <dbl>
##  1 Algarrobo                    10700             52                 4.86
##  2 Alhué                         5916             26                 4.39
##  3 Alto-Biobío                   5957             24                 4.03
##  4 Alto-del-Carmen               6519              8                 1.23
##  5 Alto-Hospicio               124872            523                 4.19
##  6 Ancud                        44249            132                 2.98
##  7 Andacollo                    11555             77                 6.66
##  8 Angol                        55845            244                 4.37
##  9 Antártica                      202              0                 0   
## 10 Antofagasta                 389812           1528                 3.92
## # … with 330 more rows

Podemos utilizar mutate_at() para repetir esta operación en todas nuestras variables de interés.

df_casos_policiales_l %>% 
  mutate_at(.vars = vars(robos_con_violencia_o_intimidacion:vif),
            .funs = list(c1000 = ~ . * 1000 / poblacion_ine_2017))

## # A tibble: 340 x 30
##    comuna comuna_id region_id poblacion_ine_2… robos_con_viole… robos_por_sorpr… robos_de_vehicu… robos_de_objeto… robos_en_lugar_… robos_en_lugar_… otros_robos_con… hurtos lesiones_menos_… lesiones_leves homicidios violaciones   vif robos_con_viole…
##    <chr>      <dbl>     <dbl>            <dbl>            <dbl>            <dbl>            <dbl>            <dbl>            <dbl>            <dbl>            <dbl>  <dbl>            <dbl>          <dbl>      <dbl>       <dbl> <dbl>            <dbl>
##  1 Algar…      5602         5            10700               23               11                9               56              384               80                5    184               22             52          0           1   129            2.15 
##  2 Alhué      13502        13             5916                5                2                2                1               18               16                1     15                3             26          1           0    29            0.845
##  3 Alto-…      8314         8             5957                1                1                0                3                1                7                0     18               16             24          0           3    62            0.168
##  4 Alto-…      3302         3             6519                1                0                0                1                6                7                0     11                2              8          0           0    26            0.153
##  5 Alto-…      1107         1           124872              396              222              461              338              565              193               23    791              130            523          1          20  1226            3.17 
##  6 Ancud      10202        10            44249               23               13                2               30              111              130                6    253               31            132          0          10   330            0.520
##  7 Andac…      4103         4            11555               11                6                0                8               37               20                3     39                9             77          0           1    67            0.952
##  8 Angol       9201         9            55845               93              119               41               58              261              181               35    549               55            244          2           7   508            1.67 
##  9 Antár…     12202        12              202                0                0                0                0                0                0                0      0                0              0          0           0     0            0    
## 10 Antof…      2101         2           389812             1150              646              987             1010             1024              778               43   5445              295           1528         13          50  2384            2.95 
## # … with 330 more rows, and 12 more variables: robos_por_sorpresa_c1000 <dbl>, robos_de_vehiculo_motorizado_c1000 <dbl>, robos_de_objeto_de_o_desde_vehiculo_c1000 <dbl>, robos_en_lugar_habitado_c1000 <dbl>, robos_en_lugar_no_habitado_c1000 <dbl>,
## #   otros_robos_con_fuerza_c1000 <dbl>, hurtos_c1000 <dbl>, lesiones_menos_graves_graves_o_gravisimas_c1000 <dbl>, lesiones_leves_c1000 <dbl>, homicidios_c1000 <dbl>, violaciones_c1000 <dbl>, vif_c1000 <dbl>
…
