05B - Manejo avanzado de datos (ejercicio) | Programación para las Ciencias Sociales
…
# (este no es el formato original de OWID, aunque se parece bastante)

df_gasto_burocracia <- read_csv("datos/gasto_burocracia.csv")

## Parsed with column specification:
## cols(
##   PAÍS = col_character(),
##   AÑO = col_double(),
##   `% DE BUROCRACIA EN GASTO FISCAL` = col_double()
## )

df_gasto_burocracia

## # A tibble: 216 x 3
##    PAÍS        AÑO `% DE BUROCRACIA EN GASTO FISCAL`
##    <chr>     <dbl>                             <dbl>
##  1 Argentina  2000                              14.7
##  2 Argentina  2001                              14.2
##  3 Argentina  2002                              11.3
##  4 Argentina  2003                              11.7
##  5 Argentina  2004                              11.5
##  6 Argentina  2005                              NA  
##  7 Argentina  2006                              NA  
##  8 Argentina  2007                              NA  
##  9 Argentina  2008                              NA  
## 10 Argentina  2009                              NA  
## # ... with 206 more rows
…
