01 - R básico | Programación para las Ciencias Sociales
…
El “Trump Score” es el porcentaje de votaciones en las que un senador/a ha estado alineado/a con Donald Trump. El “Trump Margin” es el margen que Trump obtuvo en el estado del senador/a en cuestión.

Fuente: FiveThirtyEight (2020). Descargado el 11 de marzo de 2020.

df_trump_scores       # imprime un vistazo rápido

## # A tibble: 100 x 5
##    last_name  state party trump_score trump_margin
##    <chr>      <chr> <chr>       <dbl>        <dbl>
##  1 Alexander  TN    R            80         26.0  
##  2 Blunt      MO    R            84.8       18.6  
##  3 Brown      OH    D            14.7        8.13 
##  4 Burr       NC    R            90.3        3.66 
##  5 Baldwin    WI    D            14.7        0.764
##  6 Boozman    AR    R            88.2       26.9  
##  7 Blackburn  TN    R            93.9       26.0  
##  8 Barrasso   WY    R            91.2       46.3  
##  9 Bennet     CO    D            15.4       -4.91 
## 10 Blumenthal CT    D            11.8      -13.6  
## # ... with 90 more rows
…
Listas

Las listas son objetos que pueden contener otros objetos, sin importar su tipo!

mi_lista <- list(mi_objeto, mi_vector, df_trump_scores, mi_modelo)

De la siguiente forma podemos acceder a los elementos de una lista, similar a lo que hicimos antes con vectores:

mi_lista[3]

## [[1]]
## # A tibble: 100 x 5
##    last_name  state party trump_score trump_margin
##    <chr>      <chr> <chr>       <dbl>        <dbl>
##  1 Alexander  TN    R            80         26.0  
##  2 Blunt      MO    R            84.8       18.6  
##  3 Brown      OH    D            14.7        8.13 
##  4 Burr       NC    R            90.3        3.66 
##  5 Baldwin    WI    D            14.7        0.764
##  6 Boozman    AR    R            88.2       26.9  
##  7 Blackburn  TN    R            93.9       26.0  
##  8 Barrasso   WY    R            91.2       46.3  
##  9 Bennet     CO    D            15.4       -4.91 
## 10 Blumenthal CT    D            11.8      -13.6  
## # ... with 90 more rows

mi_lista[[3]]

## # A tibble: 100 x 5
##    last_name  state party trump_score trump_margin
##    <chr>      <chr> <chr>       <dbl>        <dbl>
##  1 Alexander  TN    R            80         26.0  
##  2 Blunt      MO    R            84.8       18.6  
##  3 Brown      OH    D            14.7        8.13 
##  4 Burr       NC    R            90.3        3.66 
##  5 Baldwin    WI    D            14.7        0.764
##  6 Boozman    AR    R            88.2       26.9  
##  7 Blackburn  TN    R            93.9       26.0  
##  8 Barrasso   WY    R            91.2       46.3  
##  9 Bennet     CO    D            15.4       -4.91 
## 10 Blumenthal CT    D            11.8      -13.6  
## # ... with 90 more rows
…
