06A - Análisis de texto | Programación para las Ciencias Sociales
…
La unidad de análisis de estas bases de datos es la línea de texto. Esto es bastante común en los cuerpos de texto que provienen de libros / recursos impresos (la mayoría). Es probable que sea igual en, por ejemplo, programas de candidaturas políticas.

Lo más común en análisis de texto, sin embargo, es analizar palabras o n-gramas (conjuntos de palabras). Esto no quita que a veces otras unidades de análisis sean interesantes (líneas, párrafos, capítulos, etc.), dependiendo de nuestras preguntas de investigación.

Estas diferentes unidades de análisis de texto se llaman “tokens” en tidytext, y es posible pasar una base a una unidad de análisis más pequeña con la función unnest_tokens(). Obtengamos las palabras en “Leviathan”:

palabras_leviathan <- leviathan %>% 
  unnest_tokens(output = word, input = text, token = "words")

¿Cuáles son las palabras más usadas en el libro?

palabras_leviathan %>% 
  count(word, sort = TRUE)

## # A tibble: 9,965 x 2
##    word      n
##    <chr> <int>
##  1 the   14969
##  2 of    10867
##  3 and    7336
##  4 to     7275
##  5 is     4863
##  6 that   4810
##  7 in     4155
##  8 a      3145
##  9 by     2635
## 10 for    2523
## # ... with 9,955 more rows
…
palabras_leviathan_limpio <- leviathan %>% 
  unnest_tokens(output = word, input = text, token = "words") %>% 
  # filtrar stop words!
  filter(!(word %in% stop_words_en))

palabras_leviathan_limpio

## # A tibble: 79,118 x 6
##    author        book      gutenberg_id chapter  line word     
##    <chr>         <chr>            <dbl>   <dbl> <dbl> <chr>    
##  1 Thomas Hobbes Leviathan         3207       0     1 leviathan
##  2 Thomas Hobbes Leviathan         3207       0     2 thomas   
##  3 Thomas Hobbes Leviathan         3207       0     2 hobbes   
##  4 Thomas Hobbes Leviathan         3207       0     3 1651     
##  5 Thomas Hobbes Leviathan         3207       0     4 leviathan
##  6 Thomas Hobbes Leviathan         3207       0     4 matter   
##  7 Thomas Hobbes Leviathan         3207       0     4 forme    
##  8 Thomas Hobbes Leviathan         3207       0     4 power    
##  9 Thomas Hobbes Leviathan         3207       0     4 common   
## 10 Thomas Hobbes Leviathan         3207       0     4 wealth   
## # ... with 79,108 more rows

Ahora calculemos las frecuencias:

palabras_leviathan_limpio %>% 
  count(word, sort = T)

## # A tibble: 9,559 x 2
##    word          n
##    <chr>     <int>
##  1 man        1071
##  2 god        1068
##  3 men         998
##  4 power       745
##  5 law         662
##  6 common      632
##  7 soveraign   497
##  8 hath        446
##  9 wealth      438
## 10 nature      420
## # ... with 9,549 more rows
…
## [1] 0.2079442

La función bind_tf_idf() nos permite calcular rápidamente el tf_idf para un conteo de palabras. Obtengamos las diez palabras más distintivas de cada capítulo del libro de Wollstonecraft:

tf_idf_rights <- palabras_rights_limpio %>% 
  filter(chapter != 0) %>% 
  count(word, chapter, sort = T) %>% 
  # fíjense en los argumentos:
  bind_tf_idf(term = word, document = chapter, n = n)

tf_idf_rights

## # A tibble: 18,020 x 6
##    word   chapter     n      tf    idf   tf_idf
##    <chr>    <dbl> <int>   <dbl>  <dbl>    <dbl>
##  1 women        4    86 0.0183  0      0       
##  2 reason       5    68 0.0104  0      0       
##  3 man          5    61 0.00934 0      0       
##  4 women       12    51 0.0124  0      0       
##  5 women       13    51 0.0171  0      0       
##  6 women        2    48 0.0140  0      0       
##  7 men          4    47 0.0100  0.0800 0.000803
##  8 woman        5    45 0.00689 0.167  0.00115 
##  9 man          2    43 0.0126  0      0       
## 10 man          4    43 0.00917 0      0       
## # ... with 18,010 more rows

# ahora vamos a quedarnos solo con los diez tf-idf más altos por documento (capítulo): 
rank_tf_idf_rights <- tf_idf_rights %>% 
  group_by(chapter) %>% 
  arrange(-tf_idf) %>% 
  slice(1:10) %>% 
  ungroup()

rank_tf_idf_rights

## # A tibble: 130 x 6
##    word         chapter     n      tf   idf  tf_idf
##    <chr>          <dbl> <int>   <dbl> <dbl>   <dbl>
##  1 profession         1     5 0.00382 1.47  0.00560
##  2 barbarism          1     3 0.00229 1.87  0.00429
##  3 thousands          1     3 0.00229 1.87  0.00429
##  4 curate             1     2 0.00153 2.56  0.00392
##  5 deformity          1     2 0.00153 2.56  0.00392
##  6 monarchy           1     2 0.00153 2.56  0.00392
##  7 pushes             1     2 0.00153 2.56  0.00392
##  8 unsound            1     2 0.00153 2.56  0.00392
##  9 perfection         1     5 0.00382 0.956 0.00365
## 10 civilization       1     6 0.00458 0.773 0.00354
## # ... with 120 more rows
…
