06B - Cadenas de texto | Programación para las Ciencias Sociales
…
Cada una de estas cadenas de texto contiene información que podría distribuirse en al menos cinco variables: cargo (diputado, senador*), año de inicio del período, año de término del período, distrito, partido. Nuestro objetivo será poder trabajar con dicha información, que por ahora está perdida en las cadenas (y es inútil). Para esto utilizaremos el paquete stringr, que se carga con el tidyverse.

Por cierto, los \n que se leen en las cadenas de texto significan “salto de párrafo”, como podemos ver en la caja de la reseña parlamentaria de ejemplo.

Algunas operaciones simples con texto

Cambiar mayúsculas

df_legisladores_cargos %>% 
  mutate(caja_trayectoria_edit = str_to_lower(caja_trayectoria)) %>% 
  select(caja_trayectoria, caja_trayectoria_edit) # solo para ver mejor el resultado

## # A tibble: 1,191 x 2
##    caja_trayectoria                                                                                                            caja_trayectoria_edit                                                                                                      
##    <chr>                                                                                                                       <chr>                                                                                                                      
##  1 "\nSenador institucional \n1998- 2006\n"                                                                                    "\nsenador institucional \n1998- 2006\n"                                                                                   
##  2 "\nDiputado \n2010- 2014\nDistrito N° 24Partido por la DemocraciaSucedido por: Jaime Hernán Gonzalo Pilowsky Greene"        "\ndiputado \n2010- 2014\ndistrito n° 24partido por la democraciasucedido por: jaime hernán gonzalo pilowsky greene"       
##  3 "\nDiputado \n2006- 2010\nDistrito N° 24Partido por la Democracia"                                                          "\ndiputado \n2006- 2010\ndistrito n° 24partido por la democracia"                                                         
##  4 "\nDiputado \n2002- 2006\nDistrito N° 24Partido por la DemocraciaPrecedido por: Tomás Jocelyn Holt Letelier"                "\ndiputado \n2002- 2006\ndistrito n° 24partido por la democraciaprecedido por: tomás jocelyn holt letelier"               
##  5 "\nDiputado \n1998- 2002\nDistrito N° 52Partido Demócrata CristianoSucedido por: Fernando Meza Moncada"                     "\ndiputado \n1998- 2002\ndistrito n° 52partido demócrata cristianosucedido por: fernando meza moncada"                    
##  6 "\nDiputado \n1994- 1998\nDistrito N° 52Partido Demócrata Cristiano"                                                        "\ndiputado \n1994- 1998\ndistrito n° 52partido demócrata cristiano"                                                       
##  7 "\nDiputado \n1990- 1994\nDistrito N° 52Partido Demócrata Cristiano"                                                        "\ndiputado \n1990- 1994\ndistrito n° 52partido demócrata cristiano"                                                       
##  8 "\nDiputado \n2006- 2010\nDistrito N° 5Partido Renovación NacionalPrecedido por: Carlos Vilches GuzmánSucedido por: Carlos~ "\ndiputado \n2006- 2010\ndistrito n° 5partido renovación nacionalprecedido por: carlos vilches guzmánsucedido por: carlos~
##  9 "\nDiputado \n2014- 2018\nDistrito N° 37 Independiente"                                                                     "\ndiputado \n2014- 2018\ndistrito n° 37 independiente"                                                                    
## 10 "\nDiputado \n2010- 2014\nDistrito N° 37 Izquierda Ciudadana"                                                               "\ndiputado \n2010- 2014\ndistrito n° 37 izquierda ciudadana"                                                              
## # ... with 1,181 more rows

(Ejercicio a)

Mira el archivo de ayuda de str_to_lower(). ¿Qué otras operaciones podemos hacer con las mayúsculas? Pruébalas con el ejemplo anterior. Tu código:

Eliminar espacios innecesarios

df_legisladores_cargos %>% 
  mutate(caja_trayectoria_edit = str_squish(caja_trayectoria)) %>% 
  select(caja_trayectoria, caja_trayectoria_edit) # solo para ver mejor el resultado

## # A tibble: 1,191 x 2
##    caja_trayectoria                                                                                                                caja_trayectoria_edit                                                                                                  
##    <chr>                                                                                                                           <chr>                                                                                                                  
##  1 "\nSenador institucional \n1998- 2006\n"                                                                                        Senador institucional 1998- 2006                                                                                       
##  2 "\nDiputado \n2010- 2014\nDistrito N° 24Partido por la DemocraciaSucedido por: Jaime Hernán Gonzalo Pilowsky Greene"            Diputado 2010- 2014 Distrito N° 24Partido por la DemocraciaSucedido por: Jaime Hernán Gonzalo Pilowsky Greene          
##  3 "\nDiputado \n2006- 2010\nDistrito N° 24Partido por la Democracia"                                                              Diputado 2006- 2010 Distrito N° 24Partido por la Democracia                                                            
##  4 "\nDiputado \n2002- 2006\nDistrito N° 24Partido por la DemocraciaPrecedido por: Tomás Jocelyn Holt Letelier"                    Diputado 2002- 2006 Distrito N° 24Partido por la DemocraciaPrecedido por: Tomás Jocelyn Holt Letelier                  
##  5 "\nDiputado \n1998- 2002\nDistrito N° 52Partido Demócrata CristianoSucedido por: Fernando Meza Moncada"                         Diputado 1998- 2002 Distrito N° 52Partido Demócrata CristianoSucedido por: Fernando Meza Moncada                       
##  6 "\nDiputado \n1994- 1998\nDistrito N° 52Partido Demócrata Cristiano"                                                            Diputado 1994- 1998 Distrito N° 52Partido Demócrata Cristiano                                                          
##  7 "\nDiputado \n1990- 1994\nDistrito N° 52Partido Demócrata Cristiano"                                                            Diputado 1990- 1994 Distrito N° 52Partido Demócrata Cristiano                                                          
##  8 "\nDiputado \n2006- 2010\nDistrito N° 5Partido Renovación NacionalPrecedido por: Carlos Vilches GuzmánSucedido por: Carlos Vil~ Diputado 2006- 2010 Distrito N° 5Partido Renovación NacionalPrecedido por: Carlos Vilches GuzmánSucedido por: Carlos V~
##  9 "\nDiputado \n2014- 2018\nDistrito N° 37 Independiente"                                                                         Diputado 2014- 2018 Distrito N° 37 Independiente                                                                       
## 10 "\nDiputado \n2010- 2014\nDistrito N° 37 Izquierda Ciudadana"                                                                   Diputado 2010- 2014 Distrito N° 37 Izquierda Ciudadana                                                                 
## # ... with 1,181 more rows

Obtener número de caracteres

df_legisladores_cargos %>% 
  mutate(caja_trayectoria_edit = str_length(caja_trayectoria)) %>% 
  select(caja_trayectoria, caja_trayectoria_edit) # solo para ver mejor el resultado

## # A tibble: 1,191 x 2
##    caja_trayectoria                                                                                                                           caja_trayectoria_edit
##    <chr>                                                                                                                                                      <int>
##  1 "\nSenador institucional \n1998- 2006\n"                                                                                                                      35
##  2 "\nDiputado \n2010- 2014\nDistrito N° 24Partido por la DemocraciaSucedido por: Jaime Hernán Gonzalo Pilowsky Greene"                                         111
##  3 "\nDiputado \n2006- 2010\nDistrito N° 24Partido por la Democracia"                                                                                            61
##  4 "\nDiputado \n2002- 2006\nDistrito N° 24Partido por la DemocraciaPrecedido por: Tomás Jocelyn Holt Letelier"                                                 103
##  5 "\nDiputado \n1998- 2002\nDistrito N° 52Partido Demócrata CristianoSucedido por: Fernando Meza Moncada"                                                       98
##  6 "\nDiputado \n1994- 1998\nDistrito N° 52Partido Demócrata Cristiano"                                                                                          63
##  7 "\nDiputado \n1990- 1994\nDistrito N° 52Partido Demócrata Cristiano"                                                                                          63
##  8 "\nDiputado \n2006- 2010\nDistrito N° 5Partido Renovación NacionalPrecedido por: Carlos Vilches GuzmánSucedido por: Carlos Vilches Guzmán"                   133
##  9 "\nDiputado \n2014- 2018\nDistrito N° 37 Independiente"                                                                                                       50
## 10 "\nDiputado \n2010- 2014\nDistrito N° 37 Izquierda Ciudadana"                                                                                                 56
## # ... with 1,181 more rows

Funciones para trabajar con patrones

En general, podemos encontrar patrones en las cadenas que nos permitirán interpretar la información que contienen. Como los datos de texto suelen ser desestructurados, tendremos que idear estos patrones ad hoc, caso a caso.

El patrón más sencillo es simplemente una serie textual de caracteres. Por ejemplo, podemos ocupar la función lógica str_detect() para marcar todas las observaciones que incluyen la serie de caracteres “Diputad” en la variable “caja_trayectoria”:

df_legisladores_cargos %>% 
  mutate(caja_trayectoria_edit = str_detect(caja_trayectoria,
                                            pattern = "Diputad")) %>% 
  select(caja_trayectoria, caja_trayectoria_edit) # solo para ver mejor el resultado

## # A tibble: 1,191 x 2
##    caja_trayectoria                                                                                                                           caja_trayectoria_edit
##    <chr>                                                                                                                                      <lgl>                
##  1 "\nSenador institucional \n1998- 2006\n"                                                                                                   FALSE                
##  2 "\nDiputado \n2010- 2014\nDistrito N° 24Partido por la DemocraciaSucedido por: Jaime Hernán Gonzalo Pilowsky Greene"                       TRUE                 
##  3 "\nDiputado \n2006- 2010\nDistrito N° 24Partido por la Democracia"                                                                         TRUE                 
##  4 "\nDiputado \n2002- 2006\nDistrito N° 24Partido por la DemocraciaPrecedido por: Tomás Jocelyn Holt Letelier"                               TRUE                 
##  5 "\nDiputado \n1998- 2002\nDistrito N° 52Partido Demócrata CristianoSucedido por: Fernando Meza Moncada"                                    TRUE                 
##  6 "\nDiputado \n1994- 1998\nDistrito N° 52Partido Demócrata Cristiano"                                                                       TRUE                 
##  7 "\nDiputado \n1990- 1994\nDistrito N° 52Partido Demócrata Cristiano"                                                                       TRUE                 
##  8 "\nDiputado \n2006- 2010\nDistrito N° 5Partido Renovación NacionalPrecedido por: Carlos Vilches GuzmánSucedido por: Carlos Vilches Guzmán" TRUE                 
##  9 "\nDiputado \n2014- 2018\nDistrito N° 37 Independiente"                                                                                    TRUE                 
## 10 "\nDiputado \n2010- 2014\nDistrito N° 37 Izquierda Ciudadana"                                                                              TRUE                 
## # ... with 1,181 more rows

Como sabemos, las funciones lógicas nos permiten filtrar bases:

df_legisladores_cargos %>% 
  filter(str_detect(caja_trayectoria, pattern = "Diputad")) %>% 
  select(caja_trayectoria) # solo para ver mejor el resultado

## # A tibble: 985 x 1
##    caja_trayectoria                                                                                                                          
##    <chr>                                                                                                                                     
##  1 "\nDiputado \n2010- 2014\nDistrito N° 24Partido por la DemocraciaSucedido por: Jaime Hernán Gonzalo Pilowsky Greene"                      
##  2 "\nDiputado \n2006- 2010\nDistrito N° 24Partido por la Democracia"                                                                        
##  3 "\nDiputado \n2002- 2006\nDistrito N° 24Partido por la DemocraciaPrecedido por: Tomás Jocelyn Holt Letelier"                              
##  4 "\nDiputado \n1998- 2002\nDistrito N° 52Partido Demócrata CristianoSucedido por: Fernando Meza Moncada"                                   
##  5 "\nDiputado \n1994- 1998\nDistrito N° 52Partido Demócrata Cristiano"                                                                      
##  6 "\nDiputado \n1990- 1994\nDistrito N° 52Partido Demócrata Cristiano"                                                                      
##  7 "\nDiputado \n2006- 2010\nDistrito N° 5Partido Renovación NacionalPrecedido por: Carlos Vilches GuzmánSucedido por: Carlos Vilches Guzmán"
##  8 "\nDiputado \n2014- 2018\nDistrito N° 37 Independiente"                                                                                   
##  9 "\nDiputado \n2010- 2014\nDistrito N° 37 Izquierda Ciudadana"                                                                             
## 10 "\nDiputado \n2006- 2010\nDistrito N° 37Partido Socialista de Chile"                                                                      
## # ... with 975 more rows

También podemos ocupar una negación para obtener las observaciones de senadores:

df_legisladores_cargos %>% 
  filter(!str_detect(caja_trayectoria, pattern = "Diputad")) %>% 
  select(caja_trayectoria) # solo para ver mejor el resultado

## # A tibble: 206 x 1
##    caja_trayectoria                                                                                                                                                                               
##    <chr>                                                                                                                                                                                          
##  1 "\nSenador institucional \n1998- 2006\n"                                                                                                                                                       
##  2 "\nSenador \n2014- 2022\n7ª Circunscripción (2018-2022)Partido Renovación Nacional"                                                                                                            
##  3 "\nSenador \n2014- 2022\n8ª Circunscripción (2014-2018)Partido Renovación NacionalPrecedido por: Jovino Novoa Vásquez"                                                                         
##  4 "\nSenador \n2006- 2014\nTérmino de periodo: 16 de enero de 201116ª CircunscripciónPartido Renovación NacionalPrecedido por: Marco Antonio Cariola BarroilhetSucedido por: Carlos Larraín Peña"
##  5 "\nSenadora \n2018- 2026\n6ª CircunscripciónPartido Socialista de Chile"                                                                                                                       
##  6 "\nSenadora \n2010- 2018\n3ª CircunscripciónPartido Socialista de ChilePrecedido por: Ricardo Núñez Muñoz"                                                                                     
##  7 "\nSenadora \n2006- 2014\n8ª Circunscripción Santiago OrientePartido Demócrata CristianoSucedido por: Carlos Montes Cisternas"                                                                 
##  8 "\nSenador \n2002- 2010\n6ª Circunscripción CostaPartido Unión Demócrata IndependientePrecedido por: Beltrán Urenda ZegersSucedido por: Francisco Chahuán Chahuán"                             
##  9 "\nSenadora \n2018- 2026\n11ª Circunscripción Independiente"                                                                                                                                   
## 10 "\nSenador \n2014- 2022\nCircunscripción N° 3 (2018-2022) Independiente"                                                                                                                       
## # ... with 196 more rows

Ahora introduciremos tres funciones que utilizan patrones, str_extract(), str_replace() y str_remove(). ¿Qué hace cada una?

Tus notas:

df_legisladores_cargos %>% 
  mutate(caja_trayectoria_edit = str_extract(caja_trayectoria, 
                                             pattern = "Diputad")) %>% 
  select(caja_trayectoria, caja_trayectoria_edit) # solo para ver mejor el resultado

## # A tibble: 1,191 x 2
##    caja_trayectoria                                                                                                                           caja_trayectoria_edit
##    <chr>                                                                                                                                      <chr>                
##  1 "\nSenador institucional \n1998- 2006\n"                                                                                                   <NA>                 
##  2 "\nDiputado \n2010- 2014\nDistrito N° 24Partido por la DemocraciaSucedido por: Jaime Hernán Gonzalo Pilowsky Greene"                       Diputad              
##  3 "\nDiputado \n2006- 2010\nDistrito N° 24Partido por la Democracia"                                                                         Diputad              
##  4 "\nDiputado \n2002- 2006\nDistrito N° 24Partido por la DemocraciaPrecedido por: Tomás Jocelyn Holt Letelier"                               Diputad              
##  5 "\nDiputado \n1998- 2002\nDistrito N° 52Partido Demócrata CristianoSucedido por: Fernando Meza Moncada"                                    Diputad              
##  6 "\nDiputado \n1994- 1998\nDistrito N° 52Partido Demócrata Cristiano"                                                                       Diputad              
##  7 "\nDiputado \n1990- 1994\nDistrito N° 52Partido Demócrata Cristiano"                                                                       Diputad              
##  8 "\nDiputado \n2006- 2010\nDistrito N° 5Partido Renovación NacionalPrecedido por: Carlos Vilches GuzmánSucedido por: Carlos Vilches Guzmán" Diputad              
##  9 "\nDiputado \n2014- 2018\nDistrito N° 37 Independiente"                                                                                    Diputad              
## 10 "\nDiputado \n2010- 2014\nDistrito N° 37 Izquierda Ciudadana"                                                                              Diputad              
## # ... with 1,181 more rows
…
