08A - Web scraping | Programación para las Ciencias Sociales
…
Así, podemos iterar esta función en nuestros cinco archivos para crear una base completa (páginas 1-5). Ahora no utilizaremos walk(), sino que map_dfr() (aquí decidí no conservar el número de página).

archivos <- list.files("webs/", full.names = T)
archivos

## [1] "webs/mostrador_1.html" "webs/mostrador_2.html" "webs/mostrador_3.html" "webs/mostrador_4.html" "webs/mostrador_5.html"

df_mostrador_1_5 <- map_dfr(.x = archivos,
                            .f = ~ {f_procesar_sitio(.x)})
df_mostrador_1_5

## # A tibble: 50 x 3
##    titulo                                                                         link                                                                                                                         autor                                      
##    <chr>                                                                          <chr>                                                                                                                        <chr>                                      
##  1 Carta abierta a las alcaldesas y los alcaldes de Chile                         https://www.elmostrador.cl/noticias/opinion/columnas/2020/11/12/carta-abierta-a-las-alcaldesas-y-los-alcaldes-de-chile/      Francois Richard                           
##  2 We the people                                                                  https://www.elmostrador.cl/noticias/opinion/columnas/2020/11/12/we-the-people/                                               Alejandro Reyes                            
##  3 Enfrentar la sequía a corto y largo plazo                                      https://www.elmostrador.cl/noticias/opinion/columnas/2020/11/12/enfrentar-la-sequia-a-corto-y-largo-plazo/                   Miguel Ángel Sánchez                       
##  4 Escaños reservados: el día clave para cambiar la historia                      https://www.elmostrador.cl/destacado/2020/11/12/escanos-reservados-el-dia-clave-para-cambiar-la-historia/                    Jorge Millaquén                            
##  5 Rodrigo Delgado y su responsabilidad en los guetos verticales de Estación Cen~ https://www.elmostrador.cl/destacado/2020/11/12/rodrigo-delgado-y-su-responsabilidad-en-los-guetos-verticales-de-estacion-c~ Patricio Herman                            
##  6 El aprendizaje político de nuestro presidencialismo                            https://www.elmostrador.cl/destacado/2020/11/12/el-aprendizaje-politico-de-nuestro-presidencialismo/                         Juan Carlos Arellano                       
##  7 Dumping chino en la industria de las bolas de acero                            https://www.elmostrador.cl/noticias/opinion/2020/11/11/dumping-chino-en-la-industria-de-las-bolas-de-acero/                  Rene González Aguilera y Héctor Medina Ale~
##  8 Tiltil: el sacrificio de Chile                                                 https://www.elmostrador.cl/noticias/opinion/columnas/2020/11/11/tiltil-el-sacrificio-de-chile/                               Eva Aburto                                 
##  9 EE.UU., el acuerdo climático de París y los beneficios económicos              https://www.elmostrador.cl/noticias/opinion/2020/11/11/ee-uu-el-acuerdo-climatico-de-paris-y-los-beneficios-economicos/      Alejandro Bernales                         
## 10 EE.UU. y el valor de las instituciones                                         https://www.elmostrador.cl/destacado/2020/11/11/ee-uu-y-el-valor-de-las-instituciones/                                       Santiago Escobar                           
## # ... with 40 more rows
…
