Programación Computacional para las Ciencias Sociales (CPO3522)
…
Desarrollo del curso

Repaso: cadenas de operaciones en bases de datos

Ejercicio

Nuevo tema: visualización de datos

 El último ejercicio que hicimos 

Base de datos

datos_qog

## # A tibble: 139 x 8
##    pais          pib     pob  corr perc_musulman polity2 region      pib_pc
##    <chr>       <dbl>   <dbl> <dbl>         <dbl>   <dbl> <chr>        <dbl>
##  1 Afghan…   5.76e10  3.07e7     8        99.3     2.02  Southern A…  1876.
##  2 Albania   2.87e10  2.90e6    31        20.5     8.08  Southern E…  9911.
##  3 Algeria   5.08e11  3.82e7    36        99.1     4.25  Northern A… 13301.
##  4 Angola    1.52e11  2.34e7    23         0       3.25  Middle Afr…  6503.
##  5 Austra…   9.90e11  2.31e7    81         0.200  10     Australia … 42830.
##  6 Austria   3.73e11  8.48e6    69         0.600  10     Western Eu… 44038.
##  7 Bahamas   8.50e 9  3.78e5    71         0      10     Caribbean   22490.
##  8 Bahrain   5.66e10  1.35e6    48        95       0.833 Western As… 41932.
##  9 Bangla…   4.47e11  1.57e8    27        85.9     6.42  Southern A…  2843.
## 10 Barbad…   4.33e 9  2.83e5    75         0.200  10     Caribbean   15339.
## # … with 129 more rows
…
Ordenar las regiones decrecientemente según su total de habitantes musulmanes (arrange()).

Solución en código

datos_qog %>% 
  # 1) 
  mutate(n_musulmanes = pob * perc_musulman / 100) %>% 
  # 2)
  group_by(region) %>% 
  summarize(n_musulmanes = sum(n_musulmanes)) %>% 
  # 3)
  arrange(-n_musulmanes)

## # A tibble: 21 x 2
##    region             n_musulmanes
##    <chr>                     <dbl>
##  1 Southern Asia        567554694.
##  2 Western Asia         164239654.
##  3 Northern Africa      159730728.
##  4 Western Africa       157205029.
##  5 South-Eastern Asia   132696751.
##  6 Eastern Asia          32617149.
##  7 Eastern Africa        30024747.
##  8 Middle Africa         11871851.
##  9 Northern America       2742930.
## 10 Western Europe         2343964.
## # … with 11 more rows
…
