09A - Generación de mapas | Programación para las Ciencias Sociales
…
datos_comunales_rm

## # A tibble: 52 x 17
##    comuna_id comuna      zona   ine2017_poblacion casen2013_porc_pobreza ine2013_porc_ruralidad idh2003 idh2003_salud idh2003_ed idh2003_ing n_imm n_imm_pc n_imm_by1000  gini porc_indigena tasa_controles_identidad tasa_detenciones_robos
##        <dbl> <chr>       <chr>              <dbl>                  <dbl>                  <dbl>   <dbl>         <dbl>      <dbl>       <dbl> <dbl>    <dbl>        <dbl> <dbl>         <dbl>                    <dbl>                  <dbl>
##  1     13124 Pudahuel    Urbana            237938                   9.31                    0     0.735         0.805      0.744       0.655  6731   0.0283         28.3 0.459          447.                    274.                    1.66
##  2     13125 Quilicura   Urbana            224468                   9.24                    0     0.782         0.873      0.807       0.668 17089   0.0761         76.1 0.465          358.                     77.5                   3.16
##  3     13301 Colina      Rural             128760                   7.28                   17.0   0.726         0.82       0.704       0.654  9132   0.0709         70.9 0.533          302.                     99.3                   2.84
##  4     13302 Lampa       Rural              97124                   8.47                   33.7   0.697         0.78       0.699       0.613  2724   0.0280         28.0 0.493          314.                    123.                    2.10
##  5     13303 Tiltil      Rural              17940                   9.84                   47.0   0.706         0.791      0.701       0.626   311   0.0173         17.3 0.464          191.                    250.                    1.70
##  6     13104 Conchalí    Urbana            141225                  10.0                     0     0.707         0.709      0.746       0.667 12862   0.0911         91.1 0.466          274.                    338.                    5.14
##  7     13107 Huechuraba  Urbana             99019                   5.20                    0     0.737         0.781      0.742       0.689  5053   0.0510         51.0 0.511          416.                    150.                    9.38
##  8     13128 Renca       Urbana            153266                   8.99                    0     0.709         0.76       0.728       0.638  5207   0.0340         34.0 0.457          477.                    144.                    2.07
##  9     13103 Cerro Navia Urbana            158641                  15.4                     0     0.683         0.735      0.693       0.622  6653   0.0419         41.9 0.453          664.                    266.                    1.49
## 10     13117 Lo Prado    Urbana            113370                   7.11                    0     0.715         0.75       0.726       0.669  8762   0.0773         77.3 0.464          492.                    199.                    4.41
## # ... with 42 more rows
…
