analizaR datos políticos
…
5.0.6 ROC plot

5.0.7 Separation plots

6 Modelos de supervivencia
6.1 El modelo Cox de riesgos proporcionales:

4.4 Seleccionar columnas

A veces queremos trabajar solo con algunas variables de una base de datos. Para esto existe la función select(). Pensemos que queremos solo el nombre de cada país (cname) y su porcentaje de población musulmana para 1980:

select(qog_mod, cname, lp_muslim80)

## # A tibble: 139 x 2
##          cname lp_muslim80
##          <chr>       <dbl>
##  1 Afghanistan        99.3
##  2     Albania        20.5
##  3     Algeria        99.1
##  4      Angola         0.0
##  5   Australia         0.2
##  6     Austria         0.6
##  7     Bahamas         0.0
##  8     Bahrain        95.0
##  9  Bangladesh        85.9
## 10    Barbados         0.2
## # ... with 129 more rows

Al igual que para arrange(), aquí el primer argumento designa la base a modificar y los demás cómo se debería hacer eso -en este caso, qué variables deben ser seleccionadas.

Añadir un signo menos (-) aquí indica qué variables no seleccionar. Por ejemplo, quitemos el porcentaje de población musulmana para 1980 de la base:

select(qog_mod, -lp_muslim80)

## # A tibble: 139 x 6
##          cname wdi_gdppppcon2011   wdi_pop ti_cpi fh_ipolity2
##          <chr>             <dbl>     <int>  <dbl>       <dbl>
##  1 Afghanistan       57566228480  30682500      8   2.0188808
##  2     Albania       28715335680   2897366     31   8.0833330
##  3     Algeria      507901640704  38186136     36   4.2500000
##  4      Angola      152477499392  23448202     23   3.2500000
##  5   Australia      990474338304  23125868     81  10.0000000
##  6     Austria      373413642240   8479375     69  10.0000000
##  7     Bahamas        8497731584    377841     71  10.0000000
##  8     Bahrain       56583507968   1349427     48   0.8333333
##  9  Bangladesh      446835425280 157157392     27   6.4166670
## 10    Barbados        4333428224    282503     75  10.0000000
## # ... with 129 more rows, and 1 more variables: region <chr>

Aparte de seleccionar variables específicas, select() es capaz de entender referencias a intervalos de variables. Por ejemplo, podemos querer las cuatro primeras variables:

select(qog_mod, cname:ti_cpi)

## # A tibble: 139 x 4
##          cname wdi_gdppppcon2011   wdi_pop ti_cpi
##          <chr>             <dbl>     <int>  <dbl>
##  1 Afghanistan       57566228480  30682500      8
##  2     Albania       28715335680   2897366     31
##  3     Algeria      507901640704  38186136     36
##  4      Angola      152477499392  23448202     23
##  5   Australia      990474338304  23125868     81
##  6     Austria      373413642240   8479375     69
##  7     Bahamas        8497731584    377841     71
##  8     Bahrain       56583507968   1349427     48
##  9  Bangladesh      446835425280 157157392     27
## 10    Barbados        4333428224    282503     75
## # ... with 129 more rows

select(qog_mod, 1:4) # lo mismo, aunque no recomendado

## # A tibble: 139 x 4
##          cname wdi_gdppppcon2011   wdi_pop ti_cpi
##          <chr>             <dbl>     <int>  <dbl>
##  1 Afghanistan       57566228480  30682500      8
##  2     Albania       28715335680   2897366     31
##  3     Algeria      507901640704  38186136     36
##  4      Angola      152477499392  23448202     23
##  5   Australia      990474338304  23125868     81
##  6     Austria      373413642240   8479375     69
##  7     Bahamas        8497731584    377841     71
##  8     Bahrain       56583507968   1349427     48
##  9  Bangladesh      446835425280 157157392     27
## 10    Barbados        4333428224    282503     75
## # ... with 129 more rows

Otra herramienta para complejizar nuestra selección se encuentra en las funciones de ayuda. Entre ellas, starts_with es de particular utilidad, permitiendo seleccionar variables que empiecen con cierto patrón. Por ejemplo, podríamos querer, a partir del nombre del país, todas las variables que provengan de los World Development Indicators (WDI) del Banco Mundial:

select(qog_mod, cname, starts_with("wdi_"))

## # A tibble: 139 x 3
##          cname wdi_gdppppcon2011   wdi_pop
##          <chr>             <dbl>     <int>
##  1 Afghanistan       57566228480  30682500
##  2     Albania       28715335680   2897366
##  3     Algeria      507901640704  38186136
##  4      Angola      152477499392  23448202
##  5   Australia      990474338304  23125868
##  6     Austria      373413642240   8479375
##  7     Bahamas        8497731584    377841
##  8     Bahrain       56583507968   1349427
##  9  Bangladesh      446835425280 157157392
## 10    Barbados        4333428224    282503
## # ... with 129 more rows

Otra función de ayuda útil es everything(), que se lee como “todas las demás variables”. Es especialmente útil para cambiar el orden de las variables en una bases de datos. Por ejemplo, pasemos región al segundo lugar entre las variables:

select(qog_mod, cname, region, everything())

## # A tibble: 139 x 7
##          cname                    region wdi_gdppppcon2011   wdi_pop
##          <chr>                     <chr>             <dbl>     <int>
##  1 Afghanistan             Southern Asia       57566228480  30682500
##  2     Albania           Southern Europe       28715335680   2897366
##  3     Algeria           Northern Africa      507901640704  38186136
##  4      Angola             Middle Africa      152477499392  23448202
##  5   Australia Australia and New Zealand      990474338304  23125868
##  6     Austria            Western Europe      373413642240   8479375
##  7     Bahamas                 Caribbean        8497731584    377841
##  8     Bahrain              Western Asia       56583507968   1349427
##  9  Bangladesh             Southern Asia      446835425280 157157392
## 10    Barbados                 Caribbean        4333428224    282503
## # ... with 129 more rows, and 3 more variables: ti_cpi <dbl>,
## #   lp_muslim80 <dbl>, fh_ipolity2 <dbl>
…
