analizaR datos políticos
…
5.0.6 ROC plot

5.0.7 Separation plots

6 Modelos de supervivencia
6.1 El modelo Cox de riesgos proporcionales:

4.5 Renombrar columnas

La notación para el GDP es un poco confusa. ¿Y si queremos cambiar el nombre de la variable? Aprovechemos también de cambiar el nombre de la variable de identificación por país.

rename(qog_mod, wdi_gdp = wdi_gdppppcon2011, country_name = cname)

## # A tibble: 139 x 7
##    country_name      wdi_gdp   wdi_pop ti_cpi lp_muslim80 fh_ipolity2
##           <chr>        <dbl>     <int>  <dbl>       <dbl>       <dbl>
##  1  Afghanistan  57566228480  30682500      8        99.3   2.0188808
##  2      Albania  28715335680   2897366     31        20.5   8.0833330
##  3      Algeria 507901640704  38186136     36        99.1   4.2500000
##  4       Angola 152477499392  23448202     23         0.0   3.2500000
##  5    Australia 990474338304  23125868     81         0.2  10.0000000
##  6      Austria 373413642240   8479375     69         0.6  10.0000000
##  7      Bahamas   8497731584    377841     71         0.0  10.0000000
##  8      Bahrain  56583507968   1349427     48        95.0   0.8333333
##  9   Bangladesh 446835425280 157157392     27        85.9   6.4166670
## 10     Barbados   4333428224    282503     75         0.2  10.0000000
## # ... with 129 more rows, and 1 more variables: region <chr>
…
