analizaR datos políticos
…
También creamos una tabla en que las frecuencias hashtags están separadas por la variable de género “dummy_mujer”.

table(base$dummy_mujer, base$hashtags)%>% as.tibble() 
## # A tibble: 4,618 x 3
##    Var1  Var2            n
##    <chr> <chr>       <int>
##  1 0     106añospc      18
##  2 1     106añospc       2
##  3 0     11mayo1935      0
##  4 1     11mayo1935      1
##  5 0     1demayo        18
##  6 1     1demayo         9
##  7 0     1demayo2018     1
##  8 1     1demayo2018     0
##  9 0     1erodemayo      0
## 10 1     1erodemayo      1
## # ... with 4,608 more rows
…
