analizaR datos políticos
…
            analizaR datos políticos

4.7 Crear nuevas variables en la base con mutate()

Muchas veces queremos crear nuevas variables, a partir de las que ya tenemos. Por ejemplo, podríamos querer el GDP per capita, en vez del absoluto. Tenemos los ingredientes para calcularlo: el GDP absoluto y la población. Creemos una nueva variable, entonces:

mutate(qog_mod, gdp_ppp_per_capita = wdi_gdppppcon2011/wdi_pop)
## # A tibble: 139 x 8
##    cname wdi_gdppppcon20… wdi_pop ti_cpi lp_muslim80 fh_ipolity2 region
##    <chr>            <dbl>   <dbl>  <dbl>       <dbl>       <dbl> <chr> 
##  1 Afgh…      57566228480  3.07e7      8      99.3         2.02  South…
##  2 Alba…      28715335680  2.90e6     31      20.5         8.08  South…
##  3 Alge…     507901640704  3.82e7     36      99.1         4.25  North…
##  4 Ango…     152477499392  2.34e7     23       0           3.25  Middl…
##  5 Aust…     990474338304  2.31e7     81       0.200      10     Austr…
##  6 Aust…     373413642240  8.48e6     69       0.600      10     Weste…
##  7 Baha…       8497731584  3.78e5     71       0          10     Carib…
##  8 Bahr…      56583507968  1.35e6     48      95           0.833 Weste…
##  9 Bang…     446835425280  1.57e8     27      85.9         6.42  South…
## 10 Barb…       4333428224  2.83e5     75       0.200      10     Carib…
## # ... with 129 more rows, and 1 more variable: gdp_ppp_per_capita <dbl>

Otra nueva variable que podría interesarnos es el número de musulmanes por país. Con la proporción de musulmanes y la población total del país podemos hacer una buena estimación:

mutate(qog_mod, n_muslim = wdi_pop * lp_muslim80)
## # A tibble: 139 x 8
##    cname wdi_gdppppcon20… wdi_pop ti_cpi lp_muslim80 fh_ipolity2 region
##    <chr>            <dbl>   <dbl>  <dbl>       <dbl>       <dbl> <chr> 
##  1 Afgh…      57566228480  3.07e7      8      99.3         2.02  South…
##  2 Alba…      28715335680  2.90e6     31      20.5         8.08  South…
##  3 Alge…     507901640704  3.82e7     36      99.1         4.25  North…
##  4 Ango…     152477499392  2.34e7     23       0           3.25  Middl…
##  5 Aust…     990474338304  2.31e7     81       0.200      10     Austr…
##  6 Aust…     373413642240  8.48e6     69       0.600      10     Weste…
##  7 Baha…       8497731584  3.78e5     71       0          10     Carib…
##  8 Bahr…      56583507968  1.35e6     48      95           0.833 Weste…
##  9 Bang…     446835425280  1.57e8     27      85.9         6.42  South…
## 10 Barb…       4333428224  2.83e5     75       0.200      10     Carib…
## # ... with 129 more rows, and 1 more variable: n_muslim <dbl>

¡Es posible crear más de una variable con el mismo comando! Creemos las dos de antes, a la vez:

mutate(qog_mod, 
       gdp_ppp_per_capita = wdi_gdppppcon2011/wdi_pop,
       n_muslim           = wdi_pop * lp_muslim80)
## # A tibble: 139 x 9
##    cname wdi_gdppppcon20… wdi_pop ti_cpi lp_muslim80 fh_ipolity2 region
##    <chr>            <dbl>   <dbl>  <dbl>       <dbl>       <dbl> <chr> 
##  1 Afgh…      57566228480  3.07e7      8      99.3         2.02  South…
##  2 Alba…      28715335680  2.90e6     31      20.5         8.08  South…
##  3 Alge…     507901640704  3.82e7     36      99.1         4.25  North…
##  4 Ango…     152477499392  2.34e7     23       0           3.25  Middl…
##  5 Aust…     990474338304  2.31e7     81       0.200      10     Austr…
##  6 Aust…     373413642240  8.48e6     69       0.600      10     Weste…
##  7 Baha…       8497731584  3.78e5     71       0          10     Carib…
##  8 Bahr…      56583507968  1.35e6     48      95           0.833 Weste…
##  9 Bang…     446835425280  1.57e8     27      85.9         6.42  South…
## 10 Barb…       4333428224  2.83e5     75       0.200      10     Carib…
## # ... with 129 more rows, and 2 more variables: gdp_ppp_per_capita <dbl>,
## #   n_muslim <dbl>
