analizaR datos políticos
…
¿Qué pasa si queremos solo las filas de países sudamericanos con más de 10 millones de habitantes (nos quedamos con 8 de 12)?

¿Cuáles son los filtros que aplican los siguientes comandos?

filter(qog_mod, fh_ipolity2 > 9)
## # A tibble: 39 x 7
##    cname  wdi_gdppppcon2011 wdi_pop ti_cpi lp_muslim80 fh_ipolity2 region 
##    <chr>              <dbl>   <dbl>  <dbl>       <dbl>       <dbl> <chr>  
##  1 Austr…      990474338304  2.31e7     81       0.200        10   Austra…
##  2 Austr…      373413642240  8.48e6     69       0.600        10   Wester…
##  3 Baham…        8497731584  3.78e5     71       0            10   Caribb…
##  4 Barba…        4333428224  2.83e5     75       0.200        10   Caribb…
##  5 Belgi…      452154359808  1.12e7     75       1.10          9.5 Wester…
##  6 Canada     1484141756416  3.52e7     81       0.600        10   Northe…
##  7 Cape …        3109324800  5.07e5     58       0            10   Wester…
##  8 Chile       383162515456  1.76e7     71       0            10   South …
##  9 Costa…       65419849728  4.71e6     53       0            10   Centra…
## 10 Cypru…       25927987200  1.14e6     63      18.5          10   Wester…
## # ... with 29 more rows
…
filter(qog_mod, cname != "Albania")
## # A tibble: 138 x 7
##    cname  wdi_gdppppcon20… wdi_pop ti_cpi lp_muslim80 fh_ipolity2 region  
##    <chr>             <dbl>   <dbl>  <dbl>       <dbl>       <dbl> <chr>   
##  1 Afgha…      57566228480  3.07e7      8      99.3         2.02  Souther…
##  2 Alger…     507901640704  3.82e7     36      99.1         4.25  Norther…
##  3 Angola     152477499392  2.34e7     23       0           3.25  Middle …
##  4 Austr…     990474338304  2.31e7     81       0.200      10     Austral…
##  5 Austr…     373413642240  8.48e6     69       0.600      10     Western…
##  6 Baham…       8497731584  3.78e5     71       0          10     Caribbe…
##  7 Bahra…      56583507968  1.35e6     48      95           0.833 Western…
##  8 Bangl…     446835425280  1.57e8     27      85.9         6.42  Souther…
##  9 Barba…       4333428224  2.83e5     75       0.200      10     Caribbe…
## 10 Belgi…     452154359808  1.12e7     75       1.10        9.5   Western…
## # ... with 128 more rows
…
