AnalizaR datos políticos
…
Más allá del camino que se tome (integración o triangulación), el objetivo es combinar métodos distintos para ofrecer una explicación más compleja al fenómeno que nos interesa estudiar. A la combinación de métodos la conocemos como “métodos mixtos” donde justamente el objetivo es abordar un mismo fenómeno a partir de distinas metodologías que permitan capturar distintos ángulos o dimensiones. Si bien existen infinitas formas de combinar métodos, algunos métodos son más compatibles entre sí que otros y, de hecho, algunas combianciones pueden llevarnos a mayor confusión que claridad (Lieberman, 2005).

En esta sección veremos una combinación de métodos que Lieberman (2005) ha denominado nested analysis y no es otra cosa que la combinación de análisis estadístico de una muestra grande con el estudio en profundidad de uno o más casos contenido en dicha muestra. En definitiva, lo que haremos será seleccionar casos (en este caso países) a partir de la estimación de nuestro modelo.

Luego de haber estimado el modelo, el primer paso para seleccionar casos de estudio es calcular los residuos y los valores predichos por el modelo para cada una de nuestras observaciones. Esto porque, para seleccionar nuestros casos de estudio, vamos a estar comparando lo que nuestro modelo predijo contra los valores reales (de la muestra) de cada uno de esos casos: la diferencia entre estos dos valores (los predichos y los reales) son los residuos.

Para extraer del modelo los residuos y los valores predichos utilizamos el comando augment del paquete broom. Lo que hace este comando es crear una nueva base de datos que le agrega variables sobre el modelo a la base original (para cada caso): valores predichos, errores estándar, el residuo y el residuo estandarizado, entre otros estadísticos.

Residuos y valores predichos:

modelo_aug <- broom::augment(modelo_2, data = basehys_sinna)
modelo_aug
## # A tibble: 167 x 32
##       X1 country id      idn  year gini_merge demrss gini_slc rgdpch cseduc
##    <dbl> <chr>   <chr> <dbl> <dbl>      <dbl>  <dbl>    <dbl>  <dbl>  <dbl>
##  1    13 Argent… ARG       1  1982       40.2      2     40.2  7711.    2.5
##  2    14 Argent… ARG       1  1983       40.4      2     40.4  7907.    2.8
##  3    21 Argent… ARG       1  1990       43.1      4     43.1  6823.    3.3
##  4    22 Argent… ARG       1  1991       44        4     44    7392.    3.3
##  5    23 Argent… ARG       1  1992       43        4     43    7986.    3.5
##  6    24 Argent… ARG       1  1993       42        4     42    8411.    4.1
##  7    25 Argent… ARG       1  1994       43        4     43    8764.    4.1
##  8    26 Argent… ARG       1  1995       46        4     46    8578.    4.3
##  9    27 Argent… ARG       1  1996       46        4     46    8905.    4.2
## 10    28 Argent… ARG       1  1997       46        4     46    9425.    4.3
## # ... with 157 more rows, and 22 more variables: cshlth <dbl>,
## #   csssw <dbl>, ner2wdi <dbl>, ethnicdicot <dbl>, emplyagwdi <dbl>,
## #   fdiingdp <dbl>, unstockgdp <dbl>, aggdpwdi <dbl>, cpiprct <dbl>,
## #   pop014wdi <dbl>, s_dualism <dbl>, repressauthor <dbl>, legbal <dbl>,
## #   execpart <dbl>, gini_wiid <dbl>, cseduc2 <dbl>, .fitted <dbl>,
## #   .resid <dbl>, .std.resid <dbl>, .hat <dbl>, .sigma <dbl>,
## #   .cooksd <dbl>
…
