…
(hay que decidir cómo se va a hacer esto: desde carpeta local, url, paquete, etc.)
*(F:opino que creemos un url del libro y usemos los html, en el paquete ADP solo pondria funciones)*


## Describir la base

(aquí podría ir `describe_all()` u otra función de descripción de la base, habría que decidir si esto tiene sentido en términos pedagógicos; otra opción es hacer otro capítulo con `group_by()`, `tabyl()`, `crosstab()`, etc; me inclino por esta última opción)

Para aproximarnos a nuestra base recién cargada tenemos varias opciones. Podemos, como antes, simplemente usar su nombre como un comando para un resumen rápido:


```r
qog_mod
## # A tibble: 139 x 7
##    cname  wdi_gdppppcon2011 wdi_pop ti_cpi lp_muslim80 fh_ipolity2 region  
##    <chr>              <dbl>   <dbl>  <dbl>       <dbl>       <dbl> <chr>   
##  1 Afgha…       57566228480  3.07e7      8      99.3         2.02  Souther…
##  2 Alban…       28715335680  2.90e6     31      20.5         8.08  Souther…
##  3 Alger…      507901640704  3.82e7     36      99.1         4.25  Norther…
##  4 Angola      152477499392  2.34e7     23       0           3.25  Middle …
##  5 Austr…      990474338304  2.31e7     81       0.200      10     Austral…
##  6 Austr…      373413642240  8.48e6     69       0.600      10     Western…
##  7 Baham…        8497731584  3.78e5     71       0          10     Caribbe…
##  8 Bahra…       56583507968  1.35e6     48      95           0.833 Western…
##  9 Bangl…      446835425280  1.57e8     27      85.9         6.42  Souther…
## 10 Barba…        4333428224  2.83e5     75       0.200      10     Caribbe…
## # ... with 129 more rows
```
…
```r
View(qog_mod)
```



## Ordenar la base con `arrange()`

Una de las operaciones más comunes con bases de datos es ordenarlas de acuerdo a alguna de las variables. Esto nos puede dar insights (¿traducción?) inmediatos sobre nuestras observaciones. Por ejemplo, ordenemos la base de acuerdo a población:


```r
arrange(qog_mod, wdi_pop)
## # A tibble: 139 x 7
##    cname    wdi_gdppppcon20… wdi_pop ti_cpi lp_muslim80 fh_ipolity2 region 
##    <chr>               <dbl>   <dbl>  <dbl>       <dbl>       <dbl> <chr>  
##  1 Dominica        722668736   72005   58         0           10    Caribb…
##  2 Seychel…       2229991168   89900   54         0.300        6.94 Easter…
##  3 Tonga           513904512  105139   31.4       0            8.59 Polyne…
##  4 Kiribati        183852816  108544   30.8       0           10    Micron…
##  5 St Lucia       1871906688  182305   71         0           10    Caribb…
##  6 Sao Tom…        540452288  182386   42         0            8.59 Middle…
##  7 Samoa          1047012608  190390   52         0            8.59 Polyne…
##  8 Barbados       4333428224  282503   75         0.200       10    Caribb…
##  9 Iceland       13266284544  323764   78         0           10    Northe…
## 10 Bahamas        8497731584  377841   71         0           10    Caribb…
## # ... with 129 more rows
```
El lector debe notar cómo el primer argumento, "qog_mod", toma la base de datos y los siguientes enuncian **cómo** ordenarla, en este caso, por "wdi_pop", la variable de población.

Debe notar también cómo el comando anterior no crea ningún objeto, solo muestra los resultados en la consola. Para crear uno tenemos que seguir la fórmula típica de asignación:


```r
qog_mod_ordenada <- arrange(qog_mod, wdi_pop)
```

Podemos realizar ambas operaciones, mostrar los resultados y crear el objeto, rodeando este último comando con paréntesis:


```r
( qog_mod_ordenada <- arrange(qog_mod, wdi_pop) )
## # A tibble: 139 x 7
##    cname    wdi_gdppppcon20… wdi_pop ti_cpi lp_muslim80 fh_ipolity2 region 
##    <chr>               <dbl>   <dbl>  <dbl>       <dbl>       <dbl> <chr>  
##  1 Dominica        722668736   72005   58         0           10    Caribb…
##  2 Seychel…       2229991168   89900   54         0.300        6.94 Easter…
##  3 Tonga           513904512  105139   31.4       0            8.59 Polyne…
##  4 Kiribati        183852816  108544   30.8       0           10    Micron…
##  5 St Lucia       1871906688  182305   71         0           10    Caribb…
##  6 Sao Tom…        540452288  182386   42         0            8.59 Middle…
##  7 Samoa          1047012608  190390   52         0            8.59 Polyne…
##  8 Barbados       4333428224  282503   75         0.200       10    Caribb…
##  9 Iceland       13266284544  323764   78         0           10    Northe…
## 10 Bahamas        8497731584  377841   71         0           10    Caribb…
## # ... with 129 more rows
```

La operación para ordenar realizada antes iba de menor a mayor, en términos de población. Si queremos el orden inverso (decreciente), basta con añadir un signo menos (-) antes de la variable:


```r
arrange(qog_mod, -wdi_pop)
## # A tibble: 139 x 7
##    cname   wdi_gdppppcon2011 wdi_pop ti_cpi lp_muslim80 fh_ipolity2 region 
##    <chr>               <dbl>   <dbl>  <dbl>       <dbl>       <dbl> <chr>  
##  1 China      16023988207616  1.36e9     40       2.40         1.17 Easter…
##  2 India       6566166134784  1.28e9     36      11.6          8.5  Southe…
##  3 United…    16230494765056  3.16e8     73       0.800       10    Northe…
##  4 Indone…     2430921605120  2.51e8     32      43.4          7.83 South-…
##  5 Brazil      3109301780480  2.04e8     42       0.100        8.67 South …
##  6 Pakist…      810954457088  1.81e8     28      96.8          6.33 Southe…
##  7 Nigeria      941462781952  1.73e8     25      45            5.58 Wester…
##  8 Bangla…      446835425280  1.57e8     27      85.9          6.42 Southe…
##  9 Japan       4535077044224  1.27e8     74       0           10    Easter…
## 10 Mexico      1997247479808  1.24e8     34       0            7.83 Centra…
## # ... with 129 more rows
```

¡Con eso tenemos los países con mayor población en el mundo! ¿Qué pasa si queremos los países con mayor población **dentro de cada región**? Tendríamos que realizar un ordenamiento en dos pasos: primero por región y luego por población. Con `arrange()` esto es simple:


```r
arrange(qog_mod, region, -wdi_pop)
## # A tibble: 139 x 7
##    cname   wdi_gdppppcon20… wdi_pop ti_cpi lp_muslim80 fh_ipolity2 region  
##    <chr>              <dbl>   <dbl>  <dbl>       <dbl>       <dbl> <chr>   
##  1 Austra…     990474338304  2.31e7     81       0.200       10    Austral…
##  2 New Ze…     148189986816  4.44e6     91       0           10    Austral…
##  3 Cuba        226685157376  1.14e7     46       0            1.17 Caribbe…
##  4 Haiti        16999370752  1.04e7     19       0            4.58 Caribbe…
##  5 Domini…     122657308672  1.03e7     29       0            8.25 Caribbe…
##  6 Jamaica      22884503552  2.71e6     38       0.100        8.5  Caribbe…
##  7 Trinid…      40973463552  1.35e6     38       6.5          9.17 Caribbe…
##  8 Bahamas       8497731584  3.78e5     71       0           10    Caribbe…
##  9 Barbad…       4333428224  2.83e5     75       0.200       10    Caribbe…
## 10 St Luc…       1871906688  1.82e5     71       0           10    Caribbe…
## # ... with 129 more rows
```

A propósito del resultado anterior, el lector puede deducir que cuando `arrange()` ordena variables categóricas (en vez de numéricas) lo hace alfabéticamente. Añadir un signo menos (-) antes de la variable hará que el orden sea al revés en términos del alfabeto:


```r
arrange(qog_mod, desc(region), -wdi_pop) # no sé por qué - no funciona, ARREGLAR
## # A tibble: 139 x 7
##    cname    wdi_gdppppcon20… wdi_pop ti_cpi lp_muslim80 fh_ipolity2 region 
##    <chr>               <dbl>   <dbl>  <dbl>       <dbl>       <dbl> <chr>  
##  1 France …    2459435270144  6.59e7     71       3            9.75 Wester…
##  2 Netherl…     762382450688  1.68e7     83       1           10    Wester…
##  3 Belgium      452154359808  1.12e7     75       1.10         9.5  Wester…
##  4 Austria      373413642240  8.48e6     69       0.600       10    Wester…
##  5 Switzer…     444201566208  8.09e6     85       0.300       10    Wester…
##  6 Luxembo…      48842280960  5.43e5     80       0           10    Wester…
##  7 Turkey      1392197369856  7.50e7     50      99.2          7.67 Wester…
##  8 Iraq         510895521792  3.38e7     16      95.8          4.5  Wester…
##  9 Saudi A…    1478747750400  3.02e7     46      98.8          0    Wester…
## 10 United …     560986259456  9.04e6     69      94.9          1.33 Wester…
## # ... with 129 more rows
```



## Seleccionar columnas de la base con `select()`

A veces queremos trabajar solo con algunas variables de una base de datos. Para esto existe la función `select()`. Pensemos que queremos solo el nombre de cada país (cname) y su porcentaje de población musulmana para 1980:


```r
select(qog_mod, cname, lp_muslim80)
## # A tibble: 139 x 2
##    cname       lp_muslim80
##    <chr>             <dbl>
##  1 Afghanistan      99.3  
##  2 Albania          20.5  
##  3 Algeria          99.1  
##  4 Angola            0    
##  5 Australia         0.200
##  6 Austria           0.600
##  7 Bahamas           0    
##  8 Bahrain          95    
##  9 Bangladesh       85.9  
## 10 Barbados          0.200
## # ... with 129 more rows
```

Al igual que para `arrange()`, aquí el primer argumento designa la base a modificar y los demás cómo se debería hacer eso -en este caso, qué variables deben ser seleccionadas.



Añadir un signo menos (-) aquí indica qué variables *no* seleccionar. Por ejemplo, quitemos el porcentaje de población musulmana para 1980 de la base:


```r
select(qog_mod, -lp_muslim80)
## # A tibble: 139 x 6
##    cname     wdi_gdppppcon2011  wdi_pop ti_cpi fh_ipolity2 region          
##    <chr>                 <dbl>    <dbl>  <dbl>       <dbl> <chr>           
##  1 Afghanis…       57566228480   3.07e7      8       2.02  Southern Asia   
##  2 Albania         28715335680   2.90e6     31       8.08  Southern Europe 
##  3 Algeria        507901640704   3.82e7     36       4.25  Northern Africa 
##  4 Angola         152477499392   2.34e7     23       3.25  Middle Africa   
##  5 Australia      990474338304   2.31e7     81      10     Australia and N…
##  6 Austria        373413642240   8.48e6     69      10     Western Europe  
##  7 Bahamas          8497731584   3.78e5     71      10     Caribbean       
##  8 Bahrain         56583507968   1.35e6     48       0.833 Western Asia    
##  9 Banglade…      446835425280   1.57e8     27       6.42  Southern Asia   
## 10 Barbados         4333428224   2.83e5     75      10     Caribbean       
## # ... with 129 more rows
```

Aparte de seleccionar variables específicas, `select()` es capaz de entender referencias a intervalos de variables. Por ejemplo, podemos querer las cuatro primeras variables:


```r
select(qog_mod, cname:ti_cpi)
## # A tibble: 139 x 4
##    cname       wdi_gdppppcon2011   wdi_pop ti_cpi
##    <chr>                   <dbl>     <dbl>  <dbl>
##  1 Afghanistan       57566228480  30682500      8
##  2 Albania           28715335680   2897366     31
##  3 Algeria          507901640704  38186136     36
##  4 Angola           152477499392  23448202     23
##  5 Australia        990474338304  23125868     81
##  6 Austria          373413642240   8479375     69
##  7 Bahamas            8497731584    377841     71
##  8 Bahrain           56583507968   1349427     48
##  9 Bangladesh       446835425280 157157392     27
## 10 Barbados           4333428224    282503     75
## # ... with 129 more rows
select(qog_mod, 1:4) # lo mismo, aunque no recomendado
## # A tibble: 139 x 4
##    cname       wdi_gdppppcon2011   wdi_pop ti_cpi
##    <chr>                   <dbl>     <dbl>  <dbl>
##  1 Afghanistan       57566228480  30682500      8
##  2 Albania           28715335680   2897366     31
##  3 Algeria          507901640704  38186136     36
##  4 Angola           152477499392  23448202     23
##  5 Australia        990474338304  23125868     81
##  6 Austria          373413642240   8479375     69
##  7 Bahamas            8497731584    377841     71
##  8 Bahrain           56583507968   1349427     48
##  9 Bangladesh       446835425280 157157392     27
## 10 Barbados           4333428224    282503     75
## # ... with 129 more rows
```

Otra herramienta para complejizar nuestra selección se encuentra en las funciones de ayuda. Entre ellas, `starts_with` es de particular utilidad, permitiendo seleccionar variables que empiecen con cierto patrón. Por ejemplo, podríamos querer, a partir del nombre del país, todas las variables que provengan de los World Development Indicators (WDI) del Banco Mundial:


```r
select(qog_mod, cname, starts_with("wdi_"))
## # A tibble: 139 x 3
##    cname       wdi_gdppppcon2011   wdi_pop
##    <chr>                   <dbl>     <dbl>
##  1 Afghanistan       57566228480  30682500
##  2 Albania           28715335680   2897366
##  3 Algeria          507901640704  38186136
##  4 Angola           152477499392  23448202
##  5 Australia        990474338304  23125868
##  6 Austria          373413642240   8479375
##  7 Bahamas            8497731584    377841
##  8 Bahrain           56583507968   1349427
##  9 Bangladesh       446835425280 157157392
## 10 Barbados           4333428224    282503
## # ... with 129 more rows
```

Otra función de ayuda útil es `everything()`, que se lee como "todas las demás variables". Es especialmente útil para cambiar el orden de las variables en una bases de datos. Por ejemplo, pasemos región al segundo lugar entre las variables:


```r
select(qog_mod, cname, region, everything())
## # A tibble: 139 x 7
##    cname  region    wdi_gdppppcon20… wdi_pop ti_cpi lp_muslim80 fh_ipolity2
##    <chr>  <chr>                <dbl>   <dbl>  <dbl>       <dbl>       <dbl>
##  1 Afgha… Southern…      57566228480  3.07e7      8      99.3         2.02 
##  2 Alban… Southern…      28715335680  2.90e6     31      20.5         8.08 
##  3 Alger… Northern…     507901640704  3.82e7     36      99.1         4.25 
##  4 Angola Middle A…     152477499392  2.34e7     23       0           3.25 
##  5 Austr… Australi…     990474338304  2.31e7     81       0.200      10    
##  6 Austr… Western …     373413642240  8.48e6     69       0.600      10    
##  7 Baham… Caribbean       8497731584  3.78e5     71       0          10    
##  8 Bahra… Western …      56583507968  1.35e6     48      95           0.833
##  9 Bangl… Southern…     446835425280  1.57e8     27      85.9         6.42 
## 10 Barba… Caribbean       4333428224  2.83e5     75       0.200      10    
## # ... with 129 more rows
```



## Renombrar columnas de la base con `rename()`

La notación para el GDP es un poco confusa. ¿Y si queremos cambiar el nombre de la variable? Aprovechemos también de cambiar el nombre de la variable de identificación por país.


```r
rename(qog_mod, wdi_gdp = wdi_gdppppcon2011, country_name = cname)
## # A tibble: 139 x 7
##    country_name   wdi_gdp wdi_pop ti_cpi lp_muslim80 fh_ipolity2 region    
##    <chr>            <dbl>   <dbl>  <dbl>       <dbl>       <dbl> <chr>     
##  1 Afghanistan    5.76e10  3.07e7      8      99.3         2.02  Southern …
##  2 Albania        2.87e10  2.90e6     31      20.5         8.08  Southern …
##  3 Algeria        5.08e11  3.82e7     36      99.1         4.25  Northern …
##  4 Angola         1.52e11  2.34e7     23       0           3.25  Middle Af…
##  5 Australia      9.90e11  2.31e7     81       0.200      10     Australia…
##  6 Austria        3.73e11  8.48e6     69       0.600      10     Western E…
##  7 Bahamas        8.50e 9  3.78e5     71       0          10     Caribbean 
##  8 Bahrain        5.66e10  1.35e6     48      95           0.833 Western A…
##  9 Bangladesh     4.47e11  1.57e8     27      85.9         6.42  Southern …
## 10 Barbados       4.33e 9  2.83e5     75       0.200      10     Caribbean 
## # ... with 129 more rows
```
…
¿Qué pasa si queremos solo las filas de países sudamericanos con más de 10 millones de habitantes (nos quedamos con 8 de 12)?



¿Cuáles son los filtros que aplican los siguientes comandos?


```r
filter(qog_mod, fh_ipolity2 > 9)
## # A tibble: 39 x 7
##    cname   wdi_gdppppcon20… wdi_pop ti_cpi lp_muslim80 fh_ipolity2 region  
##    <chr>              <dbl>   <dbl>  <dbl>       <dbl>       <dbl> <chr>   
##  1 Austra…     990474338304  2.31e7     81       0.200        10   Austral…
##  2 Austria     373413642240  8.48e6     69       0.600        10   Western…
##  3 Bahamas       8497731584  3.78e5     71       0            10   Caribbe…
##  4 Barbad…       4333428224  2.83e5     75       0.200        10   Caribbe…
##  5 Belgium     452154359808  1.12e7     75       1.10          9.5 Western…
##  6 Canada     1484141756416  3.52e7     81       0.600        10   Norther…
##  7 Cape V…       3109324800  5.07e5     58       0            10   Western…
##  8 Chile       383162515456  1.76e7     71       0            10   South A…
##  9 Costa …      65419849728  4.71e6     53       0            10   Central…
## 10 Cyprus…      25927987200  1.14e6     63      18.5          10   Western…
## # ... with 29 more rows
…
filter(qog_mod, cname != "Albania")
## # A tibble: 138 x 7
##    cname  wdi_gdppppcon2011 wdi_pop ti_cpi lp_muslim80 fh_ipolity2 region  
##    <chr>              <dbl>   <dbl>  <dbl>       <dbl>       <dbl> <chr>   
##  1 Afgha…       57566228480  3.07e7      8      99.3         2.02  Souther…
##  2 Alger…      507901640704  3.82e7     36      99.1         4.25  Norther…
##  3 Angola      152477499392  2.34e7     23       0           3.25  Middle …
##  4 Austr…      990474338304  2.31e7     81       0.200      10     Austral…
##  5 Austr…      373413642240  8.48e6     69       0.600      10     Western…
##  6 Baham…        8497731584  3.78e5     71       0          10     Caribbe…
##  7 Bahra…       56583507968  1.35e6     48      95           0.833 Western…
##  8 Bangl…      446835425280  1.57e8     27      85.9         6.42  Souther…
##  9 Barba…        4333428224  2.83e5     75       0.200      10     Caribbe…
## 10 Belgi…      452154359808  1.12e7     75       1.10        9.5   Western…
## # ... with 128 more rows
…
## Crear nuevas variables en la base con `mutate()`

Muchas veces queremos crear nuevas variables, a partir de las que ya tenemos. Por ejemplo, podríamos querer el GDP per capita, en vez del absoluto. Tenemos los ingredientes para calcularlo: el GDP absoluto y la población. Creemos una nueva variable, entonces:


```r
mutate(qog_mod, gdp_ppp_per_capita = wdi_gdppppcon2011/wdi_pop)
## # A tibble: 139 x 8
##    cname wdi_gdppppcon20… wdi_pop ti_cpi lp_muslim80 fh_ipolity2 region
##    <chr>            <dbl>   <dbl>  <dbl>       <dbl>       <dbl> <chr> 
##  1 Afgh…      57566228480  3.07e7      8      99.3         2.02  South…
##  2 Alba…      28715335680  2.90e6     31      20.5         8.08  South…
##  3 Alge…     507901640704  3.82e7     36      99.1         4.25  North…
##  4 Ango…     152477499392  2.34e7     23       0           3.25  Middl…
##  5 Aust…     990474338304  2.31e7     81       0.200      10     Austr…
##  6 Aust…     373413642240  8.48e6     69       0.600      10     Weste…
##  7 Baha…       8497731584  3.78e5     71       0          10     Carib…
##  8 Bahr…      56583507968  1.35e6     48      95           0.833 Weste…
##  9 Bang…     446835425280  1.57e8     27      85.9         6.42  South…
## 10 Barb…       4333428224  2.83e5     75       0.200      10     Carib…
## # ... with 129 more rows, and 1 more variable: gdp_ppp_per_capita <dbl>
```
…
