AnalizaR datos políticos
…
Podemos guardar este nuevo shapefile con la función st_write, en la que solo tenemos que seleccionar el objeto que deseamos guardar y la ruta en que queremos que se guarde. En este caso guardaremos el archivo “shp_brasil_regiones.shp” en una carpeta del mismo nombre. Esto genera automáticamente no solo el .shp sino que también todos los otros archivos que componen el shapefile:

st_write(shp_brasil_regiones,"datos/shp_brasil_regiones/shp_brasil_regiones.shp")

Advertencia:
El comando st_write no puede sobrescribir archivos ya existentes, e intentar hacer esto reportará automáticamente un error. Si deseas modificar un shapefile que ya has generado previamente, deberás borrarlo manualmente de su carpeta antes de generar los nuevos archivos.

16.4.3 Incorporar datos de otras bases con merge

Primero vamos a ver como incorporar datos de otras bases de datos a nuestro shapefile, ya que usualmente vamos a querer conocer atributos de nuestros lugares geográficos para generar análisis exploratorios o de inferencia estadística. En primer lugar, vamos a cargar la base de datos de Freire (previamente hemos eliminados algunos datos para simplificar la base):

base_brasil <- read_csv("00-datos/base_brasil.csv")
head(base_brasil)
## # A tibble: 6 x 6
##   codigo estado  anio tasa_homicidios   gini poblacion_extrema_pobreza
##    <dbl> <chr>  <dbl>           <dbl>  <dbl>                     <dbl>
## 1     12 Acre    1990            15.8  0.544                     48965
## 2     12 Acre    1991            25.1 NA                            NA
## 3     12 Acre    1992            24.7  0.560                     60910
## 4     12 Acre    1993            26.1  0.553                     57492
## 5     12 Acre    1994            19.7 NA                            NA
## 6     12 Acre    1995            22.6  0.582                     38659

Notarás que nuestra base contiene la variable estado. Esta misma variable está presente en nuestro shapefile:

shp_brasil$estado
## [1] Rondônia  Acre      Amazonas  Roraima   Pará      Amapá     Tocantins
## [8] Maranhão 
##  [ reached getOption("max.print") -- omitted 19 entries ]
…
