…
Podemos observar los primeros valores de la variable "hashtags" simplemente seleccionando dichas variables en la base:


```r
base_tweets %>% select(hashtags)
## # A tibble: 9,758 x 1
##    hashtags            
##    <chr>               
##  1 lugaresquehablan    
##  2 puertomontt         
##  3 salvemoslagochapo   
##  4 lagochapo           
##  5 ancud               
##  6 chiloe              
##  7 interpelacionlarrain
##  8 interpelacionlarrain
##  9 sqm                 
## 10 poncelerou          
## # ... with 9,748 more rows
```
…
También creamos una tabla en que las frecuencias hashtags están separadas por la variable de género "dummy_mujer". 


```r
base_tweets %>% 
  group_by(dummy_mujer) %>% 
  count(hashtags) %>% 
  arrange(hashtags)
## # A tibble: 2,760 x 3
## # Groups:   dummy_mujer [2]
##    dummy_mujer hashtags        n
##    <fct>       <chr>       <int>
##  1 0           106añospc      18
##  2 1           106añospc       2
##  3 1           11mayo1935      1
##  4 0           1demayo        18
##  5 1           1demayo         9
##  6 0           1demayo2018     1
##  7 1           1erodemayo      1
##  8 1           1m              4
##  9 0           1mayo           1
## 10 1           1mayo           2
## # ... with 2,750 more rows
```
…
