analizaR datos políticos
…
            analizaR datos políticos

Chapter 5 Seleccionar columnas

A veces queremos trabajar solo con algunas variables de una base de datos. Para esto existe la función select(). Pensemos que queremos solo el nombre de cada país (cname) y su porcentaje de población musulmana para 1980:

select(qog_mod, cname, lp_muslim80)

## # A tibble: 139 x 2
##          cname lp_muslim80
##          <chr>       <dbl>
##  1 Afghanistan        99.3
##  2     Albania        20.5
##  3     Algeria        99.1
##  4      Angola         0.0
##  5   Australia         0.2
##  6     Austria         0.6
##  7     Bahamas         0.0
##  8     Bahrain        95.0
##  9  Bangladesh        85.9
## 10    Barbados         0.2
## # ... with 129 more rows

Al igual que para arrange(), aquí el primer argumento designa la base a modificar y los demás cómo se debería hacer eso -en este caso, qué variables deben ser seleccionadas.

Añadir un signo menos (-) aquí indica qué variables no seleccionar. Por ejemplo, quitemos el porcentaje de población musulmana para 1980 de la base:

select(qog_mod, -lp_muslim80)

## # A tibble: 139 x 6
##          cname wdi_gdppppcon2011   wdi_pop ti_cpi fh_ipolity2
##          <chr>             <dbl>     <int>  <dbl>       <dbl>
##  1 Afghanistan       57566228480  30682500      8   2.0188808
##  2     Albania       28715335680   2897366     31   8.0833330
##  3     Algeria      507901640704  38186136     36   4.2500000
##  4      Angola      152477499392  23448202     23   3.2500000
##  5   Australia      990474338304  23125868     81  10.0000000
##  6     Austria      373413642240   8479375     69  10.0000000
##  7     Bahamas        8497731584    377841     71  10.0000000
##  8     Bahrain       56583507968   1349427     48   0.8333333
##  9  Bangladesh      446835425280 157157392     27   6.4166670
## 10    Barbados        4333428224    282503     75  10.0000000
## # ... with 129 more rows, and 1 more variables: region <chr>

Aparte de seleccionar variables específicas, select() es capaz de entender referencias a intervalos de variables. Por ejemplo, podemos querer las cuatro primeras variables:

select(qog_mod, cname:ti_cpi)

## # A tibble: 139 x 4
##          cname wdi_gdppppcon2011   wdi_pop ti_cpi
##          <chr>             <dbl>     <int>  <dbl>
##  1 Afghanistan       57566228480  30682500      8
##  2     Albania       28715335680   2897366     31
##  3     Algeria      507901640704  38186136     36
##  4      Angola      152477499392  23448202     23
##  5   Australia      990474338304  23125868     81
##  6     Austria      373413642240   8479375     69
##  7     Bahamas        8497731584    377841     71
##  8     Bahrain       56583507968   1349427     48
##  9  Bangladesh      446835425280 157157392     27
## 10    Barbados        4333428224    282503     75
## # ... with 129 more rows

select(qog_mod, 1:4) # lo mismo, aunque no recomendado

## # A tibble: 139 x 4
##          cname wdi_gdppppcon2011   wdi_pop ti_cpi
##          <chr>             <dbl>     <int>  <dbl>
##  1 Afghanistan       57566228480  30682500      8
##  2     Albania       28715335680   2897366     31
##  3     Algeria      507901640704  38186136     36
##  4      Angola      152477499392  23448202     23
##  5   Australia      990474338304  23125868     81
##  6     Austria      373413642240   8479375     69
##  7     Bahamas        8497731584    377841     71
##  8     Bahrain       56583507968   1349427     48
##  9  Bangladesh      446835425280 157157392     27
## 10    Barbados        4333428224    282503     75
## # ... with 129 more rows

Otra herramienta para complejizar nuestra selección se encuentra en las funciones de ayuda. Entre ellas, starts_with es de particular utilidad, permitiendo seleccionar variables que empiecen con cierto patrón. Por ejemplo, podríamos querer, a partir del nombre del país, todas las variables que provengan de los World Development Indicators (WDI) del Banco Mundial:

select(qog_mod, cname, starts_with("wdi_"))

## # A tibble: 139 x 3
##          cname wdi_gdppppcon2011   wdi_pop
##          <chr>             <dbl>     <int>
##  1 Afghanistan       57566228480  30682500
##  2     Albania       28715335680   2897366
##  3     Algeria      507901640704  38186136
##  4      Angola      152477499392  23448202
##  5   Australia      990474338304  23125868
##  6     Austria      373413642240   8479375
##  7     Bahamas        8497731584    377841
##  8     Bahrain       56583507968   1349427
##  9  Bangladesh      446835425280 157157392
## 10    Barbados        4333428224    282503
## # ... with 129 more rows

Otra función de ayuda útil es everything(), que se lee como “todas las demás variables”. Es especialmente útil para cambiar el orden de las variables en una bases de datos. Por ejemplo, pasemos región al segundo lugar entre las variables:

select(qog_mod, cname, region, everything())

## # A tibble: 139 x 7
##          cname                    region wdi_gdppppcon2011   wdi_pop
##          <chr>                     <chr>             <dbl>     <int>
##  1 Afghanistan             Southern Asia       57566228480  30682500
##  2     Albania           Southern Europe       28715335680   2897366
##  3     Algeria           Northern Africa      507901640704  38186136
##  4      Angola             Middle Africa      152477499392  23448202
##  5   Australia Australia and New Zealand      990474338304  23125868
##  6     Austria            Western Europe      373413642240   8479375
##  7     Bahamas                 Caribbean        8497731584    377841
##  8     Bahrain              Western Asia       56583507968   1349427
##  9  Bangladesh             Southern Asia      446835425280 157157392
## 10    Barbados                 Caribbean        4333428224    282503
## # ... with 129 more rows, and 3 more variables: ti_cpi <dbl>,
## #   lp_muslim80 <dbl>, fh_ipolity2 <dbl>

5.1 Renombrar columnas

La notación para el GDP es un poco confusa. ¿Y si queremos cambiar el nombre de la variable? Aprovechemos también de cambiar el nombre de la variable de identificación por país.

rename(qog_mod, wdi_gdp = wdi_gdppppcon2011, country_name = cname)

## # A tibble: 139 x 7
##    country_name      wdi_gdp   wdi_pop ti_cpi lp_muslim80 fh_ipolity2
##           <chr>        <dbl>     <int>  <dbl>       <dbl>       <dbl>
##  1  Afghanistan  57566228480  30682500      8        99.3   2.0188808
##  2      Albania  28715335680   2897366     31        20.5   8.0833330
##  3      Algeria 507901640704  38186136     36        99.1   4.2500000
##  4       Angola 152477499392  23448202     23         0.0   3.2500000
##  5    Australia 990474338304  23125868     81         0.2  10.0000000
##  6      Austria 373413642240   8479375     69         0.6  10.0000000
##  7      Bahamas   8497731584    377841     71         0.0  10.0000000
##  8      Bahrain  56583507968   1349427     48        95.0   0.8333333
##  9   Bangladesh 446835425280 157157392     27        85.9   6.4166670
## 10     Barbados   4333428224    282503     75         0.2  10.0000000
## # ... with 129 more rows, and 1 more variables: region <chr>
…
¿Qué pasa si queremos solo las filas de países sudamericanos con más de 10 millones de habitantes (nos quedamos con 8 de 12)?

¿Cuáles son los filtros que aplican los siguientes comandos?

filter(qog_mod, fh_ipolity2 > 9)

## # A tibble: 39 x 7
##             cname wdi_gdppppcon2011  wdi_pop ti_cpi lp_muslim80
##             <chr>             <dbl>    <int>  <dbl>       <dbl>
##  1      Australia      9.904743e+11 23125868     81         0.2
##  2        Austria      3.734136e+11  8479375     69         0.6
##  3        Bahamas      8.497732e+09   377841     71         0.0
##  4       Barbados      4.333428e+09   282503     75         0.2
##  5        Belgium      4.521544e+11 11182817     75         1.1
##  6         Canada      1.484142e+12 35158304     81         0.6
##  7     Cape Verde      3.109325e+09   507258     58         0.0
##  8          Chile      3.831625e+11 17575832     71         0.0
##  9     Costa Rica      6.541985e+10  4706433     53         0.0
## 10 Cyprus (1975-)      2.592799e+10  1141652     63        18.5
## # ... with 29 more rows, and 2 more variables: fh_ipolity2 <dbl>,
## #   region <chr>
…
filter(qog_mod, cname != "Albania")

## # A tibble: 138 x 7
##          cname wdi_gdppppcon2011   wdi_pop ti_cpi lp_muslim80 fh_ipolity2
##          <chr>             <dbl>     <int>  <dbl>       <dbl>       <dbl>
##  1 Afghanistan       57566228480  30682500      8        99.3   2.0188808
##  2     Algeria      507901640704  38186136     36        99.1   4.2500000
##  3      Angola      152477499392  23448202     23         0.0   3.2500000
##  4   Australia      990474338304  23125868     81         0.2  10.0000000
##  5     Austria      373413642240   8479375     69         0.6  10.0000000
##  6     Bahamas        8497731584    377841     71         0.0  10.0000000
##  7     Bahrain       56583507968   1349427     48        95.0   0.8333333
##  8  Bangladesh      446835425280 157157392     27        85.9   6.4166670
##  9    Barbados        4333428224    282503     75         0.2  10.0000000
## 10     Belgium      452154359808  11182817     75         1.1   9.5000000
## # ... with 128 more rows, and 1 more variables: region <chr>
…
5.3 Crear nuevas variables

Muchas veces queremos crear nuevas variables, a partir de las que ya tenemos. Por ejemplo, podríamos querer el GDP per capita, en vez del absoluto. Tenemos los ingredientes para calcularlo: el GDP absoluto y la población. Creemos una nueva variable, entonces:

mutate(qog_mod, gdp_ppp_per_capita = wdi_gdppppcon2011/wdi_pop)

## # A tibble: 139 x 8
##          cname wdi_gdppppcon2011   wdi_pop ti_cpi lp_muslim80 fh_ipolity2
##          <chr>             <dbl>     <int>  <dbl>       <dbl>       <dbl>
##  1 Afghanistan       57566228480  30682500      8        99.3   2.0188808
##  2     Albania       28715335680   2897366     31        20.5   8.0833330
##  3     Algeria      507901640704  38186136     36        99.1   4.2500000
##  4      Angola      152477499392  23448202     23         0.0   3.2500000
##  5   Australia      990474338304  23125868     81         0.2  10.0000000
##  6     Austria      373413642240   8479375     69         0.6  10.0000000
##  7     Bahamas        8497731584    377841     71         0.0  10.0000000
##  8     Bahrain       56583507968   1349427     48        95.0   0.8333333
##  9  Bangladesh      446835425280 157157392     27        85.9   6.4166670
## 10    Barbados        4333428224    282503     75         0.2  10.0000000
## # ... with 129 more rows, and 2 more variables: region <chr>,
## #   gdp_ppp_per_capita <dbl>

Otra nueva variable que podría interesarnos es el número de musulmanes por país. Con la proporción de musulmanes y la población total del país podemos hacer una buena estimación:

mutate(qog_mod, n_muslim = wdi_pop * lp_muslim80)

## # A tibble: 139 x 8
##          cname wdi_gdppppcon2011   wdi_pop ti_cpi lp_muslim80 fh_ipolity2
##          <chr>             <dbl>     <int>  <dbl>       <dbl>       <dbl>
##  1 Afghanistan       57566228480  30682500      8        99.3   2.0188808
##  2     Albania       28715335680   2897366     31        20.5   8.0833330
##  3     Algeria      507901640704  38186136     36        99.1   4.2500000
##  4      Angola      152477499392  23448202     23         0.0   3.2500000
##  5   Australia      990474338304  23125868     81         0.2  10.0000000
##  6     Austria      373413642240   8479375     69         0.6  10.0000000
##  7     Bahamas        8497731584    377841     71         0.0  10.0000000
##  8     Bahrain       56583507968   1349427     48        95.0   0.8333333
##  9  Bangladesh      446835425280 157157392     27        85.9   6.4166670
## 10    Barbados        4333428224    282503     75         0.2  10.0000000
## # ... with 129 more rows, and 2 more variables: region <chr>,
## #   n_muslim <dbl>

¡Es posible crear más de una variable con el mismo comando! Creemos las dos de antes, a la vez:

mutate(qog_mod, 
       gdp_ppp_per_capita = wdi_gdppppcon2011/wdi_pop,
       n_muslim           = wdi_pop * lp_muslim80)

## # A tibble: 139 x 9
##          cname wdi_gdppppcon2011   wdi_pop ti_cpi lp_muslim80 fh_ipolity2
##          <chr>             <dbl>     <int>  <dbl>       <dbl>       <dbl>
##  1 Afghanistan       57566228480  30682500      8        99.3   2.0188808
##  2     Albania       28715335680   2897366     31        20.5   8.0833330
##  3     Algeria      507901640704  38186136     36        99.1   4.2500000
##  4      Angola      152477499392  23448202     23         0.0   3.2500000
##  5   Australia      990474338304  23125868     81         0.2  10.0000000
##  6     Austria      373413642240   8479375     69         0.6  10.0000000
##  7     Bahamas        8497731584    377841     71         0.0  10.0000000
##  8     Bahrain       56583507968   1349427     48        95.0   0.8333333
##  9  Bangladesh      446835425280 157157392     27        85.9   6.4166670
## 10    Barbados        4333428224    282503     75         0.2  10.0000000
## # ... with 129 more rows, and 3 more variables: region <chr>,
## #   gdp_ppp_per_capita <dbl>, n_muslim <dbl>

5.4 Concatenar comandos: las pipes

A menudo no queremos hacer una sola de las operaciones con bases de datos reseñadas antes, sino que una seguidilla de estas. Si quisiéramos crear una nueva base a través de, por ejemplo, (1) seleccionar las variables de país, población y GDP, (2) crear la variable de GDP per capita, y (3) ordenar los países de mayor a menor según GDP per capita, nuestro procedimiento en R sería algo como esto:

qog_mod_seguidilla_1 <- select(qog_mod, cname, wdi_pop, wdi_gdppppcon2011)
qog_mod_seguidilla_2 <- mutate(qog_mod_seguidilla_1, 
                               gdp_ppp_per_capita = wdi_gdppppcon2011/wdi_pop)
qog_mod_seguidilla_3 <- arrange(qog_mod_seguidilla_2, -gdp_ppp_per_capita)

qog_mod_seguidilla_3

## # A tibble: 139 x 4
##                   cname   wdi_pop wdi_gdppppcon2011 gdp_ppp_per_capita
##                   <chr>     <int>             <dbl>              <dbl>
##  1                Qatar   2101288      2.803021e+11          133395.36
##  2           Luxembourg    543360      4.884228e+10           89889.36
##  3            Singapore   5399200      4.196306e+11           77720.89
##  4               Kuwait   3593689      2.665846e+11           74181.33
##  5               Norway   5079623      3.216514e+11           63321.91
##  6 United Arab Emirates   9039978      5.609863e+11           62056.15
##  7          Switzerland   8089346      4.442016e+11           54911.93
##  8        United States 316497536      1.623049e+13           51281.58
##  9         Saudi Arabia  30201052      1.478748e+12           48963.45
## 10              Ireland   4598294      2.123570e+11           46181.70
## # ... with 129 more rows

El lector notará que esto es bastante complicado y nos deja con dos objetos intermedios que no nos interesan, “qog_mod_seguidilla_1” y “qog_mod_seguidilla_2”.

La solución del paquete tidyverse que estamos utilizando son las pipes. El lector notará que en las tres funciones de nuestra seguidilla anterior (select, mutate y arrange) el primer argumento es la base de datos a tratar. En vez de crear objetos intermedios podemos “chutear” la base de datos a través de nuestros comandos con pipes, omitiendo los primeros argumentos:

qog_mod_seguidilla <- qog_mod %>%
  select(cname, wdi_pop, wdi_gdppppcon2011) %>%
  mutate(gdp_ppp_per_capita = wdi_gdppppcon2011/wdi_pop) %>%
  arrange(-gdp_ppp_per_capita)

qog_mod_seguidilla

## # A tibble: 139 x 4
##                   cname   wdi_pop wdi_gdppppcon2011 gdp_ppp_per_capita
##                   <chr>     <int>             <dbl>              <dbl>
##  1                Qatar   2101288      2.803021e+11          133395.36
##  2           Luxembourg    543360      4.884228e+10           89889.36
##  3            Singapore   5399200      4.196306e+11           77720.89
##  4               Kuwait   3593689      2.665846e+11           74181.33
##  5               Norway   5079623      3.216514e+11           63321.91
##  6 United Arab Emirates   9039978      5.609863e+11           62056.15
##  7          Switzerland   8089346      4.442016e+11           54911.93
##  8        United States 316497536      1.623049e+13           51281.58
##  9         Saudi Arabia  30201052      1.478748e+12           48963.45
## 10              Ireland   4598294      2.123570e+11           46181.70
## # ... with 129 more rows
…
