analizaR datos políticos
…
            analizaR datos políticos

4.4 Seleccionar columnas de la base con select()

A veces queremos trabajar solo con algunas variables de una base de datos. Para esto existe la función select(). Pensemos que queremos solo el nombre de cada país (cname) y su porcentaje de población musulmana para 1980:

select(qog_mod, cname, lp_muslim80)
## # A tibble: 139 x 2
##    cname       lp_muslim80
##    <chr>             <dbl>
##  1 Afghanistan      99.3  
##  2 Albania          20.5  
##  3 Algeria          99.1  
##  4 Angola            0    
##  5 Australia         0.200
##  6 Austria           0.600
##  7 Bahamas           0    
##  8 Bahrain          95    
##  9 Bangladesh       85.9  
## 10 Barbados          0.200
## # ... with 129 more rows

Al igual que para arrange(), aquí el primer argumento designa la base a modificar y los demás cómo se debería hacer eso -en este caso, qué variables deben ser seleccionadas.

Añadir un signo menos (-) aquí indica qué variables no seleccionar. Por ejemplo, quitemos el porcentaje de población musulmana para 1980 de la base:

select(qog_mod, -lp_muslim80)
## # A tibble: 139 x 6
##    cname     wdi_gdppppcon20…  wdi_pop ti_cpi fh_ipolity2 region          
##    <chr>                <dbl>    <dbl>  <dbl>       <dbl> <chr>           
##  1 Afghanis…      57566228480   3.07e7      8       2.02  Southern Asia   
##  2 Albania        28715335680   2.90e6     31       8.08  Southern Europe 
##  3 Algeria       507901640704   3.82e7     36       4.25  Northern Africa 
##  4 Angola        152477499392   2.34e7     23       3.25  Middle Africa   
##  5 Australia     990474338304   2.31e7     81      10     Australia and N…
##  6 Austria       373413642240   8.48e6     69      10     Western Europe  
##  7 Bahamas         8497731584   3.78e5     71      10     Caribbean       
##  8 Bahrain        56583507968   1.35e6     48       0.833 Western Asia    
##  9 Banglade…     446835425280   1.57e8     27       6.42  Southern Asia   
## 10 Barbados        4333428224   2.83e5     75      10     Caribbean       
## # ... with 129 more rows

Aparte de seleccionar variables específicas, select() es capaz de entender referencias a intervalos de variables. Por ejemplo, podemos querer las cuatro primeras variables:

select(qog_mod, cname:ti_cpi)
## # A tibble: 139 x 4
##    cname       wdi_gdppppcon2011   wdi_pop ti_cpi
##    <chr>                   <dbl>     <dbl>  <dbl>
##  1 Afghanistan       57566228480  30682500      8
##  2 Albania           28715335680   2897366     31
##  3 Algeria          507901640704  38186136     36
##  4 Angola           152477499392  23448202     23
##  5 Australia        990474338304  23125868     81
##  6 Austria          373413642240   8479375     69
##  7 Bahamas            8497731584    377841     71
##  8 Bahrain           56583507968   1349427     48
##  9 Bangladesh       446835425280 157157392     27
## 10 Barbados           4333428224    282503     75
## # ... with 129 more rows
select(qog_mod, 1:4) # lo mismo, aunque no recomendado
## # A tibble: 139 x 4
##    cname       wdi_gdppppcon2011   wdi_pop ti_cpi
##    <chr>                   <dbl>     <dbl>  <dbl>
##  1 Afghanistan       57566228480  30682500      8
##  2 Albania           28715335680   2897366     31
##  3 Algeria          507901640704  38186136     36
##  4 Angola           152477499392  23448202     23
##  5 Australia        990474338304  23125868     81
##  6 Austria          373413642240   8479375     69
##  7 Bahamas            8497731584    377841     71
##  8 Bahrain           56583507968   1349427     48
##  9 Bangladesh       446835425280 157157392     27
## 10 Barbados           4333428224    282503     75
## # ... with 129 more rows

Otra herramienta para complejizar nuestra selección se encuentra en las funciones de ayuda. Entre ellas, starts_with es de particular utilidad, permitiendo seleccionar variables que empiecen con cierto patrón. Por ejemplo, podríamos querer, a partir del nombre del país, todas las variables que provengan de los World Development Indicators (WDI) del Banco Mundial:

select(qog_mod, cname, starts_with("wdi_"))
## # A tibble: 139 x 3
##    cname       wdi_gdppppcon2011   wdi_pop
##    <chr>                   <dbl>     <dbl>
##  1 Afghanistan       57566228480  30682500
##  2 Albania           28715335680   2897366
##  3 Algeria          507901640704  38186136
##  4 Angola           152477499392  23448202
##  5 Australia        990474338304  23125868
##  6 Austria          373413642240   8479375
##  7 Bahamas            8497731584    377841
##  8 Bahrain           56583507968   1349427
##  9 Bangladesh       446835425280 157157392
## 10 Barbados           4333428224    282503
## # ... with 129 more rows

Otra función de ayuda útil es everything(), que se lee como “todas las demás variables”. Es especialmente útil para cambiar el orden de las variables en una bases de datos. Por ejemplo, pasemos región al segundo lugar entre las variables:

select(qog_mod, cname, region, everything())
## # A tibble: 139 x 7
##    cname  region   wdi_gdppppcon20… wdi_pop ti_cpi lp_muslim80 fh_ipolity2
##    <chr>  <chr>               <dbl>   <dbl>  <dbl>       <dbl>       <dbl>
##  1 Afgha… Souther…      57566228480  3.07e7      8      99.3         2.02 
##  2 Alban… Souther…      28715335680  2.90e6     31      20.5         8.08 
##  3 Alger… Norther…     507901640704  3.82e7     36      99.1         4.25 
##  4 Angola Middle …     152477499392  2.34e7     23       0           3.25 
##  5 Austr… Austral…     990474338304  2.31e7     81       0.200      10    
##  6 Austr… Western…     373413642240  8.48e6     69       0.600      10    
##  7 Baham… Caribbe…       8497731584  3.78e5     71       0          10    
##  8 Bahra… Western…      56583507968  1.35e6     48      95           0.833
##  9 Bangl… Souther…     446835425280  1.57e8     27      85.9         6.42 
## 10 Barba… Caribbe…       4333428224  2.83e5     75       0.200      10    
## # ... with 129 more rows
