…
## Describiendo una base de datos

Para aproximarnos a los datos recién cargados tenemos varias opciones. Podemos, igual que antes, escribir su nombre como si fuera un comando para tener un resumen rápido:


```r
aprobacion
## # A tibble: 1,020 x 11
##   pais   anio trimestre presidente presidente_gene… aprobacion_neta   pib
##   <chr> <dbl>     <dbl> <chr>      <chr>                      <dbl> <dbl>
## 1 Arge…  2000         1 Fernando … Masculino                   40.1  14.0
## 2 Arge…  2000         2 Fernando … Masculino                   16.4  14.0
## 3 Arge…  2000         3 Fernando … Masculino                   24.0  14.0
## # … with 1,017 more rows, and 4 more variables
```
…
## Operaciones básicas

A continuación, veremos algunas operaciones básicas para nuestra base de datos, que en su conjunto nos permitirán hacer una importante edición en la estructura y los contenidos [@wickhamDataScienceImport2016, cap. 5]. Esta subsección utiliza las herramientas del paquete `dplyr`, que está disponible al cargar `tidyverse`.

### Seleccionar columnas

A veces queremos trabajar sólo con un extracto de las variables de nuestros datos. Para ello, existe la función `select()`. Seleccionemos sólo la columna de países:


```r
select(aprobacion, pais)
## # A tibble: 1,020 x 1
##   pais     
##   <chr>    
## 1 Argentina
## 2 Argentina
## 3 Argentina
## # … with 1,017 more rows
```

El primer argumento de la función anterior (`aprobacion`) es la base de datos en la que queremos ejecutar la operación. El siguiente argumento indica qué columnas seleccionar (`pais`). Todas las funciones para operaciones básicas que veremos en esta subsección siguen la misma lógica: el primer argumento es siempre la base de datos en la que operaremos, mientras que el resto designa cómo queremos ejecutar la operación.

Recordemos que el código anterior no creó ningún objeto nuevo, es sólo un comando que estamos ejecutando en la consola. Si quisiéramos crear un nuevo objeto, tendríamos que asignarlo, usando el operador `<-`:


```r
aprobacion_reducida <- select(aprobacion, pais)
aprobacion_reducida
## # A tibble: 1,020 x 1
##   pais     
##   <chr>    
## 1 Argentina
## 2 Argentina
## 3 Argentina
## # … with 1,017 more rows
```

Podemos seleccionar varias columnas a la vez, separadas por comas:


```r
select(aprobacion, pais, anio, desempleo)
## # A tibble: 1,020 x 3
##   pais       anio desempleo
##   <chr>     <dbl>     <dbl>
## 1 Argentina  2000        15
## 2 Argentina  2000        15
## 3 Argentina  2000        15
## # … with 1,017 more rows
```

Supongamos que queremos las primeras cinco variables de nuestra base. A continuación se presentan tres formas de obtener el mismo resultado, aunque recomendamos la segunda, ya que es breve y clara:


```r
select(aprobacion, pais, anio, trimestre, presidente, aprobacion_neta)
select(aprobacion, pais:aprobacion_neta) # forma recomendada
select(aprobacion, 1:5)
```


```
## # A tibble: 1,020 x 6
##   pais     anio trimestre presidente     presidente_gene… aprobacion_neta
##   <chr>   <dbl>     <dbl> <chr>          <chr>                      <dbl>
## 1 Argent…  2000         1 Fernando de l… Masculino                   40.1
## 2 Argent…  2000         2 Fernando de l… Masculino                   16.4
## 3 Argent…  2000         3 Fernando de l… Masculino                   24.0
## # … with 1,017 more rows
```

El comando `select()` también puede ayudarnos a reordenar las columnas. Supongamos que quisiéramos que la variable `presidente` fuera la primera. Podemos reordenar las variables, obteniendo la misma base con un nuevo orden para las columnas:


```r
select(aprobacion, presidente, pais:anio, aprobacion_neta:desempleo)
## # A tibble: 1,020 x 8
##   presidente pais   anio aprobacion_neta   pib corrupcion poblacion
##   <chr>      <chr> <dbl>           <dbl> <dbl>      <dbl>     <dbl>
## 1 Fernando … Arge…  2000            40.1  14.0    5.52e11  37057452
## 2 Fernando … Arge…  2000            16.4  14.0    5.52e11  37057452
## 3 Fernando … Arge…  2000            24.0  14.0    5.52e11  37057452
## # … with 1,017 more rows, and 1 more variable
```

Este método es tedioso, especialmente para las bases de datos con múltiples variables. Hay una función que puede ser útil para estos escenarios, llamada `everything()`.  En este caso, seleccionará la columna `presidente` y "todo lo demás":


```r
select(aprobacion, presidente, everything())
## # A tibble: 1,020 x 11
##   presidente pais   anio trimestre presidente_gene… aprobacion_neta   pib
##   <chr>      <chr> <dbl>     <dbl> <chr>                      <dbl> <dbl>
## 1 Fernando … Arge…  2000         1 Masculino                   40.1  14.0
## 2 Fernando … Arge…  2000         2 Masculino                   16.4  14.0
## 3 Fernando … Arge…  2000         3 Masculino                   24.0  14.0
## # … with 1,017 more rows, and 4 more variables
```

Otra función útil para `select()` es `starts_with()`, que nos permite seleccionar las columnas según los patrones en sus nombres. Por ejemplo, a continuación se seleccionarán todas las columnas que empiecen con el prefijo "pib".


```r
select(aprobacion, starts_with("pib"))
## # A tibble: 1,020 x 1
##     pib
##   <dbl>
## 1  14.0
## 2  14.0
## 3  14.0
## # … with 1,017 more rows
```

### Renombra las columnas

Podemos cambiar los nombres de las columnas de una base con el comando `rename()`. Por ejemplo, hagamos más explícito el nombre de la variable con el PIB:


```r
rename(aprobacion, pib_ppp_c2011 = pib)
## # A tibble: 1,020 x 11
##   pais   anio trimestre presidente presidente_gene… aprobacion_neta
##   <chr> <dbl>     <dbl> <chr>      <chr>                      <dbl>
## 1 Arge…  2000         1 Fernando … Masculino                   40.1
## 2 Arge…  2000         2 Fernando … Masculino                   16.4
## 3 Arge…  2000         3 Fernando … Masculino                   24.0
## # … with 1,017 more rows, and 5 more variables
```

También es posible cambiar varios nombres a la vez. Observa cómo modificamos tres nombres con un solo comando:


```r
rename(aprobacion,
       pib_ppp_c2011              = pib,
       desempleo_porcentaje       = desempleo,
       crecimiento_pib_porcentaje = crecimiento_pib)
## # A tibble: 1,020 x 11
##   pais   anio trimestre presidente presidente_gene… aprobacion_neta
##   <chr> <dbl>     <dbl> <chr>      <chr>                      <dbl>
## 1 Arge…  2000         1 Fernando … Masculino                   40.1
## 2 Arge…  2000         2 Fernando … Masculino                   16.4
## 3 Arge…  2000         3 Fernando … Masculino                   24.0
## # … with 1,017 more rows, and 5 more variables
```

### Filtrar las observaciones

A menudo queremos mantener sólo algunas observaciones de nuestra base de datos, filtrando según características específicas. Podemos hacerlo gracias a la función `filter()` y a los operadores lógicos. Para empezar, mantengamos sólo las observaciones para Chile:


```r
filter(aprobacion, pais == "Chile")
## # A tibble: 60 x 11
##   pais   anio trimestre presidente presidente_gene… aprobacion_neta   pib
##   <chr> <dbl>     <dbl> <chr>      <chr>                      <dbl> <dbl>
## 1 Chile  2000         1 Eduardo F… Masculino                   6.22  3.63
## 2 Chile  2000         2 Ricardo L… Masculino                  19.8   3.63
## 3 Chile  2000         3 Ricardo L… Masculino                  19.5   3.63
## # … with 57 more rows, and 4 more variables
```
…
Por ejemplo, podemos obtener todas las observaciones (país-año-cuatrimestre) en las que la aprobación presidencial neta es positiva:


```r
filter(aprobacion, aprobacion_neta > 0)
## # A tibble: 709 x 11
##   pais   anio trimestre presidente presidente_gene… aprobacion_neta   pib
##   <chr> <dbl>     <dbl> <chr>      <chr>                      <dbl> <dbl>
## 1 Arge…  2000         1 Fernando … Masculino                   40.1  14.0
## 2 Arge…  2000         2 Fernando … Masculino                   16.4  14.0
## 3 Arge…  2000         3 Fernando … Masculino                   24.0  14.0
## # … with 706 more rows, and 4 more variables
```

También es posible ejecutar filtros más complejos. Filtremos sólo las observaciones para el Cono Sur:


```r
filter(aprobacion, 
       pais == "Argentina" | pais == "Chile" | pais == "Uruguay")
## # A tibble: 180 x 11
##   pais   anio trimestre presidente presidente_gene… aprobacion_neta   pib
##   <chr> <dbl>     <dbl> <chr>      <chr>                      <dbl> <dbl>
## 1 Arge…  2000         1 Fernando … Masculino                   40.1  14.0
## 2 Arge…  2000         2 Fernando … Masculino                   16.4  14.0
## 3 Arge…  2000         3 Fernando … Masculino                   24.0  14.0
## # … with 177 more rows, and 4 more variables
```

```r
# Lo mismo, pero con otro operador lógico:
filter(aprobacion, pais %in% c("Argentina", "Chile", "Uruguay"))
## # A tibble: 180 x 11
##   pais   anio trimestre presidente presidente_gene… aprobacion_neta   pib
##   <chr> <dbl>     <dbl> <chr>      <chr>                      <dbl> <dbl>
## 1 Arge…  2000         1 Fernando … Masculino                   40.1  14.0
## 2 Arge…  2000         2 Fernando … Masculino                   16.4  14.0
## 3 Arge…  2000         3 Fernando … Masculino                   24.0  14.0
## # … with 177 more rows, and 4 more variables
```

También podemos incluir pequeñas operaciones en nuestros filtros. Obtengamos todas las observaciones en las que la corrupción del ejecutivo sea mayor que la media de la muestra:


```r
filter(aprobacion, corrupcion > mean(corrupcion))
## # A tibble: 252 x 11
##   pais   anio trimestre presidente presidente_gene… aprobacion_neta   pib
##   <chr> <dbl>     <dbl> <chr>      <chr>                      <dbl> <dbl>
## 1 Arge…  2000         1 Fernando … Masculino                   40.1  14.0
## 2 Arge…  2000         2 Fernando … Masculino                   16.4  14.0
## 3 Arge…  2000         3 Fernando … Masculino                   24.0  14.0
## # … with 249 more rows, and 4 more variables
```
…
> **Ejercicio 2A.** Seleccione sólo las dos columnas que registran el género del presidentee en la base de datos.
>
> **Ejercicio 2B.** Filtrar los datos para que contengan sólo observaciones del año 2000.

### Cambiar el orden de una base de datos

Una de las operaciones más comunes con los bases de datos es clasificarlas según una variable de interés. Esto puede darnos pistas claras sobre nuestras observaciones. Podemos hacerlo gracias a la función `arrange()`. Por ejemplo, clasifiquemos las observaciones desde el país menos corrupto - hasta el más corrupto, por trimestre del año:


```r
arrange(aprobacion, corrupcion)
## # A tibble: 1,020 x 11
##   pais   anio trimestre presidente presidente_gene… aprobacion_neta   pib
##   <chr> <dbl>     <dbl> <chr>      <chr>                      <dbl> <dbl>
## 1 Nica…  2000         1 Arnoldo A… Masculino                   7.60  85.7
## 2 Nica…  2000         2 Arnoldo A… Masculino                   7.57  85.7
## 3 Nica…  2000         3 Arnoldo A… Masculino                   3.87  85.7
## # … with 1,017 more rows, and 4 more variables
```

Si quisiéramos ordenarlas a la inversa, tendríamos que añadir un - (signo menos) antes de la variable:


```r
arrange(aprobacion, -corrupcion)
## # A tibble: 1,020 x 11
##   pais   anio trimestre presidente presidente_gene… aprobacion_neta   pib
##   <chr> <dbl>     <dbl> <chr>      <chr>                      <dbl> <dbl>
## 1 Bras…  2014         1 Dilma Van… Femenino                    22.6  27.3
## 2 Bras…  2014         2 Dilma Van… Femenino                    12.6  27.3
## 3 Bras…  2014         3 Dilma Van… Femenino                    16.2  27.3
## # … with 1,017 more rows, and 4 more variables
```

Para utilizar un orden alfabético inverso (de la Z a la A), tenemos que utilizar la función `desc()`.


```r
arrange(aprobacion, desc(presidente))
## # A tibble: 1,020 x 11
##   pais   anio trimestre presidente presidente_gene… aprobacion_neta   pib
##   <chr> <dbl>     <dbl> <chr>      <chr>                      <dbl> <dbl>
## 1 Méxi…  2001         1 Vicente F… Masculino                   53.8  37.6
## 2 Méxi…  2001         2 Vicente F… Masculino                   40.7  37.6
## 3 Méxi…  2001         3 Vicente F… Masculino                   40.1  37.6
## # … with 1,017 more rows, and 4 more variables
```

Por último, podemos clasificar la base de datos por más de una variable. Esto es, ordenar los datos según la primera variable, y luego ordenarla según una segunda variable. Examinemos el siguiente ejemplo:


```r
arrange(aprobacion, presidente_genero, -aprobacion_neta)
## # A tibble: 1,020 x 11
##   pais   anio trimestre presidente presidente_gene… aprobacion_neta   pib
##   <chr> <dbl>     <dbl> <chr>      <chr>                      <dbl> <dbl>
## 1 Bras…  2013         1 Dilma Van… Femenino                    62.5  27.3
## 2 Bras…  2012         4 Dilma Van… Femenino                    60.9  33.4
## 3 Bras…  2012         2 Dilma Van… Femenino                    60.5  33.4
## # … with 1,017 more rows, and 4 more variables
```

### Transformar y crear variables

La mayoría de las veces queremos crear nuevas variables a partir de las que ya tenemos. Supongamos que quisiéramos transformar la escala de población (`poblacion`) en millones:


```r
mutate(aprobacion, poblacion_mill = poblacion / 1000000)
## # A tibble: 1,020 x 12
##   pais   anio trimestre presidente presidente_gene… aprobacion_neta   pib
##   <chr> <dbl>     <dbl> <chr>      <chr>                      <dbl> <dbl>
## 1 Arge…  2000         1 Fernando … Masculino                   40.1  14.0
## 2 Arge…  2000         2 Fernando … Masculino                   16.4  14.0
## 3 Arge…  2000         3 Fernando … Masculino                   24.0  14.0
## # … with 1,017 more rows, and 5 more variables
```

El comando anterior genera una nueva variable en la base de datos, `pop_mill`, que es `poblacion` pero en la escala de millones. Podemos ejecutar todo tipo de operaciones en nuestras columnas, como crear una variable PIB en una escala logarítmica:


```r
mutate(aprobacion, log_gdp = log(pib))
## # A tibble: 1,020 x 12
##   pais   anio trimestre presidente presidente_gene… aprobacion_neta   pib
##   <chr> <dbl>     <dbl> <chr>      <chr>                      <dbl> <dbl>
## 1 Arge…  2000         1 Fernando … Masculino                   40.1  14.0
## 2 Arge…  2000         2 Fernando … Masculino                   16.4  14.0
## 3 Arge…  2000         3 Fernando … Masculino                   24.0  14.0
## # … with 1,017 more rows, and 5 more variables
```

También podemos crear nuevas variables a partir de operaciones entre variables. Por ejemplo, calculamos el PIB *per cápita*, lo que nos permite comparar mejor los países con diferentes poblaciones:


```r
mutate(aprobacion, pib_pc = pib / poblacion)
## # A tibble: 1,020 x 12
##   pais   anio trimestre presidente presidente_gene… aprobacion_neta   pib
##   <chr> <dbl>     <dbl> <chr>      <chr>                      <dbl> <dbl>
## 1 Arge…  2000         1 Fernando … Masculino                   40.1  14.0
## 2 Arge…  2000         2 Fernando … Masculino                   16.4  14.0
## 3 Arge…  2000         3 Fernando … Masculino                   24.0  14.0
## # … with 1,017 more rows, and 5 more variables
```

Por último, también podemos generar más de una transformación a la vez con `mutate()`, utilizando múltiples argumentos:


```r
mutate(aprobacion,
       pop_mill = poblacion / 1000000,
       pib_pc = pib / poblacion)
## # A tibble: 1,020 x 13
##   pais   anio trimestre presidente presidente_gene… aprobacion_neta   pib
##   <chr> <dbl>     <dbl> <chr>      <chr>                      <dbl> <dbl>
## 1 Arge…  2000         1 Fernando … Masculino                   40.1  14.0
## 2 Arge…  2000         2 Fernando … Masculino                   16.4  14.0
## 3 Arge…  2000         3 Fernando … Masculino                   24.0  14.0
## # … with 1,017 more rows, and 6 more variables
```
…
Los grupos también pueden ser combinaciones de variables. Por ejemplo, nuestra base de datos a nivel de país-año-cuarimestre puede ser agrupado por país-año, y entonces podemos obtener el mismo cálculo previo:


```r
aprobacion_por_pais_anio <- group_by(aprobacion, 
                                      pais, anio)
summarize(aprobacion_por_pais,
          desempleo_mean = mean(desempleo),
          crecimiento_pib_mean = mean(crecimiento_pib),
          approv_mean = mean(aprobacion_neta))
## # A tibble: 17 x 4
##   pais      desempleo_mean crecimiento_pib_mean approv_mean
##   <chr>              <dbl>                <dbl>       <dbl>
## 1 Argentina          11.0                  2.72        16.7
## 2 Bolivia             3.70                 4.24        11.3
## 3 Brasil              8.35                 3.4         34.2
## # … with 14 more rows
```

Por cierto, podemos desagrupar un conjunto de datos con `ungroup()`. Es una gran idea si no queremos seguir ejecutando operaciones agrupadas, evitando errores:


```r
aprobacion_por_pais_anio %>%
  ungroup() # nota que ya no hay "grupos" en el resumen de datos
## # A tibble: 1,020 x 11
##   pais   anio trimestre presidente presidente_gene… aprobacion_neta   pib
##   <chr> <dbl>     <dbl> <chr>      <chr>                      <dbl> <dbl>
## 1 Arge…  2000         1 Fernando … Masculino                   40.1  14.0
## 2 Arge…  2000         2 Fernando … Masculino                   16.4  14.0
## 3 Arge…  2000         3 Fernando … Masculino                   24.0  14.0
## # … with 1,017 more rows, and 4 more variables
```

## Comandos en cadena

La mayoría de las veces queremos hacer **más de una operación** sobre una base. Por ejemplo, podríamos querer (a) crear una nueva variable del PIB per cápita, y luego (b) filtrar las observaciones con valores iguales o mayores que el PIB medio per cápita de la muestra:


```r
aprobacion_con_pib_pc <- mutate(aprobacion,
                                pib_pc = pib / poblacion)

filter(aprobacion_con_pib_pc, pib_pc > mean(pib_pc))
## # A tibble: 344 x 12
##   pais   anio trimestre presidente presidente_gene… aprobacion_neta   pib
##   <chr> <dbl>     <dbl> <chr>      <chr>                      <dbl> <dbl>
## 1 Boli…  2000         1 Hugo Banz… Masculino                  -19.0  60.5
## 2 Boli…  2000         2 Hugo Banz… Masculino                  -19.0  60.5
## 3 Boli…  2000         3 Hugo Banz… Masculino                  -23.8  60.5
## # … with 341 more rows, and 5 more variables
```

La misma cadena de operaciones puede escribirse de la siguiente manera en lenguaje “tidy”:


```r
aprobacion %>%
  mutate(pib_pc = pib / poblacion) %>%
  filter(pib_pc > mean(pib_pc)) 
## # A tibble: 344 x 12
##   pais   anio trimestre presidente presidente_gene… aprobacion_neta   pib
##   <chr> <dbl>     <dbl> <chr>      <chr>                      <dbl> <dbl>
## 1 Boli…  2000         1 Hugo Banz… Masculino                  -19.0  60.5
## 2 Boli…  2000         2 Hugo Banz… Masculino                  -19.0  60.5
## 3 Boli…  2000         3 Hugo Banz… Masculino                  -23.8  60.5
## # … with 341 more rows, and 5 more variables
```
…
