Capítulo 11 Manejo avanzado de datos políticos | AnalizaR Datos Políticos
…
Nuestra base de datos sólo contiene información de 31 países americanos y sus respuestas (firma, ratificación) a cuatro tratados pertinentes de los años 90.

El Tratado de Prohibición Completa de los Ensayos Nucleares (1996).

El Protocolo de Kyoto de la Convención Marco de las Naciones Unidas sobre el Cambio Climático (1997).

El Convenio de Rotterdam sobre el procedimiento de consentimiento fundamentado previo aplicable a ciertos plaguicidas y productos químicos peligrosos objeto de comercio internacional (1998)

El Estatuto de Roma, acto constitutivo de la Corte Penal Internacional (1998).

Así, para cada tratado tenemos 62 observaciones (31 países, 2 respuestas posibles para cada uno):

tratados %>% 
  count(nombre_tratado)
## # A tibble: 4 x 2
##   nombre_tratado                                                        n
##   <chr>                                                             <int>
## 1 "Convenio de Rotterdam sobre el Procedimiento de Consentimiento ~    62
## 2 "Estatuto de Roma de la Corte Penal Internacional"                   62
## 3 "Protocolo de Kioto de la Convención Marco de las Naciones Unida~    62
## # ... with 1 more row

11.2 Uniendo bases de datos

Un ejercicio común en los estudios de observación es unir bases de datos de diferentes fuentes. Supongamos que, por ejemplo, tenemos el siguiente resumen sobre cuántos tratados de la muestra han sido firmados o ratificados por cada país:

resumen_tratados <- tratados %>% 
  group_by(pais_nombre) %>% 
  summarize(
    # Encontraremos los que no faltan con !is.na()
    sum_signed = sum(accion_tipo == "Firma" & !is.na(accion_anio)),
    sum_ratif  = sum(accion_tipo == "Ratificación" & !is.na(accion_anio))
  )

resumen_tratados
## # A tibble: 31 x 3
##   pais_nombre       sum_signed sum_ratif
##   <chr>                  <int>     <int>
## 1 Antigua y Barbuda          3         3
## 2 Argentina                  4         4
## 3 Bahamas                    2         1
## # ... with 28 more rows
…
resumen_tratados %>% 
  filter(pais_nombre == "Estados Unidos")
## # A tibble: 0 x 3
## # ... with 3 variables

Sería interesante explorar la relación entre las respuestas de los países a los tratados y algunas otras variables sobre ellos. A modo de ejemplo, cargaremos datos en panel con información sobre el PIB per cápita con paridad de cambio, según el Banco Mundial.

data("pib_pc_america")

Tenemos información de los 31 países de interés entre 1996 y 1998:

pib_pc_america %>% 
  count(pais_nombre)
## # A tibble: 31 x 2
##   pais_nombre             n
##   <chr>               <int>
## 1 Antigua and Barbuda     3
## 2 Argentina               3
## 3 Bahamas (the)           3
## # ... with 28 more rows
…
En el código, podemos añadir nuevas variables a nuestra base de datos de otro con left_join()48:

resumen_completo <- left_join(x = resumen_tratados, y = resumen_pib,
                              # Podemos proporcionar explícitamente la identificación 
                              #nombre variable:                             
                              by = "pais_nombre")

Este código dará los mismos resultados usando pipes:

resumen_completo <- resumen_tratados %>% 
  left_join(resumen_pib, by = "pais_nombre")

resumen_completo
## # A tibble: 31 x 4
##   pais_nombre       sum_signed sum_ratif mean_pib_pc
##   <chr>                  <int>     <int>       <dbl>
## 1 Antigua y Barbuda          3         3         NA 
## 2 Argentina                  4         4      15362.
## 3 Bahamas                    2         1         NA 
## # ... with 28 more rows

También es posible unir bases de datos utilizando más de una variable de identificación. Por ejemplo, podríamos unir nuestras bases de datos originales, tratados y pib_pc_america, ambos con la unidad de observación del año del país. Sin embargo, hay una particularidad. En ambos casos, la variable país se llama pais_nombre, pero el nombre de la variable año no es el mismo: en el primero, el nombre es anio_adopcion (para la fecha original del tratado), y en el segundo es anio. Podemos proporcionar fácilmente esta información a left_join() con el argumento by =:

tratados_con_pib <- tratados %>% 
  left_join(pib_pc_america, 
            by = c("pais_nombre", "anio_adopcion" = "anio"))

Así pues, a la base de datos original de los “tratados,” que tenía 248 observaciones y 5 columnas, añadimos la columna adicional con información sobre el PIB per cápita con paridad de tipos de cambio para cada año de participación en el tratado:

tratados_con_pib
## # A tibble: 248 x 6
##   nombre_tratado anio_adopcion pais_nombre accion_tipo accion_anio pib_pc
##   <chr>                  <dbl> <chr>       <chr>             <dbl>  <dbl>
## 1 Tratado de Pr~          1996 Antigua y ~ Ratificaci~        2006    NA 
## 2 Tratado de Pr~          1996 Antigua y ~ Firma              1997    NA 
## 3 Tratado de Pr~          1996 Argentina   Ratificaci~        1998 14557.
## # ... with 245 more rows
…
resumen_completo_con_codigos %>% 
  select(starts_with("pais_"))
## # A tibble: 31 x 3
##   pais_nombre       pais_iso2c pais_iso3c
##   <chr>             <chr>           <dbl>
## 1 Antigua y Barbuda AG                311
## 2 Argentina         AR                213
## 3 Bahamas           BS                313
## # ... with 28 more rows
…
Los nombres de esta base de datos no corresponden a ninguna normalización, sino que son el resultado de una codificación manual. Un ejemplo claro es la abreviatura de “Rep. Dominicana.” ¿Qué pasaría si unimos nuestra base de datos resumen_tratados con una base de datos confuso como este?

resumen_tratados %>% 
  left_join(resumen_desordenado, by = "pais_nombre")
## # A tibble: 31 x 4
##   pais_nombre       sum_signed sum_ratif pib_pc_prom
##   <chr>                  <int>     <int>       <dbl>
## 1 Antigua y Barbuda          3         3         NA 
## 2 Argentina                  4         4      15362.
## 3 Bahamas                    2         1      29530.
## # ... with 28 more rows
…
