Capítulo 16 Mapas y datos espaciales | AnalizaR Datos Políticos
…
Nos hemos asegurado previamente de que las observaciones estén codificadas de la misma manera tanto en la base de datos como en el shapefile.68 Haciendo esto, podemos unir ambas bases de datos con el comando left_join():

shp_brasil_data <- shp_brasil %>%
  left_join(estados_brasil)

Usando head() podemos ver el resultado de esta operación:

head(shp_brasil_data)
## Simple feature collection with 6 features and 7 fields
## geometry type:  MULTIPOLYGON
## dimension:      XY
## bbox:           xmin: -1400000 ymin: -1500000 xmax: -630000 ymax: -890000
## projected CRS:  Polyconic
## # A tibble: 6 x 8
##   estado                  geometry region estado_cod  anio
##   <chr>         <MULTIPOLYGON [m]> <chr>       <dbl> <dbl>
## 1 Rondô~ (((-977421 -892385, -975~ Norte          11  1990
## 2 Rondô~ (((-977421 -892385, -975~ Norte          11  1991
## 3 Rondô~ (((-977421 -892385, -975~ Norte          11  1992
## # ... with 3 more rows, and 3 more variables
…
16.4.1 Generando centroides

La primera opción es generar nuevas variables asociadas a nuestras unidades usando el comando mutate. Una acción común es generar lo que se llama “centroides,” es decir, puntos situados en el centro de nuestras unidades. Para generar los centroides, necesitamos crear las siguientes variables asociadas a nuestros geoms: centroid, coords, coords_x y coords_y. Podemos hacer esto con los comandos map() y map_dbl(), del paquete purr, y los comandos st_centroid() y st_coordinates(), del paquete sf.

shp_brasil <- shp_brasil %>% mutate(centroid = map(geometry, st_centroid), 
    coords = map(centroid, st_coordinates), coords_x = map_dbl(coords, 1), 
    coords_y = map_dbl(coords, 2))

head(shp_brasil)
## Simple feature collection with 6 features and 6 fields
## geometry type:  MULTIPOLYGON
## dimension:      XY
## bbox:           xmin: -2200000 ymin: -1500000 xmax: 880000 ymax: 590000
## projected CRS:  Polyconic
## # A tibble: 6 x 7
##   estado                  geometry region centroid coords coords_x
##   <chr>         <MULTIPOLYGON [m]> <chr>  <list>   <list>    <dbl>
## 1 Rondô~ (((-977421 -892385, -975~ Norte  <XY [2]> <dbl[~  -9.68e5
## 2 Acre   (((-2179954 -836549, -20~ Norte  <XY [2]> <dbl[~  -1.81e6
## 3 Amazo~ (((-1482456 230568, -147~ Norte  <XY [2]> <dbl[~  -1.19e6
## # ... with 3 more rows, and 1 more variable
…
Luego, usamos la función st_as_sf() para transformar las variables de longitud y latitud en geometrías del tipo sf. El argumento crs representa el tipo de Sistema de Referencia de Coordenadas (CRS, por sus siglas en inglés) según su código llamado EPSG. En este caso, utilizaremos el código “4326,” que corresponde al estándar WGS84, el más común. Por otro lado, usamos el comando remove = F para que la función no elimine las variables originales de latitud y longitud de la base de datos, de tal forma que se pueda usar para generar puntos con geom_points. También eliminaremos previamente los valores NA.

Tip: Cuando repliques este ejercicio, ten en cuenta que en el argumento coords siempre tienes que poner primero la longitud y la latitud. De lo contrario, tus variables pueden quedar con sus coordenadas invertidas.

pinochet_sf <- pinochet %>%
  filter(place_1 != "NA" & !is.na(longitude_1) & !is.na(latitude_1)) %>%
  st_as_sf(coords = c("longitude_1", "latitude_1"), crs = 4326, remove = F)

head(pinochet_sf)
## Simple feature collection with 6 features and 6 fields
## geometry type:  POINT
## dimension:      XY
## bbox:           xmin: -71 ymin: -34 xmax: -71 ymax: -33
## geographic CRS: WGS 84
##         last_name         first_name   place_1 longitude_1 latitude_1
## 1 Corredera Reyes Mercedes del Pilar In Public         -71        -34
## 2   Torres Torres   Benito Heriberto      Home         -71        -33
##           location_1        geometry
## 1 Calle Gran Avenida POINT (-71 -34)
## 2           Santiago POINT (-71 -33)
##  [ reached 'max' / getOption("max.print") -- omitted 4 rows ]
…
