…
<div class="figure" style="text-align: left">
<img src="03-dataviz_es_files/figure-html/unnamed-chunk-19-1.png" alt=" Versión completa de nuestro gráfico de líneas para los ingresos de los municipios en los años electorales" width="1344" />
<p class="caption">(\#fig:unnamed-chunk-19) Versión completa de nuestro gráfico de líneas para los ingresos de los municipios en los años electorales</p>
</div>

¿Qué hemos especificado?

1. Primero, creamos un conjunto de datos ("promedio") que contiene los ingresos medios de cada zona. Lo hicimos usando `group_by()` y `summarize()` del `tidyverse`.


```r
datos_municipales %>% 
  group_by(zona) %>% 
  summarize(media_ingreso = mean(ingreso, na.rm = T))
## # A tibble: 5 x 2
##   zona        media_ingreso
##   <chr>               <dbl>
## 1 Austral          2609648.
## 2 Central          7302625.
## 3 Norte Chico      4816249.
## # … with 2 more rows
```
…
