…
Ahora podemos crear un *marco de datos* (data frame) con toda la información:

```r
df_web_comunicados_10_2019 <- tibble(
  titulo = titulos_web_comunicados_10_2019,
  link   = links_web_comunicados_10_2019)

df_web_comunicados_10_2019
## # A tibble: 39 x 2
##   titulo                               link                              
##   <chr>                                <chr>                             
## 1 Ministros de Seguridad de las AmÃ©r… https://www.oas.org/es/centro_not…
## 2 La SecretarÃ­a General de la OEA in…  https://www.oas.org/es/centro_not…
## 3 El Salvador serÃ¡ sede de la VIII R… https://www.oas.org/es/centro_not…
## # … with 36 more rows
```
…
  df_info <- tibble(
    titulo = titulos,
    link   = links
  )
  
  return(df_info) # what returns/delivers the function
}
```

Ahora la función toma cualquier archivo como argumento y nos da lo que esperamos:


```r
f_procesar_sitio(file = "webs/comunicados_oea_10_2016.html")
## # A tibble: 24 x 2
##   titulo                               link                              
##   <chr>                                <chr>                             
## 1 "Asamblea General Extraordinaria de… https://www.oas.org/es/centro_not…
## 2 "ATENCIÃ\u0093N - ACTUALIZA FECHA Y… https://www.oas.org/es/centro_not…
## 3 "La OEA y la UNESCO buscan reducir … https://www.oas.org/es/centro_not…
## # … with 21 more rows
```
…
df_web_comunicados_2016_2018 <- map_dfr(.x = archivos,
                                 .f = ~ {
                                   f_procesar_sitio(.x)
                                 })
df_web_comunicados_2016_2018
## # A tibble: 1,397 x 2
##   titulo                               link                              
##   <chr>                                <chr>                             
## 1 "MisiÃ³n Especial de la OEA llegarÃ… https://www.oas.org/es/centro_not…
## 2 "OEA enviarÃ¡ MisiÃ³n Especial a Ha… https://www.oas.org/es/centro_not…
## 3 "ATENCIÃ\u0093N CAMBIO DE HORA: Con… https://www.oas.org/es/centro_not…
## # … with 1,394 more rows
```
…
Para obtener información de los usuarios que están emitiendo tweets sobre #piñera en el momento que estamos escribiendo este capitulo  


```r
lookup_users(pinera_tweets$user_id)
## # A tibble: 860 x 90
##   user_id status_id created_at          screen_name text  source
##   <chr>   <chr>     <dttm>              <chr>       <chr> <chr> 
## 1 122154… 12951194… 2020-08-16 22:05:08 Flako823    🤣 co… Twitt…
## 2 142816… 12951194… 2020-08-16 22:05:20 CiudadanoC… Cree… Twitt…
## 3 119324… 12951192… 2020-08-16 22:04:14 marvelalre… Se v… Twitt…
## # … with 857 more rows, and 84 more variables
```
…
