…
```r
poltweets_hashtags %>% 
  filter(fem_hashtag == "1") %>% 
  count(hashtag) %>% 
  arrange(-n) 
## # A tibble: 63 x 2
##   hashtag                           n
##   <chr>                         <int>
## 1 #aborto3causales                 98
## 2 #interpelacionaborto3causales    64
## 3 #leydeidentidaddegeneroahora     61
## # … with 60 more rows
```
…
### Hashtags más utilizados

Para ver cuáles son los hashtags más utilizados, los ordenamos desde los más frecuentes hasta los menos frecuentes. Vemos que el hashtag más utiliazdo es `#cuentapublica`, vinculado al Discurso Público del Presidente Sebastián Piñera, del 21 de mayo, al Congreso. El hashtag `#aborto3causales` es el único relacionado a género en el ranking, con 98 menciones. Este hashtag hace referencia a la discusión sobre la ley de aborto. 


```r
poltweets_hashtags %>% 
  count(hashtag, fem_hashtag) %>% 
  arrange(-n) %>% 
  slice(1:20)
## # A tibble: 20 x 3
##   hashtag        fem_hashtag     n
##   <chr>          <chr>       <int>
## 1 #cuentapublica 0             381
## 2 #valdiviacl    0             323
## 3 #losrios       0             232
## # … with 17 more rows
```
…
