…
data("aprobacion") 
```

#### Ejercicio 2A {-}

> Seleccione sólo las dos columnas que registran el género del presidente en la base de datos.


```r
select(aprobacion, presidente, presidente_genero) 
## # A tibble: 1,020 x 2
##   presidente         presidente_genero
##   <chr>              <chr>            
## 1 Fernando de la Rúa Masculino        
## 2 Fernando de la Rúa Masculino        
## 3 Fernando de la Rúa Masculino        
## # ... with 1,017 more rows
```

#### Ejercicio 2B {-}

> Filtrar los datos para que contengan sólo observaciones del año 2000.


```r
filter(aprobacion, anio == 2000)
## # A tibble: 68 x 11
##   pais   anio trimestre presidente presidente_gene~ aprobacion_neta   pib
##   <chr> <dbl>     <dbl> <chr>      <chr>                      <dbl> <dbl>
## 1 Arge~  2000         1 Fernando ~ Masculino                   40.1  14.0
## 2 Arge~  2000         2 Fernando ~ Masculino                   16.4  14.0
## 3 Arge~  2000         3 Fernando ~ Masculino                   24.0  14.0
## # ... with 65 more rows, and 4 more variables
```

#### Ejercicio 2C {-}

> Crear una nueva base, que está ordenada por país-trimestre del año con menos aprobación presidencial al de más alto nivel (recuerde crear un nuevo objeto y darle un nombre descriptivo). En tu nuevo objeto, conserva sólo las observaciones con mujeres como presidentas.


```r
aprobacion_presidentas <- aprobacion %>% 
  filter(presidente_genero == "Femenino") %>% 
  arrange(pais, trimestre, aprobacion_neta) 

head(aprobacion_presidentas, n = 20)
## # A tibble: 20 x 11
##   pais   anio trimestre presidente presidente_gene~ aprobacion_neta   pib
##   <chr> <dbl>     <dbl> <chr>      <chr>                      <dbl> <dbl>
## 1 Arge~  2010         1 Cristina ~ Femenino                  -18.5   52.4
## 2 Arge~  2014         1 Cristina ~ Femenino                   -6.77  52.4
## 3 Arge~  2009         1 Cristina ~ Femenino                   -5.64  50.1
## # ... with 17 more rows, and 4 more variables
```

#### Ejercicio 2D {-}

> Crear una nueva variable, que registre el desempleo como proporción en lugar de como porcentaje.


```r
aprobacion %>% 
  mutate(desempleo_proporcion = desempleo/100) %>% 
  select(pais, anio, trimestre, presidente, desempleo, desempleo_proporcion)
## # A tibble: 1,020 x 6
##   pais      anio trimestre presidente       desempleo desempleo_proporci~
##   <chr>    <dbl>     <dbl> <chr>                <dbl>               <dbl>
## 1 Argenti~  2000         1 Fernando de la ~        15                0.15
## 2 Argenti~  2000         2 Fernando de la ~        15                0.15
## 3 Argenti~  2000         3 Fernando de la ~        15                0.15
## # ... with 1,017 more rows
```

#### Ejercicio 2E {-}

> Calcular, con la ayuda de los `pipes`, la corrupción del ejecutivo medio y el PIB por país. Recuerde que puede insertar `pipes` con `Ctrl` o `Cmd` + `Shift` + `M`.


```r
aprobacion %>% 
  group_by(pais) %>% 
  summarize(promedio_corrupcion = mean(corrupcion),
            promedio_pib = mean(pib))
## # A tibble: 17 x 3
##   pais      promedio_corrupcion promedio_pib
##   <chr>                   <dbl>        <dbl>
## 1 Argentina       671977296126.         44.4
## 2 Bolivia          48568023767.         46.1
## 3 Brasil         2540610234933.         31.4
## # ... with 14 more rows
```

#### Ejercicio 2F {-}

> Una vez más, utilizando `pipes`, clasifique los países de la base de datos desde el que obtuvo el mayor promedio de PIB per cápita en el período 2010-2014 hasta el más bajo.


```r
aprobacion %>% 
  filter(anio >= 2010 & anio <= 2014) %>% 
  group_by(pais) %>% 
  summarize(promedio_pib = mean(pib)) %>% 
  arrange(-promedio_pib)
## # A tibble: 17 x 2
##   pais      promedio_pib
##   <chr>            <dbl>
## 1 Venezuela         86.6
## 2 Honduras          78.6
## 3 Guatemala         76.4
## # ... with 14 more rows
```

#### Ejercicio 2G {-}

> ¿Qué trimestre del año, entre los gobernados por mujeres presidenteas, tuvo la corrupción más alta? ¿Y la mayor aprobación neta? 


```r
aprobacion %>% 
  filter(presidente_genero == "Femenino") %>% 
  arrange(-corrupcion) %>% 
  select(pais, anio, trimestre, presidente, corrupcion)
## # A tibble: 98 x 5
##   pais    anio trimestre presidente          corrupcion
##   <chr>  <dbl>     <dbl> <chr>                    <dbl>
## 1 Brasil  2014         1 Dilma Vana Rousseff    3.14e12
## 2 Brasil  2014         2 Dilma Vana Rousseff    3.14e12
## 3 Brasil  2014         3 Dilma Vana Rousseff    3.14e12
## # ... with 95 more rows

aprobacion %>% 
  filter(presidente_genero == "Femenino") %>% 
  arrange(-aprobacion_neta) %>% 
  select(pais, anio, trimestre, presidente, aprobacion_neta)
## # A tibble: 98 x 5
##   pais    anio trimestre presidente          aprobacion_neta
##   <chr>  <dbl>     <dbl> <chr>                         <dbl>
## 1 Brasil  2013         1 Dilma Vana Rousseff            62.5
## 2 Brasil  2012         4 Dilma Vana Rousseff            60.9
## 3 Brasil  2012         2 Dilma Vana Rousseff            60.5
## # ... with 95 more rows
```

#### Ejercicio 2H {-}

> `if_else()` puede ser pensado como una versión reducida de `case_when()`: todo lo que hacemos con la primera función podría ser convertido en la sintaxis de la segunda. Traduzca uno de los ejemplos anteriores con `if_else()` a la sintaxis `case_when()`}


```r
aprobacion %>%
  mutate(d_pres_mujer = case_when(presidente_genero == "Femenino" ~ 1,
                                  presidente_genero != "Femenino" ~ 0))%>%
  select(pais:presidente, presidente_genero, d_pres_mujer)
## # A tibble: 1,020 x 6
##   pais      anio trimestre presidente       presidente_gene~ d_pres_mujer
##   <chr>    <dbl>     <dbl> <chr>            <chr>                   <dbl>
## 1 Argenti~  2000         1 Fernando de la ~ Masculino                   0
## 2 Argenti~  2000         2 Fernando de la ~ Masculino                   0
## 3 Argenti~  2000         3 Fernando de la ~ Masculino                   0
## # ... with 1,017 more rows

aprobacion %>%
  mutate(d_crisis_ec = case_when(crecimiento_pib < 0 | desempleo > 20 ~ 1,
                                 TRUE ~ 0)) %>%
  select(pais:trimestre, crecimiento_pib, desempleo, d_crisis_ec) %>%
  filter(pais == "Argentina" & anio %in% c(2001, 2013))
## # A tibble: 8 x 6
##   pais       anio trimestre crecimiento_pib desempleo d_crisis_ec
##   <chr>     <dbl>     <dbl>           <dbl>     <dbl>       <dbl>
## 1 Argentina  2001         1            -4.4      18.3           1
## 2 Argentina  2001         2            -4.4      18.3           1
## 3 Argentina  2001         3            -4.4      18.3           1
## # ... with 5 more rows
```
…
                                        "Guatemala",
                                        "Honduras",
                                        "Nicaragua", 
                                        "Panamá") ~ "América Central",
                            pais %in% c("Argentina", "Bolivia",
                                        "Brasil",
                                        "Chile",
                                        "Colombia",
                                        "Ecuador", 
                                        "Paraguay",
                                        "Perú",
                                        "Uruguay",
                                        "Venezuela") ~ "América del Sur")) %>% 
  select(pais:presidente,region)
## # A tibble: 1,020 x 5
##   pais       anio trimestre presidente         region         
##   <chr>     <dbl>     <dbl> <chr>              <chr>          
## 1 Argentina  2000         1 Fernando de la Rúa América del Sur
## 2 Argentina  2000         2 Fernando de la Rúa América del Sur
## 3 Argentina  2000         3 Fernando de la Rúa América del Sur
## # ... with 1,017 more rows
```
###### Alternativa 2


```r
aprobacion %>% 
  mutate(region = case_when(pais == "México" ~ "América del Norte",
                            pais %in% c("Costa Rica", 
                                        "El Salvador", 
                                        "Guatemala",
                                        "Honduras",
                                        "Nicaragua", 
                                        "Panamá") ~ "América Central",
                            TRUE ~ "América del Sur")) %>% 
  select(pais:presidente,region)
## # A tibble: 1,020 x 5
##   pais       anio trimestre presidente         region         
##   <chr>     <dbl>     <dbl> <chr>              <chr>          
## 1 Argentina  2000         1 Fernando de la Rúa América del Sur
## 2 Argentina  2000         2 Fernando de la Rúa América del Sur
## 3 Argentina  2000         3 Fernando de la Rúa América del Sur
## # ... with 1,017 more rows
```


#### Ejercicio 2J {-}

> Genera una base en formato tidy con el crecimiento medio del PIB por país-año. Convierte estos datos a un formato ancho/wide, moviendo los años a las columnas


```r
aprobacion_pib <- aprobacion %>% 
  group_by(pais, anio) %>% 
  summarize(crecimiento_pib_promedio = mean(crecimiento_pib)) 

aprobacion_pib
## # A tibble: 255 x 3
## # Groups:   pais [17]
##   pais       anio crecimiento_pib_promedio
##   <chr>     <dbl>                    <dbl>
## 1 Argentina  2000                     -0.8
## 2 Argentina  2001                     -4.4
## 3 Argentina  2002                    -10.9
## # ... with 252 more rows

aprobacion_pib_wide <- aprobacion_pib %>%
  pivot_wider(names_from = "anio", values_from = "crecimiento_pib_promedio")

aprobacion_pib_wide
## # A tibble: 17 x 16
## # Groups:   pais [17]
##   pais  `2000` `2001` `2002` `2003` `2004` `2005` `2006` `2007` `2008`
##   <chr>  <dbl>  <dbl>  <dbl>  <dbl>  <dbl>  <dbl>  <dbl>  <dbl>  <dbl>
## 1 Arge~  -0.8   -4.4  -10.9    8.8    9      8.9    8      9      4.1 
## 2 Boli~   2.51   1.68   2.49   2.71   4.17   4.42   4.80   4.56   6.15
## 3 Bras~   4.4    1.4    3.1    1.1    5.8    3.2    4      6.1    5.1 
## # ... with 14 more rows, and 6 more variables
```
…
<img src="17-respuestas-ejercicios_files/figure-html/unnamed-chunk-27-1.png" width="672" style="display: block; margin: auto;" />

#### Ejercicio 3D {-}

> Normalmente, los gráficos de barras se presentan con la frecuencia o proporción dentro de la barra. También podemos hacer esto con el `ggplot2`. Usando `geom_bar()` y `geom_text()`, apunta el número de alcaldes por área geográfica. Un consejo: tienes que hacer algunos cálculos con tidyverse antes de añadir esa información en la gráfica.


```r
datos_municipales %>% 
  group_by(anio) %>% 
  count(zona)
## # A tibble: 15 x 3
## # Groups:   anio [3]
##   anio  zona            n
##   <chr> <chr>       <int>
## 1 2004  Austral        59
## 2 2004  Central       203
## 3 2004  Norte Chico    23
## # ... with 12 more rows
…
```r
bienestar_sinna <- bienestar %>% 
  drop_na(gini, gasto_educ, inversion_extranjera, gasto_salud, gasto_segsocial, 
          poblacion, dualismo_sectorial, diversidad_etnica, pib, tipo_regimen, 
          bal_legislativo, represion)

modelo_2 <- lm(gini ~ 1 + gasto_educ + inversion_extranjera + gasto_salud + gasto_segsocial +
                 poblacion + dualismo_sectorial + diversidad_etnica + pib +  tipo_regimen +
                 bal_legislativo + represion,
               data = bienestar_sinna)

modelo_aug <- augment(modelo_2, data = bienestar_sinna)
modelo_aug
## # A tibble: 167 x 21
##   pais  codigo_pais  anio poblacion  gini dualismo_sector~   pib
##   <chr> <chr>       <dbl>     <dbl> <dbl>            <dbl> <dbl>
## 1 Arge~ ARG          1982      30.8  40.2             9.50 7711.
## 2 Arge~ ARG          1983      30.9  40.4             8.36 7907.
## 3 Arge~ ARG          1990      30.7  43.1             7.72 6823.
## # ... with 164 more rows, and 14 more variables
```
…
Ahora vamos a cerciorarnos que se cumpla la condición de que las observaciones mueran una vez que haya sucedido el evento de interés, en este caso, que haya un quiebre democrático y luego no hayan más datos de un país:


```r
quiebre_democracia_b %>% 
  filter(quiebre_democracia == 1) %>% 
  dplyr::select(pais_nombre, anio, quiebre_democracia)
## # A tibble: 22 x 3
##   pais_nombre  anio quiebre_democracia
##   <chr>       <dbl>              <dbl>
## 1 Argentina    1951                  1
## 2 Argentina    1962                  1
## 3 Argentina    1966                  1
## # ... with 19 more rows
```
…
#### Ejercicio 9C {-}

> Utilizando los mismos datos del ejercicio anterior: ¿Cómo se compara la curva de Kaplan-Meier entre los países que recibieron un alto apoyo político de los Estados Unidos y los que recibieron un bajo apoyo político? Para ello, utilice la variable `us_t`, que es un índice de 0 a 1, donde 1 denota un apoyo constante de los Estados Unidos en un país, y 0 denota que no se ofreció ningún apoyo de los Estados Unidos. Para comparar los dos grupos de la curva de Kaplan-Meier, cree un dummy que asuma 1 si el apoyo es mayor que un 0.75 y 0 en caso contrario.

Primero vamos a crear una nueva base de datos con la variable dummy de apoyo de EEUU y vamos a filtrar las observaciones para quedarnos sólo con datos a partir de 1950 (tal como en el ejercicio anterior):


```r
quiebre_democracia_9c <- quiebre_democracia %>% 
  mutate(apoyo_us = if_else(us_t > 0.75, true = 1, false = 0)) %>% 
  filter(anio >= 1950)

head(quiebre_democracia_9c %>% 
  dplyr::select(pais_nombre, us_t, apoyo_us))
## # A tibble: 6 x 3
##   pais_nombre  us_t apoyo_us
##   <chr>       <dbl>    <dbl>
## 1 Argentina   0.375        0
## 2 Argentina   0.375        0
## 3 Argentina   0.375        0
## # ... with 3 more rows
```
…
**Variable type: numeric**

|skim_variable | n_missing| complete_rate| mean|   sd|   p0|  p25|  p50|  p75| p100|hist                                     |
|:-------------|---------:|-------------:|----:|----:|----:|----:|----:|----:|----:|:----------------------------------------|
|anio_adopcion |         0|          1.00| 1997| 0.83| 1996| 1997| 1998| 1998| 1998|▃▁▃▁▇ |
|accion_anio   |        82|          0.67| 2000| 3.32| 1996| 1998| 1999| 2001| 2012|▇▅▁▁▁ |

```r

head(tratados, n = 10)
## # A tibble: 10 x 5
##   nombre_tratado       anio_adopcion pais_nombre  accion_tipo accion_anio
##   <chr>                        <dbl> <chr>        <chr>             <dbl>
## 1 Tratado de Prohibic~          1996 Antigua y B~ Ratificaci~        2006
## 2 Tratado de Prohibic~          1996 Antigua y B~ Firma              1997
## 3 Tratado de Prohibic~          1996 Argentina    Ratificaci~        1998
## # ... with 7 more rows
```
…
En esta base tenemos 46 variables, pero tú podrías tener más o menos dependiendo de qué variables hayas elegido en la página Web. 

Notamos que las primeras 7 variables son datos de identificación. Por ejemplo, tenemos el país ( y distintos códigos para este), y el año. A continuación vamos a seleccionar algunas variables para unirla a la base de `tratados`:


```r
df_wep_reducido <- df_wep %>% 
  dplyr::select(1:9, rulelaw_FH, transparencyindex_HR, polity_P4, polity2_P4,corrupprev_SGI)

head(df_wep_reducido)
## # A tibble: 6 x 14
##   country  year  gwno ccode ifscode ifs   gwabbrev fdiflows_UNCTAD
##   <chr>   <dbl> <dbl> <dbl>   <dbl> <chr> <chr>              <dbl>
## 1 United~  1990     2     2     111 USA   USA                48422
## 2 United~  1991     2     2     111 USA   USA                22799
## 3 United~  1992     2     2     111 USA   USA                19222
## # ... with 3 more rows, and 6 more variables
```
…
```r
data("pib_pc_america")

## Primero creamos tratados_con_pib

tratados_con_pib <- left_join(x = tratados, 
                              y = pib_pc_america, 
                              by = c("pais_nombre", "anio_adopcion" = "anio"))
  

tratados_con_pib %>% 
  dplyr::select(pais_nombre, anio_adopcion, pib_pc)
## # A tibble: 248 x 3
##   pais_nombre       anio_adopcion pib_pc
##   <chr>                     <dbl>  <dbl>
## 1 Antigua y Barbuda          1996    NA 
## 2 Antigua y Barbuda          1996    NA 
## 3 Argentina                  1996 14557.
## # ... with 245 more rows
…
> 2. Filtra la base de datos por la variable ‘CNTRY_NAME’ para eliminar las observaciones de “South Georgia & the South Sandwich Is.” y “Falkland Is.”.


```r
shp_sudamerica <- shp_sudamerica %>% 
  filter(CNTRY_NAME != "South Georgia & the South Sandwich Is." & CNTRY_NAME != "Falkland Is.")

shp_sudamerica
## Simple feature collection with 13 features and 2 fields
## geometry type:  MULTIPOLYGON
## dimension:      XY
## bbox:           xmin: -1e+07 ymin: -7500000 xmax: -3900000 ymax: 1400000
## projected CRS:  Sphere_Mercator
## # A tibble: 13 x 3
##   CNTRY_NAME   ISO_3DIGIT                                        geometry
## * <chr>        <chr>                                   <MULTIPOLYGON [m]>
## 1 French Guia~ GUF        (((-5747006 448950, -5820491 351265, -5848237 ~
## 2 Guyana       GUY        (((-6279248 216260, -6375021 219344, -6396829 ~
## 3 Suriname     SUR        (((-6279248 216260, -6302761 225413, -6360443 ~
## # ... with 10 more rows
```
…
> 4. Usando `left_join()`, añade el shapefile original a la base de datos cargada del ejercicio anterior. Consejo: utiliza los argumentos `by.x="ISO_3DIGIT"` y `by.y="country_text_id"`. Revisa la base de datos. Notarás que falta un país. ¿Cuál es?


```r
shp_sudamerica_data <- shp_sudamerica %>% 
  left_join(v_dem_reducida,
            by = c("ISO_3DIGIT" = "country_text_id"))

head(shp_sudamerica_data)
## Simple feature collection with 6 features and 6 fields
## geometry type:  MULTIPOLYGON
## dimension:      XY
## bbox:           xmin: -6800000 ymin: 130000 xmax: -5700000 ymax: 950000
## projected CRS:  Sphere_Mercator
## # A tibble: 6 x 7
##   CNTRY_NAME ISO_3DIGIT                  geometry country_name  year
##   <chr>      <chr>             <MULTIPOLYGON [m]> <chr>        <dbl>
## 1 French Gu~ GUF        (((-5747006 448950, -582~ <NA>            NA
## 2 Guyana     GUY        (((-6279248 216260, -637~ Guyana        1996
## 3 Guyana     GUY        (((-6279248 216260, -637~ Guyana        1997
## # ... with 3 more rows, and 2 more variables
…
> 4. Crear un mapa con el PIB per cápita (`e_migdppc`) de cada país en el año 2016. ¿Cuáles son los países que no tienen datos para el 2016?


```r
## Primero revisamos nuestros datos:

shp_sudamerica_data %>% 
  filter(year == 2016) %>% 
  dplyr::select(CNTRY_NAME, e_migdppc)
## Simple feature collection with 12 features and 2 fields
## geometry type:  MULTIPOLYGON
## dimension:      XY
## bbox:           xmin: -1e+07 ymin: -7500000 xmax: -3900000 ymax: 1400000
## projected CRS:  Sphere_Mercator
## # A tibble: 12 x 3
##   CNTRY_NAME e_migdppc                                           geometry
##   <chr>          <dbl>                                 <MULTIPOLYGON [m]>
## 1 Guyana            NA (((-6279248 216260, -6375021 219344, -6396829 190~
## 2 Suriname          NA (((-6279248 216260, -6302761 225413, -6360443 314~
## 3 Venezuela      13159 (((-7e+06 1134769, -7e+06 1129739, -7e+06 1129492~
## # ... with 9 more rows
```
…
