Capítulo 5 Carga de bases | AnalizaR Datos Políticos
…
Analicemos brevemente el resultado que reporta la consola. En primer lugar, se muestra nuevamente que la variable en cuestión es un vector numérico con etiqueta (“”). Luego, tras dos puntos, se registra la etiqueta de variable: “P2 - ¿podria decirme cual es su estado conyugal o civil actual?”. A continuación se encuentran los seis primeros valores de la variable, como se requirió a través de head(). Por último se hallan las etiquetas de valores, que entregan información sobre qué significa cada número en el contexto de la variable.

De esta forma, obtuvimos toda la información que registran las etiquetas para esta base. Con los comandos que viste anteriormente puedes tener claridad de qué significa cada valor en tu base de datos etiquetados. Para terminar, nota que R, con la ayuda de haven, también mostrará las etiquetas en otros casos, cuando sea conveniente. Por ejemplo, a continuación veamos un resumen simple de las dos primeras variables de la base de datos. ¡Nota lo fácil que es de leer!

df_desiguales_stata %>% select(region, p2)
## # A tibble: 300 x 2
##                          region                                          p2
##                       <dbl+lbl>                                   <dbl+lbl>
##  1 13 [Metropolitana de Santia… 1 [Casado(a) por primera vez]              
##  2 13 [Metropolitana de Santia… 1 [Casado(a) por primera vez]              
##  3  7 [Del Maule]               4 [Divorciado]                             
##  4  7 [Del Maule]               7 [Viudo(a)]                               
##  5 13 [Metropolitana de Santia… 8 [Conviviente o pareja]                   
##  6  7 [Del Maule]               1 [Casado(a) por primera vez]              
##  7  7 [Del Maule]               5 [Soltero(a), nunca se ha casado]         
##  8 13 [Metropolitana de Santia… 5 [Soltero(a), nunca se ha casado]         
##  9  7 [Del Maule]               3 [Casado(a) legalmente, pero separado de …
## 10  7 [Del Maule]               3 [Casado(a) legalmente, pero separado de …
## # … with 290 more rows
…
df_desiguales_grande_100 <- read_csv("datos/desiguales.csv", n_max = 100)

Seguramente tu sistema podrá manejar con facilidad esta nueva base de datos reducida. Ahora bien, ¿qué pasa si, tras revisar los datos, te das cuenta de que solo necesitas un par de variables para tu análisis? Recortar la base de datos te permitirá hacer un uso más eficiente de tus recursos computacionales. Nota que ahora el argumento n_max = no servirá, pues esta recorta filas en vez de columnas. Por ejemplo, supongamos que de la base de Desiguales (“grande” en nuestro ejemplo) solo necesitas las variables edad y p2. Con la ayuda de una función de asistencia de nuestro paquete paqueteadp (cols_only_chr()), puedes hacer que read_rds() cargue la base solo con dichas variables, obviando todas las demás y el costo computacional que ellas significan:

library(paqueteadp)

df_desiguales_grande_2vars <- read_csv("datos/desiguales.csv",
                                       col_types = cols_only_chr(c("edad", "p2")))

Ahora la nueva base df_desiguales_grande_2vars tendrá todas las observaciones, pero solo se habrán cargado las dos variables requeridas, como puedes chequear con un resumen simple:

df_desiguales_grande_2vars
## # A tibble: 300 x 2
##     edad    p2
##    <dbl> <dbl>
##  1    63     1
##  2    52     1
##  3    73     4
##  4    78     7
##  5    22     8
##  6    51     1
##  7    18     5
##  8    21     5
##  9    57     3
## 10    41     3
## # … with 290 more rows
…
