Capítulo 6 Selección de casos basada en regresiones | AnalizaR Datos Políticos (v1.0)
…
bienestar_sinna <- bienestar %>% 
  drop_na(gini, gasto_educ, inversion_extranjera, gasto_salud, gasto_segsocial, 
          poblacion, dualismo_sectorial, diversidad_etnica, pib, tipo_regimen, 
          bal_legislativo, represion)

model_2 <- lm(gini ~ 1 + gasto_educ + inversion_extranjera + gasto_salud + gasto_segsocial + poblacion 
              + dualismo_sectorial + diversidad_etnica + pib +  tipo_regimen + bal_legislativo +
                 represion,
               data = bienestar_sinna)

model_aug <- broom::augment(model_2, data = bienestar_sinna)
model_aug
## # A tibble: 167 x 22
##   pais  codigo_pais  anio poblacion  gini dualismo_sector…   pib
##   <chr> <chr>       <dbl>     <dbl> <dbl>            <dbl> <dbl>
## 1 Arge… ARG          1982      30.8  40.2             9.50 7711.
## 2 Arge… ARG          1983      30.9  40.4             8.36 7907.
## 3 Arge… ARG          1990      30.7  43.1             7.72 6823.
## # … with 164 more rows, and 15 more variables
…
