Capítulo 11 Selección de casos a partir de regresiones | AnalizaR Datos Políticos
…
bienestar_la_sinna <- bienestar_la %>% 
  drop_na(gini_slc, cseduc, fdiingdp, cshlth, csssw, pop014wdi, s_dualism, 
          ethnicdicot, rgdpch, demrss, legbal, repressauthor)

modelo_2 <- lm(gini_slc ~ 1 + cseduc + fdiingdp + cshlth + csssw + pop014wdi +
                 s_dualism + ethnicdicot + rgdpch +  demrss + legbal +
                 repressauthor,
               data = bienestar_la_sinna)

modelo_aug <- broom::augment(modelo_2, data = bienestar_la_sinna)
modelo_aug
## # A tibble: 167 x 21
##    country id     year pop014wdi gini_slc s_dualism rgdpch fdiingdp
##    <chr>   <chr> <dbl>     <dbl>    <dbl>     <dbl>  <dbl>    <dbl>
##  1 Argent… ARG    1982      30.8     40.2      9.50  7711.    0.269
##  2 Argent… ARG    1983      30.9     40.4      8.36  7907.    0.178
##  3 Argent… ARG    1990      30.7     43.1      7.72  6823.    1.30 
##  4 Argent… ARG    1991      30.4     44        6.42  7392.    1.29 
##  5 Argent… ARG    1992      30.1     43        5.59  7986.    1.94 
##  6 Argent… ARG    1993      29.8     42        4.99  8411.    1.18 
##  7 Argent… ARG    1994      29.4     43        5.01  8764.    1.41 
##  8 Argent… ARG    1995      29.1     46        5.19  8578.    2.17 
##  9 Argent… ARG    1996      28.9     46        5.28  8905.    2.55 
## 10 Argent… ARG    1997      28.6     46        4.87  9425.    3.13 
## # … with 157 more rows, and 13 more variables: ethnicdicot <dbl>,
## #   demrss <dbl>, cseduc <dbl>, cshlth <dbl>, csssw <dbl>, legbal <dbl>,
## #   repressauthor <dbl>, .fitted <dbl>, .resid <dbl>, .std.resid <dbl>,
## #   .hat <dbl>, .sigma <dbl>, .cooksd <dbl>
…
