Capítulo 10 Inferencia causal | AnalizaR Datos Políticos
…
cor(red_mosquitos$salud, red_mosquitos$hogar)
## [1] 9.8e-05

\(\text{Income} \perp \text{Insecticide resistencia}\): Income should be independent of insecticide resistencia. This is again true:

cor(red_mosquitos$ingreso, red_mosquitos$resistencia)
## [1] 0.014

\(\text{Riesgo de malaria} \perp \text{Miembros en el hogar}\ |\ \text{Salud, Ingreso, Uso de la red, Temperatura}\): El riesgo de malaria debe ser independiente del número de miembros de la familia, dado que los niveles de salud, ingresos, uso de mosquiteros y temperaturas nocturnas son similares. No podemos utilizar cor() para probar esta implicación, ya que hay muchas variables en juego, pero podemos utilizar un modelo de regresión para comprobar si el número de miembros del hogar está significativamente relacionado con el riesgo de malaria. No es significativo (\(t = -0.17\), \(p = 0.863\)), lo que significa que los dos son independientes, como se esperaba.

lm(riesgo_malaria ~ hogar + salud + ingreso + red  + temperatura, 
   data = red_mosquitos) %>% 
  broom::tidy()
## # A tibble: 6 x 5
##   term        estimate std.error statistic  p.value
##   <chr>          <dbl>     <dbl>     <dbl>    <dbl>
## 1 (Intercept)  76.2       0.966     78.9   0.      
## 2 hogar        -0.0155    0.0893    -0.173 8.63e- 1
## 3 salud         0.148     0.0107    13.9   9.75e-42
## # … with 3 more rows
…
