Capítulo 3 Visualización de datos | AnalizaR Datos Políticos
…
Figura 3.18:  Versión completa de nuestro gráfico de líneas para los ingresos de los municipios en los años electorales.

¿Qué hemos especificado?

Primero, creamos un conjunto de datos (“promedio”) que contiene los ingresos medios de cada zona. Lo hicimos usando group_by() y summarize() del tidyverse.

datos_municipales %>% 
  group_by(zona) %>% 
  summarize(media_ingreso = mean(ingreso, na.rm = T))
## # A tibble: 5 x 2
##   zona        media_ingreso
##   <chr>               <dbl>
## 1 Austral          2609648.
## 2 Central          7302625.
## 3 Norte Chico      4816249.
## # ... with 2 more rows
…
