Capítulo 15 Análisis de componentes principales | AnalizaR Datos Políticos (v1.0)
…
Figura 7.1:  Histogramas de confianza en las elecciones por país. En azul, los promedios nacionales

Seleccionemos nuestras variables de interés, esto significa que dejamos fuera cualquier variable que no sea representativa de la democracia, por ejemplo la variable ‘pais’ que indica el país de cada individuo no debe ser incorporada. Para ello, generamos una nueva base de datos que contiene sólo las variables que queremos utilizar, en este caso, para saber cuál es la opinión que los latinoamericanos tienen de sus instituciones democráticas.

lapop_num <- lapop %>% 
  select(justifica_golpe, justifica_cierre_cong, conf_cortes, conf_instit, conf_congreso, conf_presidente, conf_partidos, conf_medios, 
         conf_elecciones, satisfecho_dem, voto_opositor, manifestaciones) %>% 
  mutate_all(as.numeric)

lapop
## # A tibble: 7,655 x 15
##      id pais_nombre justifica_golpe justifica_cierr… conf_cortes
##   <dbl> <chr>                 <dbl>            <dbl>       <dbl>
## 1     1 Argentina                 0                1           6
## 2     2 Argentina                 1                0           4
## 3     3 Argentina                 0                0           4
## # … with 7,652 more rows, and 10 more variables
…
