Capítulo 4 Carga de bases | AnalizaR Datos Políticos (v1.0)
…
Analicemos brevemente el resultado mostrado en la consola. En primer lugar, podemos ver que la variable en cuestión es un vector numérico con una etiqueta (“”). Luego, después de los dos puntos, registra la etiqueta de variable: “P2 - ¿cuál es su estado civil o marital actual?”. Después, se muestran los seis primeros valores de la variable, tal y como pedimos a través del comando head(). Por último, se encuentran las etiquetas de valor *, que nos dan información sobre el significado de cada número en el contexto de una variable específica.

De esta manera, obtenemos toda la información registrada por las etiquetas en esta base de datos. Con los comandos aprendidos se puede estar seguro del significado de cada valor en la base de datos etiquetada. Por último, note que R, con la ayuda de haven, también mostrará las etiquetas en otros casos cuando sea conveniente. Por ejemplo, veamos un simple resumen de las dos primeras variables de la base de datos. ¡Mira qué fácil es leerlo!

df_desiguales_stata %>% select(region, p2)
## # A tibble: 300 x 2
##                           region                            p2
##                        <dbl+lbl>                     <dbl+lbl>
## 1 13 [Metropolitana de Santiago] 1 [Casado(a) por primera vez]
## 2 13 [Metropolitana de Santiago] 1 [Casado(a) por primera vez]
## 3  7 [Del Maule]                 4 [Divorciado]               
## # … with 297 more rows
…
