Capítulo 7 Modelos logísticos | AnalizaR Datos Políticos
…
El coeficiente para la variable shugart está negativamente asociado a la probabilidad de ocurrencia de un quiebre de régimen (-0.191), y es estadísticamente significativo (p=0.00312). Ahora bien, a diferencia de los modelos por Mínimo Cuadrados del capítulo anterior, donde podíamos interpretar directamente el efecto de la variable independiente sobre la dependiente a partir de los coeficientes de la regresión, en el caso de regresiones logísticas esto no es tan sencillo. Debemos transformar los coeficientes en probabilidades u oportunidades. Si partimos de que la función de enlace de logit es el logaritmo de las razones de oportunidades, tenemos que:
\[ln(\frac {p}{1 - p}) = \beta_{0} + \beta_{1}x_{1}\]

Despejando \(ln\), tenemos que:
\[(\frac {p}{1 - p}) = e^{\beta_{0}+\beta_{1}x_{1}}\]

Y despejando los términos nuevamente tenemos que:
\[\hat{p} = \frac {e^{\beta_{0}+\beta_{1}x_{1}}}{1 + e^{\beta_{0}+\beta_{1}x_{1}}}\]

Lo que queremos, entonces, es transformar los coeficientes tal y como los reporta R en una probabilidad asociada a que la variable dependiente asuma el valor ‘1’. Sabemos que la variable independiente shugart es un índice que a mayor valor, mayor concentración de poder del ejecutivo vis a vis el legislativo, por lo tanto el coeficiente de la regresión nos indica que a menor concentración de poder del ejecutivo, mayor la probabilidad de un quiebre de régimen. Esto resultará intuitivo a todo aquel que esté familiarizado con la literatura. La muestra del libro cubre 20 países latinoamericanos entre 1900 y 2010, y el índice oscila entre un mínimo de 5 (para Haití, en varios años) y un máximo de 25 (Brasil en 1945) (ver Figura 7.4. Cuando anteponemos un (-) a la variable dentro de la función arrange, la ordenamos de mayor a menor.

quiebres_dem_la %>% select(country, year, shugart)%>% arrange(shugart)
## # A tibble: 2,216 x 3
##    country  year shugart
##    <chr>   <dbl>   <dbl>
##  1 Haiti    1987       5
##  2 Haiti    1988       5
##  3 Haiti    1989       5
##  4 Haiti    1990       5
##  5 Haiti    1991       5
##  6 Haiti    1992       5
##  7 Haiti    1993       5
##  8 Haiti    1994       5
##  9 Haiti    1995       5
## 10 Haiti    1996       5
## # … with 2,206 more rows
quiebres_dem_la %>% select(country,year, shugart)%>% arrange(-shugart)
## # A tibble: 2,216 x 3
##    country  year shugart
##    <chr>   <dbl>   <dbl>
##  1 Brazil   1945      25
##  2 Chile    1981      24
##  3 Chile    1982      24
##  4 Chile    1983      24
##  5 Chile    1984      24
##  6 Chile    1985      24
##  7 Chile    1986      24
##  8 Chile    1987      24
##  9 Chile    1988      24
## 10 Haiti    1950      24
## # … with 2,206 more rows
…
Figura 7.7: Tabla de clasificación a partir de la cual se calcula el porcentaje de predicciones correctas

Toda observación será clasificada como “correcta” si corresponde a la casilla superior izquierda (verdadero positivo) o a la inferior derecha (verdadero negativo). El porcentaje de observaciones que pertenecen a estas dos casillas determina el porcentaje de predicciones correctas en el modelo. Como criterio estándar, si la probabilidad estimada para una observación es mayor o igual a 50% se estima que es una probabilidad positiva, y si es menor a 50% será una probabilidad negativa.

Para poder calcular las predicciones correctas necesitamos hacer varios pasos, pero si usas los comandos que te damos a continuación, vas a poder hacerlo con tu propia base de datos cuando trabajes solo. Primero que nada necesitamos usar el paquete broom, que transforma los modelos que tenemos guardados (modelos 1, 2 y 3) en bases de datos en formato tidy como vimos en el Capítulo 6. Voy a calcular los valores predichos del modelo 3 como ejemplo que puede repetirse para los otros modelos. Lo primero que necesitamos son los valores predichos, es decir, la probabilidad asignada a cada obervación de que Y=1. En el tidy que obtenemos usando broom esta variable se llama .fitted.

library(broom)

pred_modelo_3 <- augment(modelo_3, type.predict = "response")
pred_modelo_3
## # A tibble: 422 x 11
##    .rownames breakdown shugart   age    fh   .fitted   .resid .std.resid
##    <chr>         <dbl>   <dbl> <dbl> <dbl>     <dbl>    <dbl>      <dbl>
##  1 75                0      19     1     8  8.47e- 9 -1.30e-4   -1.30e-4
##  2 76                0      19     2     8 10.00e- 9 -1.41e-4   -1.41e-4
##  3 77                1      19     3     3  6.19e- 1  9.79e-1    1.31e+0
##  4 85                0      19     1    10  4.70e-12 -3.07e-6   -3.07e-6
##  5 86                0      19     2    10  5.55e-12 -3.33e-6   -3.33e-6
##  6 87                0      19     3    11  1.55e-13 -5.56e-7   -5.56e-7
##  7 88                0      19     4    11  1.83e-13 -6.04e-7   -6.04e-7
##  8 89                0      19     5    11  2.16e-13 -6.57e-7   -6.57e-7
##  9 90                0      19     6    11  2.55e-13 -7.14e-7   -7.14e-7
## 10 91                0      19     7    10  1.28e-11 -5.05e-6   -5.05e-6
## # … with 412 more rows, and 3 more variables: .hat <dbl>, .sigma <dbl>,
## #   .cooksd <dbl>
…
