…
### Describir la base

Para aproximarnos a nuestra base recién cargada tenemos varias opciones. Podemos, como antes, simplemente usar su nombre como un comando para un resumen rápido:


```r
aprob_presidencial
## # A tibble: 1,020 x 11
##    pais   anio trimestre presidente pres_sexo aprob_neta corr_ejec     pib
##    <chr> <dbl>     <dbl> <chr>      <chr>          <dbl>     <dbl>   <dbl>
##  1 Arge…  2000         1 Fernando … Masculino      40.1       14.0 5.52e11
##  2 Arge…  2000         2 Fernando … Masculino      16.4       14.0 5.52e11
##  3 Arge…  2000         3 Fernando … Masculino      24.0       14.0 5.52e11
##  4 Arge…  2000         4 Fernando … Masculino     -18.3       14.0 5.52e11
##  5 Arge…  2001         1 Fernando … Masculino      -6.97      14.0 5.28e11
##  6 Arge…  2001         2 Fernando … Masculino     -20.1       14.0 5.28e11
##  7 Arge…  2001         3 Fernando … Masculino     -19.4       14.0 5.28e11
##  8 Arge…  2001         4 Fernando … Masculino     -23.2       14.0 5.28e11
##  9 Arge…  2002         1 Eduardo A… Masculino      -2.01      25.0 4.70e11
## 10 Arge…  2002         2 Eduardo A… Masculino     -20.1       25.0 4.70e11
## # … with 1,010 more rows, and 3 more variables: poblacion <dbl>,
## #   desempleo <dbl>, crec_pib <dbl>
```
…
## Operaciones básicas

A continuación veremos algunas operaciones básicas para nuestra base de datos, que en su conjunto nos permitirán editar dramáticamente su estructura y contenidos [(Wickham & Grolemund, 2017)](https://r4ds.had.co.nz/transform.html). Esta subsección utiliza las herramientas del paquete `dplyr` (Wickham et al., 2019), que esta disponible al cargar el `tidyvese`, lo que ya hicimos.

### Seleccionar columnas

A veces queremos trabajar con solo un extracto de las variables de una base. Para esto existe la función `select()`. Seleccionemos solo la columna de países:


```r
select(aprob_presidencial, pais)
## # A tibble: 1,020 x 1
##    pais     
##    <chr>    
##  1 Argentina
##  2 Argentina
##  3 Argentina
##  4 Argentina
##  5 Argentina
##  6 Argentina
##  7 Argentina
##  8 Argentina
##  9 Argentina
## 10 Argentina
## # … with 1,010 more rows
```

El primer argumento de la función anterior ("aprob_presidencial") es la base en la que queremos realizar la operación. El siguiente argumento, en tanto, indica qué columnas seleccionar ("pais"). Todas las funciones de operaciones básicas que veremos en esta subsección siguen esta lógica: el primer argumento es siempre la base en la que operaremos, mientras que los demás designan cómo queremos realizar la operación.

Recuerda que el código anterior no creó ningún objeto nuevo, es solo un comando que estamos ejecutando en la consola. Si quisiéramos crear un objeto nuevo, tendríamos que asignarlo:


```r
aprob_presidencial_reducida <- select(aprob_presidencial, pais)
aprob_presidencial_reducida
## # A tibble: 1,020 x 1
##    pais     
##    <chr>    
##  1 Argentina
##  2 Argentina
##  3 Argentina
##  4 Argentina
##  5 Argentina
##  6 Argentina
##  7 Argentina
##  8 Argentina
##  9 Argentina
## 10 Argentina
## # … with 1,010 more rows
```

Podemos seleccionar múltiples columnas a la vez, separadas por comas:


```r
select(aprob_presidencial, pais, anio, desempleo)
## # A tibble: 1,020 x 3
##    pais       anio desempleo
##    <chr>     <dbl>     <dbl>
##  1 Argentina  2000      15  
##  2 Argentina  2000      15  
##  3 Argentina  2000      15  
##  4 Argentina  2000      15  
##  5 Argentina  2001      18.3
##  6 Argentina  2001      18.3
##  7 Argentina  2001      18.3
##  8 Argentina  2001      18.3
##  9 Argentina  2002      17.9
## 10 Argentina  2002      17.9
## # … with 1,010 more rows
```

Supongamos que queremos las primeras cinco variables de la base de datos. Las siguientes tres formas obtienen el mismo resultado, aunque la segunda es la que recomendamos, pues es sucinta pero explícita:


```r
select(aprob_presidencial, pais, anio, trimestre, presidente, aprob_neta)
select(aprob_presidencial, pais:aprob_neta) # forma recomendada
select(aprob_presidencial, 1:5)
```


```
## # A tibble: 1,020 x 6
##    pais       anio trimestre presidente              pres_sexo aprob_neta
##    <chr>     <dbl>     <dbl> <chr>                   <chr>          <dbl>
##  1 Argentina  2000         1 Fernando de la Rúa      Masculino      40.1 
##  2 Argentina  2000         2 Fernando de la Rúa      Masculino      16.4 
##  3 Argentina  2000         3 Fernando de la Rúa      Masculino      24.0 
##  4 Argentina  2000         4 Fernando de la Rúa      Masculino     -18.3 
##  5 Argentina  2001         1 Fernando de la Rúa      Masculino      -6.97
##  6 Argentina  2001         2 Fernando de la Rúa      Masculino     -20.1 
##  7 Argentina  2001         3 Fernando de la Rúa      Masculino     -19.4 
##  8 Argentina  2001         4 Fernando de la Rúa      Masculino     -23.2 
##  9 Argentina  2002         1 Eduardo Alberto Duhalde Masculino      -2.01
## 10 Argentina  2002         2 Eduardo Alberto Duhalde Masculino     -20.1 
## # … with 1,010 more rows
```

El comando `select()` también nos sirve para reordenar las columnas. Supongamos que queremos que la variable `presidente` sea la primera. Podemos hacer algo como esto, obteniendo la misma base pero con un nuevo orden de columnas:


```r
select(aprob_presidencial, presidente, pais:anio, aprob_neta:desempleo)
## # A tibble: 1,020 x 8
##    presidente     pais    anio aprob_neta corr_ejec      pib poblacion desempleo
##    <chr>          <chr>  <dbl>      <dbl>     <dbl>    <dbl>     <dbl>     <dbl>
##  1 Fernando de l… Argen…  2000      40.1       14.0  5.52e11  37057452      15  
##  2 Fernando de l… Argen…  2000      16.4       14.0  5.52e11  37057452      15  
##  3 Fernando de l… Argen…  2000      24.0       14.0  5.52e11  37057452      15  
##  4 Fernando de l… Argen…  2000     -18.3       14.0  5.52e11  37057452      15  
##  5 Fernando de l… Argen…  2001      -6.97      14.0  5.28e11  37471509      18.3
##  6 Fernando de l… Argen…  2001     -20.1       14.0  5.28e11  37471509      18.3
##  7 Fernando de l… Argen…  2001     -19.4       14.0  5.28e11  37471509      18.3
##  8 Fernando de l… Argen…  2001     -23.2       14.0  5.28e11  37471509      18.3
##  9 Eduardo Alber… Argen…  2002      -2.01      25.0  4.70e11  37889370      17.9
## 10 Eduardo Alber… Argen…  2002     -20.1       25.0  4.70e11  37889370      17.9
## # … with 1,010 more rows
```

Esta forma es tediosa, en especial para bases con múltiples variables. Hay una función de ayuda que nos será útil en este caso, llamada `everything()`. En este caso seleccionará la columna "president" y *todo lo demás*:


```r
select(aprob_presidencial, presidente, everything()) 
## # A tibble: 1,020 x 11
##    presidente pais   anio trimestre pres_sexo aprob_neta corr_ejec     pib
##    <chr>      <chr> <dbl>     <dbl> <chr>          <dbl>     <dbl>   <dbl>
##  1 Fernando … Arge…  2000         1 Masculino      40.1       14.0 5.52e11
##  2 Fernando … Arge…  2000         2 Masculino      16.4       14.0 5.52e11
##  3 Fernando … Arge…  2000         3 Masculino      24.0       14.0 5.52e11
##  4 Fernando … Arge…  2000         4 Masculino     -18.3       14.0 5.52e11
##  5 Fernando … Arge…  2001         1 Masculino      -6.97      14.0 5.28e11
##  6 Fernando … Arge…  2001         2 Masculino     -20.1       14.0 5.28e11
##  7 Fernando … Arge…  2001         3 Masculino     -19.4       14.0 5.28e11
##  8 Fernando … Arge…  2001         4 Masculino     -23.2       14.0 5.28e11
##  9 Eduardo A… Arge…  2002         1 Masculino      -2.01      25.0 4.70e11
## 10 Eduardo A… Arge…  2002         2 Masculino     -20.1       25.0 4.70e11
## # … with 1,010 more rows, and 3 more variables: poblacion <dbl>,
## #   desempleo <dbl>, crec_pib <dbl>
```
…
```r
select(aprob_presidencial, starts_with("wdi_"))
## # A tibble: 1,020 x 0
```


### Renombrar columnas

Podemos cambiar el nombre columnas en la base con el comando `rename()`. Por ejemplo, hagamos el nombre de la variable de PIB más explícito:


```r
rename(aprob_presidencial, pib_ppp_c2011 = pib)
## # A tibble: 1,020 x 11
##    pais   anio trimestre presidente pres_sexo aprob_neta corr_ejec pib_ppp_c2011
##    <chr> <dbl>     <dbl> <chr>      <chr>          <dbl>     <dbl>         <dbl>
##  1 Arge…  2000         1 Fernando … Masculino      40.1       14.0 552151219031.
##  2 Arge…  2000         2 Fernando … Masculino      16.4       14.0 552151219031.
##  3 Arge…  2000         3 Fernando … Masculino      24.0       14.0 552151219031.
##  4 Arge…  2000         4 Fernando … Masculino     -18.3       14.0 552151219031.
##  5 Arge…  2001         1 Fernando … Masculino      -6.97      14.0 527807756979.
##  6 Arge…  2001         2 Fernando … Masculino     -20.1       14.0 527807756979.
##  7 Arge…  2001         3 Fernando … Masculino     -19.4       14.0 527807756979.
##  8 Arge…  2001         4 Fernando … Masculino     -23.2       14.0 527807756979.
##  9 Arge…  2002         1 Eduardo A… Masculino      -2.01      25.0 470305820970.
## 10 Arge…  2002         2 Eduardo A… Masculino     -20.1       25.0 470305820970.
## # … with 1,010 more rows, and 3 more variables: poblacion <dbl>,
## #   desempleo <dbl>, crec_pib <dbl>
```

También podemos hacer varios cambios de nombre a la vez. Nota cómo modificamos tres nombres en un solo comando:


```r
rename(aprob_presidencial, 
       pib_ppp_c2011 = pib, 
       porc_desempleo = desempleo, 
       porc_crecimiento_pib = crec_pib)
## # A tibble: 1,020 x 11
##    pais   anio trimestre presidente pres_sexo aprob_neta corr_ejec pib_ppp_c2011
##    <chr> <dbl>     <dbl> <chr>      <chr>          <dbl>     <dbl>         <dbl>
##  1 Arge…  2000         1 Fernando … Masculino      40.1       14.0 552151219031.
##  2 Arge…  2000         2 Fernando … Masculino      16.4       14.0 552151219031.
##  3 Arge…  2000         3 Fernando … Masculino      24.0       14.0 552151219031.
##  4 Arge…  2000         4 Fernando … Masculino     -18.3       14.0 552151219031.
##  5 Arge…  2001         1 Fernando … Masculino      -6.97      14.0 527807756979.
##  6 Arge…  2001         2 Fernando … Masculino     -20.1       14.0 527807756979.
##  7 Arge…  2001         3 Fernando … Masculino     -19.4       14.0 527807756979.
##  8 Arge…  2001         4 Fernando … Masculino     -23.2       14.0 527807756979.
##  9 Arge…  2002         1 Eduardo A… Masculino      -2.01      25.0 470305820970.
## 10 Arge…  2002         2 Eduardo A… Masculino     -20.1       25.0 470305820970.
## # … with 1,010 more rows, and 3 more variables: poblacion <dbl>,
## #   porc_desempleo <dbl>, porc_crecimiento_pib <dbl>
```


### Filtrar observaciones

A menudo queremos quedarnos solo con algunas observaciones de nuestra base de datos, filtrando de acuerdo a características específicas. Podemos hacer esto gracias a la función `filter()` y operadores lógicos. Para comenzar, quedémonos solo con las observaciones de Chile:


```r
filter(aprob_presidencial, pais == "Chile")
## # A tibble: 60 x 11
##    pais   anio trimestre presidente pres_sexo aprob_neta corr_ejec     pib
##    <chr> <dbl>     <dbl> <chr>      <chr>          <dbl>     <dbl>   <dbl>
##  1 Chile  2000         1 Eduardo F… Masculino       6.22      3.63 2.18e11
##  2 Chile  2000         2 Ricardo L… Masculino      19.8       3.63 2.18e11
##  3 Chile  2000         3 Ricardo L… Masculino      19.5       3.63 2.18e11
##  4 Chile  2000         4 Ricardo L… Masculino      14.8       3.63 2.18e11
##  5 Chile  2001         1 Ricardo L… Masculino       7.99      3.63 2.26e11
##  6 Chile  2001         2 Ricardo L… Masculino       1.81      3.63 2.26e11
##  7 Chile  2001         3 Ricardo L… Masculino      -1.40      3.63 2.26e11
##  8 Chile  2001         4 Ricardo L… Masculino       6.90      3.63 2.26e11
##  9 Chile  2002         1 Ricardo L… Masculino       6.60      3.63 2.33e11
## 10 Chile  2002         2 Ricardo L… Masculino       3.65      3.63 2.33e11
## # … with 50 more rows, and 3 more variables: poblacion <dbl>, desempleo <dbl>,
## #   crec_pib <dbl>
```
…
Por ejemplo, podemos obtener todas las observaciones (país-año-trimestre) en las que la aprobación presidencial neta es positiva:


```r
filter(aprob_presidencial, aprob_neta > 0)
## # A tibble: 709 x 11
##    pais   anio trimestre presidente pres_sexo aprob_neta corr_ejec     pib
##    <chr> <dbl>     <dbl> <chr>      <chr>          <dbl>     <dbl>   <dbl>
##  1 Arge…  2000         1 Fernando … Masculino       40.1      14.0 5.52e11
##  2 Arge…  2000         2 Fernando … Masculino       16.4      14.0 5.52e11
##  3 Arge…  2000         3 Fernando … Masculino       24.0      14.0 5.52e11
##  4 Arge…  2003         2 Eduardo A… Masculino       26.5      50.1 5.12e11
##  5 Arge…  2003         3 Néstor Ca… Masculino       53.7      50.1 5.12e11
##  6 Arge…  2003         4 Néstor Ca… Masculino       53.0      50.1 5.12e11
##  7 Arge…  2004         1 Néstor Ca… Masculino       57.1      50.1 5.58e11
##  8 Arge…  2004         2 Néstor Ca… Masculino       52.8      50.1 5.58e11
##  9 Arge…  2004         3 Néstor Ca… Masculino       39.1      50.1 5.58e11
## 10 Arge…  2004         4 Néstor Ca… Masculino       44.9      50.1 5.58e11
## # … with 699 more rows, and 3 more variables: poblacion <dbl>, desempleo <dbl>,
## #   crec_pib <dbl>
```

Podemos también realizar filtros más complejos. Obtengamos solo las observaciones del Cono Sur:


```r
filter(aprob_presidencial, pais == "Argentina" | pais == "Chile" | pais == "Uruguay")
## # A tibble: 180 x 11
##    pais   anio trimestre presidente pres_sexo aprob_neta corr_ejec     pib
##    <chr> <dbl>     <dbl> <chr>      <chr>          <dbl>     <dbl>   <dbl>
##  1 Arge…  2000         1 Fernando … Masculino      40.1       14.0 5.52e11
##  2 Arge…  2000         2 Fernando … Masculino      16.4       14.0 5.52e11
##  3 Arge…  2000         3 Fernando … Masculino      24.0       14.0 5.52e11
##  4 Arge…  2000         4 Fernando … Masculino     -18.3       14.0 5.52e11
##  5 Arge…  2001         1 Fernando … Masculino      -6.97      14.0 5.28e11
##  6 Arge…  2001         2 Fernando … Masculino     -20.1       14.0 5.28e11
##  7 Arge…  2001         3 Fernando … Masculino     -19.4       14.0 5.28e11
##  8 Arge…  2001         4 Fernando … Masculino     -23.2       14.0 5.28e11
##  9 Arge…  2002         1 Eduardo A… Masculino      -2.01      25.0 4.70e11
## 10 Arge…  2002         2 Eduardo A… Masculino     -20.1       25.0 4.70e11
## # … with 170 more rows, and 3 more variables: poblacion <dbl>, desempleo <dbl>,
## #   crec_pib <dbl>
# Lo mismo, con otro operador lógico:
filter(aprob_presidencial, pais %in% c("Argentina", "Chile", "Uruguay")) 
## # A tibble: 180 x 11
##    pais   anio trimestre presidente pres_sexo aprob_neta corr_ejec     pib
##    <chr> <dbl>     <dbl> <chr>      <chr>          <dbl>     <dbl>   <dbl>
##  1 Arge…  2000         1 Fernando … Masculino      40.1       14.0 5.52e11
##  2 Arge…  2000         2 Fernando … Masculino      16.4       14.0 5.52e11
##  3 Arge…  2000         3 Fernando … Masculino      24.0       14.0 5.52e11
##  4 Arge…  2000         4 Fernando … Masculino     -18.3       14.0 5.52e11
##  5 Arge…  2001         1 Fernando … Masculino      -6.97      14.0 5.28e11
##  6 Arge…  2001         2 Fernando … Masculino     -20.1       14.0 5.28e11
##  7 Arge…  2001         3 Fernando … Masculino     -19.4       14.0 5.28e11
##  8 Arge…  2001         4 Fernando … Masculino     -23.2       14.0 5.28e11
##  9 Arge…  2002         1 Eduardo A… Masculino      -2.01      25.0 4.70e11
## 10 Arge…  2002         2 Eduardo A… Masculino     -20.1       25.0 4.70e11
## # … with 170 more rows, and 3 more variables: poblacion <dbl>, desempleo <dbl>,
## #   crec_pib <dbl>
```

Podemos también incluir pequeñas operaciones en nuestros filtros. Obtengamos todas las observaciones en las que la corrupción ejecutiva es mayor a la del promedio de toda la base:


```r
filter(aprob_presidencial, corr_ejec > mean(corr_ejec))
## # A tibble: 456 x 11
##    pais   anio trimestre presidente pres_sexo aprob_neta corr_ejec     pib
##    <chr> <dbl>     <dbl> <chr>      <chr>          <dbl>     <dbl>   <dbl>
##  1 Arge…  2003         1 Eduardo A… Masculino      -2.78      50.1 5.12e11
##  2 Arge…  2003         2 Eduardo A… Masculino      26.5       50.1 5.12e11
##  3 Arge…  2003         3 Néstor Ca… Masculino      53.7       50.1 5.12e11
##  4 Arge…  2003         4 Néstor Ca… Masculino      53.0       50.1 5.12e11
##  5 Arge…  2004         1 Néstor Ca… Masculino      57.1       50.1 5.58e11
##  6 Arge…  2004         2 Néstor Ca… Masculino      52.8       50.1 5.58e11
##  7 Arge…  2004         3 Néstor Ca… Masculino      39.1       50.1 5.58e11
##  8 Arge…  2004         4 Néstor Ca… Masculino      44.9       50.1 5.58e11
##  9 Arge…  2005         1 Néstor Ca… Masculino      45.7       50.1 6.07e11
## 10 Arge…  2005         2 Néstor Ca… Masculino      45.4       50.1 6.07e11
## # … with 446 more rows, and 3 more variables: poblacion <dbl>, desempleo <dbl>,
## #   crec_pib <dbl>
```
…
- Selecciona solo las dos columnas que registran el sexo del presidente/a en la base de datos.

- Filtra la base de datos para que solo tenga las observaciones del año 2000.

- Filtra la base de datos para que solo incluya observaciones de crisis económica, definida de la siguiente forma: cuando el crecimiento del PIB sea negativo y/o el desempleo sea mayor al 20%.


### Ordenar una base

Una de las operaciones más comunes con bases de datos es ordenarlas de acuerdo a alguna de las variables. Esto nos puede dar indicios inmediatos sobre nuestras observaciones. Podemos hacer esto gracias a la función `arrange()`. Por ejemplo, ordenemos las observaciones desde el país-año-trimestre menos corrupto al más corrupto:


```r
arrange(aprob_presidencial, corr_ejec)
## # A tibble: 1,020 x 11
##    pais   anio trimestre presidente pres_sexo aprob_neta corr_ejec     pib
##    <chr> <dbl>     <dbl> <chr>      <chr>          <dbl>     <dbl>   <dbl>
##  1 Urug…  2000         1 Julio San… Masculino      41.2       2.13 4.28e10
##  2 Urug…  2000         2 Jorge Bat… Masculino      45.4       2.13 4.28e10
##  3 Urug…  2000         3 Jorge Bat… Masculino      31.4       2.13 4.28e10
##  4 Urug…  2000         4 Jorge Bat… Masculino      18.1       2.13 4.28e10
##  5 Urug…  2001         1 Jorge Bat… Masculino      18.5       2.13 4.11e10
##  6 Urug…  2001         2 Jorge Bat… Masculino      17.8       2.13 4.11e10
##  7 Urug…  2001         3 Jorge Bat… Masculino      15.9       2.13 4.11e10
##  8 Urug…  2001         4 Jorge Bat… Masculino      14.5       2.13 4.11e10
##  9 Urug…  2002         1 Jorge Bat… Masculino       6.36      2.13 3.79e10
## 10 Urug…  2002         2 Jorge Bat… Masculino      -6.37      2.13 3.79e10
## # … with 1,010 more rows, and 3 more variables: poblacion <dbl>,
## #   desempleo <dbl>, crec_pib <dbl>
```
…
