Capítulo 14 Análisis de redes | AnalizaR Datos Políticos
…
library(paqueteadp)
data("copatrocinio_arg")
data("senadores_arg")

Podemos comprobar que nuestras bases de datos fueron cargadas correctamente con ls():

ls()

## [1] "copatrocinio_arg" "senadores_arg"

Tenemos dos bases de datos. La primera contiene información de los nodos. Cada legislador está asignado a una identificación única (a partir de 1), condición necesaria para el correcto funcionamiento del tidygraph. Además, tenemos otra información sobre los legisladores: nombre, provincia, partido y coalición política.

senadores_arg
## # A tibble: 46 x 4
##   id_sen nombre_sen       provincia  bloque_politico
##    <int> <chr>            <chr>      <chr>          
## 1      1 RAMON A ALMENDRA SANTA CRUZ JUSTICIALISTA  
## 2      2 JULIO AMOEDO     CATAMARCA  JUSTICIALISTA  
## 3      3 RAMON A ARAUJO   TUCUMAN    JUSTICIALISTA  
## # … with 43 more rows

Mientras tanto, nuestra segunda base de datos contiene información sobre los enlaces, en este caso, el copatrocinio de leyes entre los senadores. En esta base de datos, se registran los pesos y direcciones. Por lo tanto, tiene tres variables: dos variables de identificación (que vinculan las identificaciones de los senadores) y el número de leyes copatrocinadas en el par. Por ejemplo, la primera observación indica que el Legislador 1 firmó un proyecto de ley del Legislador 2.

copatrocinio_arg
## # A tibble: 217 x 3
##   id_sen_desde id_sen_hacia n_copatrocinio
##          <int>        <int>          <int>
## 1            1            2              1
## 2            1            9              1
## 3            1           30              1
## # … with 214 more rows
…
