analizaR datos políticos
…
            analizaR datos políticos

4.3 Ordenar la base con arrange()

Una de las operaciones más comunes con bases de datos es ordenarlas de acuerdo a alguna de las variables. Esto nos puede dar insights (¿traducción?) inmediatos sobre nuestras observaciones. Por ejemplo, ordenemos la base de acuerdo a población:

arrange(qog_mod, wdi_pop)
## # A tibble: 139 x 7
##    cname   wdi_gdppppcon20… wdi_pop ti_cpi lp_muslim80 fh_ipolity2 region 
##    <chr>              <dbl>   <dbl>  <dbl>       <dbl>       <dbl> <chr>  
##  1 Domini…        722668736   72005   58         0           10    Caribb…
##  2 Seyche…       2229991168   89900   54         0.300        6.94 Easter…
##  3 Tonga          513904512  105139   31.4       0            8.59 Polyne…
##  4 Kiriba…        183852816  108544   30.8       0           10    Micron…
##  5 St Luc…       1871906688  182305   71         0           10    Caribb…
##  6 Sao To…        540452288  182386   42         0            8.59 Middle…
##  7 Samoa         1047012608  190390   52         0            8.59 Polyne…
##  8 Barbad…       4333428224  282503   75         0.200       10    Caribb…
##  9 Iceland      13266284544  323764   78         0           10    Northe…
## 10 Bahamas       8497731584  377841   71         0           10    Caribb…
## # ... with 129 more rows

El lector debe notar cómo el primer argumento, “qog_mod”, toma la base de datos y los siguientes enuncian cómo ordenarla, en este caso, por “wdi_pop”, la variable de población.

Debe notar también cómo el comando anterior no crea ningún objeto, solo muestra los resultados en la consola. Para crear uno tenemos que seguir la fórmula típica de asignación:

qog_mod_ordenada <- arrange(qog_mod, wdi_pop)

Podemos realizar ambas operaciones, mostrar los resultados y crear el objeto, rodeando este último comando con paréntesis:

( qog_mod_ordenada <- arrange(qog_mod, wdi_pop) )
## # A tibble: 139 x 7
##    cname   wdi_gdppppcon20… wdi_pop ti_cpi lp_muslim80 fh_ipolity2 region 
##    <chr>              <dbl>   <dbl>  <dbl>       <dbl>       <dbl> <chr>  
##  1 Domini…        722668736   72005   58         0           10    Caribb…
##  2 Seyche…       2229991168   89900   54         0.300        6.94 Easter…
##  3 Tonga          513904512  105139   31.4       0            8.59 Polyne…
##  4 Kiriba…        183852816  108544   30.8       0           10    Micron…
##  5 St Luc…       1871906688  182305   71         0           10    Caribb…
##  6 Sao To…        540452288  182386   42         0            8.59 Middle…
##  7 Samoa         1047012608  190390   52         0            8.59 Polyne…
##  8 Barbad…       4333428224  282503   75         0.200       10    Caribb…
##  9 Iceland      13266284544  323764   78         0           10    Northe…
## 10 Bahamas       8497731584  377841   71         0           10    Caribb…
## # ... with 129 more rows

La operación para ordenar realizada antes iba de menor a mayor, en términos de población. Si queremos el orden inverso (decreciente), basta con añadir un signo menos (-) antes de la variable:

arrange(qog_mod, -wdi_pop)
## # A tibble: 139 x 7
##    cname   wdi_gdppppcon20… wdi_pop ti_cpi lp_muslim80 fh_ipolity2 region 
##    <chr>              <dbl>   <dbl>  <dbl>       <dbl>       <dbl> <chr>  
##  1 China     16023988207616  1.36e9     40       2.40         1.17 Easter…
##  2 India      6566166134784  1.28e9     36      11.6          8.5  Southe…
##  3 United…   16230494765056  3.16e8     73       0.800       10    Northe…
##  4 Indone…    2430921605120  2.51e8     32      43.4          7.83 South-…
##  5 Brazil     3109301780480  2.04e8     42       0.100        8.67 South …
##  6 Pakist…     810954457088  1.81e8     28      96.8          6.33 Southe…
##  7 Nigeria     941462781952  1.73e8     25      45            5.58 Wester…
##  8 Bangla…     446835425280  1.57e8     27      85.9          6.42 Southe…
##  9 Japan      4535077044224  1.27e8     74       0           10    Easter…
## 10 Mexico     1997247479808  1.24e8     34       0            7.83 Centra…
## # ... with 129 more rows

¡Con eso tenemos los países con mayor población en el mundo! ¿Qué pasa si queremos los países con mayor población dentro de cada región? Tendríamos que realizar un ordenamiento en dos pasos: primero por región y luego por población. Con arrange() esto es simple:

arrange(qog_mod, region, -wdi_pop)
## # A tibble: 139 x 7
##    cname   wdi_gdppppcon20… wdi_pop ti_cpi lp_muslim80 fh_ipolity2 region 
##    <chr>              <dbl>   <dbl>  <dbl>       <dbl>       <dbl> <chr>  
##  1 Austra…     990474338304  2.31e7     81       0.200       10    Austra…
##  2 New Ze…     148189986816  4.44e6     91       0           10    Austra…
##  3 Cuba        226685157376  1.14e7     46       0            1.17 Caribb…
##  4 Haiti        16999370752  1.04e7     19       0            4.58 Caribb…
##  5 Domini…     122657308672  1.03e7     29       0            8.25 Caribb…
##  6 Jamaica      22884503552  2.71e6     38       0.100        8.5  Caribb…
##  7 Trinid…      40973463552  1.35e6     38       6.5          9.17 Caribb…
##  8 Bahamas       8497731584  3.78e5     71       0           10    Caribb…
##  9 Barbad…       4333428224  2.83e5     75       0.200       10    Caribb…
## 10 St Luc…       1871906688  1.82e5     71       0           10    Caribb…
## # ... with 129 more rows

A propósito del resultado anterior, el lector puede deducir que cuando arrange() ordena variables categóricas (en vez de numéricas) lo hace alfabéticamente. Añadir un signo menos (-) antes de la variable hará que el orden sea al revés en términos del alfabeto:

arrange(qog_mod, desc(region), -wdi_pop) # no sé por qué - no funciona, ARREGLAR
## # A tibble: 139 x 7
##    cname   wdi_gdppppcon2011 wdi_pop ti_cpi lp_muslim80 fh_ipolity2 region
##    <chr>               <dbl>   <dbl>  <dbl>       <dbl>       <dbl> <chr> 
##  1 France…     2459435270144  6.59e7     71       3            9.75 Weste…
##  2 Nether…      762382450688  1.68e7     83       1           10    Weste…
##  3 Belgium      452154359808  1.12e7     75       1.10         9.5  Weste…
##  4 Austria      373413642240  8.48e6     69       0.600       10    Weste…
##  5 Switze…      444201566208  8.09e6     85       0.300       10    Weste…
##  6 Luxemb…       48842280960  5.43e5     80       0           10    Weste…
##  7 Turkey      1392197369856  7.50e7     50      99.2          7.67 Weste…
##  8 Iraq         510895521792  3.38e7     16      95.8          4.5  Weste…
##  9 Saudi …     1478747750400  3.02e7     46      98.8          0    Weste…
## 10 United…      560986259456  9.04e6     69      94.9          1.33 Weste…
## # ... with 129 more rows
