Capítulo 7 Datos de panel | AnalizaR Datos Políticos
…
En ciencias políticas, es común encontrar la distinción entre datos de panel y series temporales transversales (TSCS, en inglés). Beck (2008) explica que un panel se refiere a un conjunto de datos con una N mucho más grande que su T, por ejemplo, una encuesta de 10.000 personas durante tres años consecutivos. Por otro lado, una base de datos en formato TSCS a menudo contiene una T más grande que N, y sus unidades son fijas, es decir, se repiten en el tiempo. La distinción está muy bien desarrollada en un texto de Beck en Annual Review of Political Science:

“Los datos de panel son datos de secciones transversales repetidas, pero las unidades se muestrean (normalmente son encuestados obtenidos en algún esquema de muestreo aleatorio), y normalmente se observan sólo unas pocas veces. Las unidades de TSCS son fijas; no hay ningún esquema de muestreo para las unidades, y cualquier experimento de”remuestreo" debe mantener las unidades fijas y sólo remuestrear las unidades completas (Freedman & Peters 1984). En los datos en panel, las personas observadas no son de interés; todas las inferencias de interés se refieren a la población subyacente que fue objeto del muestreo, en lugar de estar condicionadas por la muestra observada. Los datos de la TSCS son exactamente lo contrario; todas las inferencias de interés son condicionales a las unidades observadas". (2001, 273).

A efectos prácticos, la notación de ambos es la misma y los conceptos tienden a utilizarse indistintamente:
\[ y_i,_t = x_i,_t\beta + \epsilon_i,_t  \]
Donde \[ x_i,_t \] es un vector de variables exógenas y las observaciones son indexadas por ambas unidades (i) y tiempo (t).

Para revisar las rutinas más comunes de los modelos de panel, usaremos una base de datos similar a la de Amorim Neto, pero con once países sudamericanos. Ahora tenemos una base en formato TSCS: una muestra de once países entre 1970 y 2007, 38 años. Si domina el contenido introductorio de este capítulo, el siguiente paso será trabajar a través del libro de Croissant and Millo (2018), que también son los creadores del paquete más utilizado para el panel en R, plm.

data("eeuu_latam")

eeuu_latam %>% 
  count(pais)
## # A tibble: 10 x 2
##   pais          n
##   <chr>     <int>
## 1 Argentina    38
## 2 Bolivia      38
## 3 Brazil       38
## # … with 7 more rows
…
