…
<img src="pca_files/figure-html/unnamed-chunk-6-1.png" width="480" style="display: block; margin: auto;" />

Vamos a filtrar nuestras variables de interés, esto quiere decir que dejamos fuera toda variable que no sea proxy de democracia, por ejemplo la variable `paisnom` que indica el país de cada individuo no debería ser incorporada. Para esto, generamos una nueva base que contenga sólo las variables que queramos ocupar, en este caso, para conocer cuál es la opinión sobre las instituciones democráticas que tienen los latinoamericanos. Con `stargazer` podemos ver los estadísticos descriptivos de cada variable. 


```r
lapop_pca_num <- lapop_pca %>% 
  select(del, pdte, trib, inst, confcon, confpdte, confpp, confmedia, confelec, 
         satdem, dervoto, derman) %>% 
  mutate_all(as.numeric)

lapop_pca
## # A tibble: 7,655 x 14
##    paisnom   del  pdte  trib  inst confcon confpdte confpp confmedia confelec
##    <chr>   <dbl> <dbl> <dbl> <dbl>   <dbl>    <dbl>  <dbl>     <dbl>    <dbl>
##  1 Argent…     0     1     6     4       6        5      3         4        6
##  2 Argent…     1     0     4     6       5        1      1         6        3
##  3 Argent…     0     0     4     4       2        6      3         6        4
##  4 Argent…     1     1     3     7       4        1      2         4        3
##  5 Argent…     0     0     5     6       4        3      3         5        5
##  6 Argent…     0     0     2     1       1        2      1         2        1
##  7 Argent…     0     0     4     2       4        1      3         4        7
##  8 Argent…     1     0     1     1       1        1      1         7        1
##  9 Argent…     1     1     5     7       7        5      7         7        6
## 10 Argent…     0     0     2     7       1        3      1         4        5
## # … with 7,645 more rows, and 4 more variables: satdem <dbl>, dervoto <dbl>,
## #   derman <dbl>, confelec_prom <dbl>
```
…
