Capítulo 14 Análisis cuantitativo de texto | AnalizaR Datos Políticos
…
Podemos observar los primeros valores de la variable hashtags simplemente seleccionando dichas variables en la base:

tweets_dips_chile %>% select(hashtags)
## # A tibble: 9,758 x 1
##    hashtags            
##    <chr>               
##  1 lugaresquehablan    
##  2 puertomontt         
##  3 salvemoslagochapo   
##  4 lagochapo           
##  5 ancud               
##  6 chiloe              
##  7 interpelacionlarrain
##  8 interpelacionlarrain
##  9 sqm                 
## 10 poncelerou          
## # … with 9,748 more rows
…
También creamos una tabla en que las frecuencias hashtags están separadas por la variable de género dummy_mujer. De esta forma, podemos ver de manera rápida si hay diferencias claras en la frecuencia de tweets por género del diputado.

tweets_dips_chile %>% 
  group_by(dummy_mujer) %>% 
  count(hashtags) %>% 
  arrange(hashtags)
## # A tibble: 2,760 x 3
## # Groups:   dummy_mujer [2]
##    dummy_mujer hashtags        n
##          <dbl> <chr>       <int>
##  1           0 106añospc      18
##  2           1 106añospc       2
##  3           1 11mayo1935      1
##  4           0 1demayo        18
##  5           1 1demayo         9
##  6           0 1demayo2018     1
##  7           1 1erodemayo      1
##  8           1 1m              4
##  9           0 1mayo           1
## 10           1 1mayo           2
## # … with 2,750 more rows
…
Ahora que la base está lista, vamos a utilizar tidytext para dejarla lista para el análisis cuantitativo.

14.11 Tidy text

En nuestra variable text_allende tenemos cada uno de los discursos del ex presidente chileno. Para poder analizarlos cuantitativamente debemos subdividirlos en unidades menores. Como el ejercicio consiste en hacer frecuencia de palabras más comunes, querremos dividir los discursos en palabras. Para ello usaremos la función unnest_tokens con la opción words. Si quisieras dividir los discursos por oraciones puedes usar la opción sentences y si lo quieres por párrafos paragraphs.

discursos_allende_tidy <- discursos_allende %>%
  unnest_tokens(word, text_allende)

¡Ahora en vez de tener 248 discursos, tenemos casi 1 millón de palabras bajo la variable words!

discursos_allende_tidy
## # A tibble: 959,525 x 4
##    titulo                      fecha      full_link                  word  
##    <chr>                       <date>     <chr>                      <chr> 
##  1 Discurso en el Senado sobr… 1970-01-06 https://www.marxists.org/… discu…
##  2 Discurso en el Senado sobr… 1970-01-06 https://www.marxists.org/… en    
##  3 Discurso en el Senado sobr… 1970-01-06 https://www.marxists.org/… el    
##  4 Discurso en el Senado sobr… 1970-01-06 https://www.marxists.org/… senado
##  5 Discurso en el Senado sobr… 1970-01-06 https://www.marxists.org/… sobre 
##  6 Discurso en el Senado sobr… 1970-01-06 https://www.marxists.org/… la    
##  7 Discurso en el Senado sobr… 1970-01-06 https://www.marxists.org/… forma…
##  8 Discurso en el Senado sobr… 1970-01-06 https://www.marxists.org/… de    
##  9 Discurso en el Senado sobr… 1970-01-06 https://www.marxists.org/… la    
## 10 Discurso en el Senado sobr… 1970-01-06 https://www.marxists.org/… unidad
## # … with 959,515 more rows
…
