Capítulo 13 Análisis de redes | AnalizaR Datos Políticos
…
data(leyes_argentina)

Podemos revisar que nuestra base se cargó adecuadamente con ls():

ls()

## [1] "leyes_argentina"

Para pasar esta base de datos a un formato de redes utilizaremos el paquete tidygraph. Nuestro objetivo será el siguiente: crear dos bases de datos, una con información sobre los nodos de la red (legisladores/as) y otra con información sobre los vínculos entre esos nodos (firmas en común). Nota que el procedimiento exacto para crear estas bases dependerá de la estructura original de tus datos.

Comencemos explorando nuestra base inicial:

leyes_argentina
## # A tibble: 665 x 7
##    id_proyecto n_firmantes id_leg nombre_leg provincia_leg partido_leg
##    <chr>             <dbl>  <dbl> <chr>      <chr>         <chr>      
##  1 0001-S-84             2     25 JOSE H MA… JUJUY         JUSTICIALI…
##  2 0001-S-84             2      4 ALFREDO L… JUJUY         JUSTICIALI…
##  3 0002-S-84             2     34 OLIJELA D… TUCUMAN       JUSTICIALI…
##  4 0002-S-84             2      3 RAMON A A… TUCUMAN       JUSTICIALI…
##  5 0003-S-84             2      3 RAMON A A… TUCUMAN       JUSTICIALI…
##  6 0003-S-84             2     34 OLIJELA D… TUCUMAN       JUSTICIALI…
##  7 0004-S-84             1     37 LUIS SALIM S DEL ESTERO  JUSTICIALI…
##  8 0006-S-84             2     38 LIBARDO N… LA RIOJA      JUSTICIALI…
##  9 0006-S-84             2     29 EDUARDO M… LA RIOJA      JUSTICIALI…
## 10 0007-S-84             2     38 LIBARDO N… LA RIOJA      JUSTICIALI…
## # … with 655 more rows, and 1 more variable: bloque_leg <chr>

Como puedes notar, esta es una base de formato “long”, donde cada firma es una fila. De esta forma, podemos inmediatamente saber que hubo 665 firmas en proyectos durante el año 1983. ¿En cuántos proyectos se distribuyeron esas firmas? Hagamos una tabla de frecuencia para la variable id_proyecto, utilizando la función count():

leyes_argentina %>% 
  count(id_proyecto)
## # A tibble: 248 x 2
##    id_proyecto     n
##    <chr>       <int>
##  1 0001-S-84       2
##  2 0002-S-84       2
##  3 0003-S-84       2
##  4 0004-S-84       1
##  5 0006-S-84       2
##  6 0007-S-84       2
##  7 0009-S-84       6
##  8 0010-S-84       3
##  9 0011-S-84       5
## 10 0012-S-84       9
## # … with 238 more rows

Sabemos entonces que hubo 248 proyectos de ley. ¿Cuántos legisladores/as firmaron en proyectos?

leyes_argentina %>% 
  count(id_leg)
## # A tibble: 46 x 2
##    id_leg     n
##     <dbl> <int>
##  1      1    13
##  2      2    21
##  3      3    24
##  4      4    18
##  5      5    23
##  6      6    19
##  7      7    26
##  8      8    21
##  9      9    15
## 10     10    10
## # … with 36 more rows

Nota que la variable id_leg asigna un número correlativo, entre 1 y 46, para cada senador/a. Entonces, hasta ahora sabemos que 46 senadores/as firmaron en proyectos, sumando 665 firmas en 248 proyectos de ley distintos. Pero volvamos a nuestro objetivo inicial para comenzar con el análisis de redes: necesitamos crear una base de datos de nodos y otra de enlaces.

Nuestra base de datos de nodos tendrá, entonces, información de los legisladores/as, totalizando 46 observaciones. Otras variables en la base que nos entregan información sobre los legisladores/as son nombre_leg, provincia_leg, partido_leg y bloque_leg, por lo que estas deberían estar presentes en nuestra base de datos de nodos. Construyámosla:

df_nodos <- leyes_argentina %>% 
  group_by(id_leg) %>% 
  summarize(nombre_leg    = unique(nombre_leg),
            provincia_leg = unique(provincia_leg),
            partido_leg   = unique(partido_leg),
            bloque_leg    = unique(bloque_leg))

df_nodos
## # A tibble: 46 x 5
##    id_leg nombre_leg               provincia_leg partido_leg   bloque_leg  
##     <dbl> <chr>                    <chr>         <chr>         <chr>       
##  1      1 RAMON A ALMENDRA         SANTA CRUZ    JUSTICIALISTA JUSTICIALIS…
##  2      2 JULIO AMOEDO             CATAMARCA     JUSTICIALISTA JUSTICIALIS…
##  3      3 RAMON A ARAUJO           TUCUMAN       JUSTICIALISTA JUSTICIALIS…
##  4      4 ALFREDO L BENITEZ        JUJUY         JUSTICIALISTA JUSTICIALIS…
##  5      5 ANTONIO TOMAS BERHONGAR… LA PAMPA      UCR           UCR         
##  6      6 DEOLINDO FELIPE BITTEL   CHACO         JUSTICIALISTA JUSTICIALIS…
##  7      7 LUIS BRASESCO            ENTRE RIOS    UCR           UCR         
##  8      8 HORACIO F BRAVO HERRERA  SALTA         JUSTICIALISTA JUSTICIALIS…
##  9      9 ORALDO N BRITOS          SAN LUIS      JUSTICIALISTA JUSTICIALIS…
## 10     10 JORGE A CASTRO           S DEL ESTERO  JUSTICIALISTA JUSTICIALIS…
## # … with 36 more rows
…
df_enlaces
## # A tibble: 509 x 3
##    id_leg_1 id_leg_2 d_firma_conjunta
##       <dbl>    <dbl>            <int>
##  1        1        2                1
##  2        1        3                1
##  3        1        4                1
##  4        1        5                1
##  5        1        6                1
##  6        1        8                1
##  7        1        9                1
##  8        1       10                1
##  9        1       12                1
## 10        1       16                1
## # … with 499 more rows
…
