Capítulo 8 Modelos de supervivencia | AnalizaR Datos Políticos
…
Los países "“entran” a la base cuando comienzan a existir como países independientes. Veamos el caso de Albania, por ejemplo, que nace como país en 1912 luego de las Guerras los Balcanes:

dem_directa %>% 
  filter(country_name == "Albania")
## # A tibble: 105 x 23
##    country_name  year cic_dummy dem_positive dem_negative memory
##    <chr>        <dbl>     <dbl>        <dbl>        <dbl>  <dbl>
##  1 Albania       1912         0            0            0      0
##  2 Albania       1913         0            0            0      0
##  3 Albania       1914         0            0            0      0
##  4 Albania       1915         0            0            0      0
##  5 Albania       1916         0            0            0      0
##  6 Albania       1917         0            0            0      0
##  7 Albania       1918         0            0            0      0
##  8 Albania       1919         0            0            0      0
##  9 Albania       1920         0            0            0      0
## 10 Albania       1921         0            0            0      0
## # … with 95 more rows, and 17 more variables: v2x_polyarchy <dbl>,
## #   capabilities_geo_ide <dbl>, occur_geo_ide <dbl>,
## #   c_pos_capabilities <dbl>, c_pos_occurrences <dbl>, c_pos_memory <dbl>,
## #   log_pop <dbl>, c_gbr <dbl>, c_fra <dbl>, c_ussr <dbl>, c_spa <dbl>,
## #   c_usa <dbl>, c_ned <dbl>, c_prt <dbl>, c_bel <dbl>, c_ahe <dbl>,
## #   c_ote <dbl>
…
Primero debemos crear una base de datos que, para cada país, registre el año de entrada y el año de salida. También nos interesa por qué sale el país: ¿adopta democracia directa o la base termina? Vamos a crear un subonjunto que llamaremos gantt_plot_df donde nos quedamos solamente con tres variables de la base, que son el nombre del país country_name, el año year, y la variable dependiente cic_dummy. También quitaremos de la base aquellas observaciones que para el primer año de la base ya han “muerto”. Por ejemplo, Suiza había implementado mecanismos de democracia directa mucho antes que 1900, así que desde el primer año de la base hasta el último la variable dependiente será “1”:

gantt_plot_df <- dem_directa_b %>%
  # las variables que nos interesan
  dplyr::select(country_name, year, cic_dummy) %>%
  group_by(country_name) %>%
  filter(year == min(year) | year == max(year)) %>%
  # debemos sacar las observaciones para países que "nacen" (para nuestra base) con democracia directa:
  filter(!(year == min(year) & cic_dummy == 1)) %>%
  summarise(year_enters = min(year),
            year_exits  = max(year),
            exits_bc_dd = max(cic_dummy)) %>%
  ungroup()
gantt_plot_df
## # A tibble: 194 x 4
##    country_name        year_enters year_exits exits_bc_dd
##    <chr>                     <dbl>      <dbl>       <dbl>
##  1 Afghanistan                1919       2016           0
##  2 Albania                    1912       1998           1
##  3 Algeria                    1962       2016           0
##  4 Andorra                    1900       2016           0
##  5 Angola                     1975       2016           0
##  6 Antigua and Barbuda        1981       2016           0
##  7 Argentina                  1900       2016           0
##  8 Armenia                    1991       2016           0
##  9 Australia                  1901       2016           0
## 10 Austria                    1918       2016           0
## # … with 184 more rows

Los países que salen por democracia directa (“mueren”) son:

gantt_plot_df %>% filter(exits_bc_dd == 1)
## # A tibble: 49 x 4
##    country_name year_enters year_exits exits_bc_dd
##    <chr>              <dbl>      <dbl>       <dbl>
##  1 Albania             1912       1998           1
##  2 Belarus             1991       1995           1
##  3 Belize              1981       2008           1
##  4 Bolivia             1900       2004           1
##  5 Bulgaria            1908       2009           1
##  6 Cape Verde          1975       1992           1
##  7 Colombia            1900       1991           1
##  8 Costa Rica          1900       2002           1
##  9 Croatia             1992       2001           1
## 10 Ecuador             1900       1998           1
## # … with 39 more rows

Podemos identificar en una nueva variable la región geopolítica de cada país, gracias a la función countrycode::countrycode() (Esto lo explicamos en detalle en el Capítulo 9). Este paquete es de gran utilidad para quienes hacen política comparada o relaciones internacionales porque facilita mucho darle códigos a los países. Lo que nos permite el paquete es asignar a cada país su región de pertenencia de manera casi automática:

library(countrycode)
gantt_plot_df_region <- gantt_plot_df %>%
  mutate(region = countrycode(country_name, origin = "country.name", dest = "region"))
## Warning in countrycode(country_name, origin = "country.name", dest = "region"): Some values were not matched unambiguously: Kosovo, South Yemen, Vietnam, Democratic Republic of, Vietnam, Republic of

gantt_plot_df_region
## # A tibble: 194 x 5
##    country_name      year_enters year_exits exits_bc_dd region             
##    <chr>                   <dbl>      <dbl>       <dbl> <chr>              
##  1 Afghanistan              1919       2016           0 Southern Asia      
##  2 Albania                  1912       1998           1 Southern Europe    
##  3 Algeria                  1962       2016           0 Northern Africa    
##  4 Andorra                  1900       2016           0 Southern Europe    
##  5 Angola                   1975       2016           0 Middle Africa      
##  6 Antigua and Barb…        1981       2016           0 Caribbean          
##  7 Argentina                1900       2016           0 South America      
##  8 Armenia                  1991       2016           0 Western Asia       
##  9 Australia                1901       2016           0 Australia and New …
## 10 Austria                  1918       2016           0 Western Europe     
## # … with 184 more rows
…
Podemos corregir esto a mano ex-post o correr countrycode::countrycode() de nuevo, pero con el argumento custom_match:

gantt_plot_df_region <- gantt_plot_df %>%
  mutate(region = countrycode(country_name, 
                              origin       = "country.name", 
                              dest         = "region",
                              custom_match = c("Korea, North" = "Eastern Asia",
                                               "Kosovo" = "Eastern Europe",
                                               "South Yemen" = "Western Asia",
                                               "Vietnam, Democratic Republic of" = "South-Eastern Asia",
                                               "Vietnam, Republic of" = "South-Eastern Asia")))
gantt_plot_df_region
## # A tibble: 194 x 5
##    country_name      year_enters year_exits exits_bc_dd region             
##    <chr>                   <dbl>      <dbl>       <dbl> <chr>              
##  1 Afghanistan              1919       2016           0 Southern Asia      
##  2 Albania                  1912       1998           1 Southern Europe    
##  3 Algeria                  1962       2016           0 Northern Africa    
##  4 Andorra                  1900       2016           0 Southern Europe    
##  5 Angola                   1975       2016           0 Middle Africa      
##  6 Antigua and Barb…        1981       2016           0 Caribbean          
##  7 Argentina                1900       2016           0 South America      
##  8 Armenia                  1991       2016           0 Western Asia       
##  9 Australia                1901       2016           0 Australia and New …
## 10 Austria                  1918       2016           0 Western Europe     
## # … with 184 more rows
…
Además de gráficos de Gantt, es muy común que quien trabaja con modelos de supervivencia muestre gráficos con las curvas de supervivencia comparando dos grupos de interés. Por ejemplo, David Altman se pregunta si hubo una diferencia en el siglo XX entre países que se democratizaron rápidamente y aquellos que demoraron décadas en hacerlo respecto a la rapidez con que implementaron mecanismos de democracia directa. Este tipo de figuras no tiene valor inferencial, pero si gran valor decriptivo. Tenemos que estimar una curva de supervivencia no paramétrica, usando el método de Kaplan-Meier.

A partir de este punto debemos hacer una modificación más a nuestra base. Seguramente tu también debas hacerlo con tus propios datos, así que presta atención. Los modelos de supervivencia no trabajan con datos de panel tradicionales, como el de nuestra base. Tenemos que convertirlos a “tiempo en riesgo”. ¿Qué quiere decir esto? Quiere decir que necesitamos dos variables nuevas, una que nos diga el tiempo que la observación lleva en riesgo de morir al inicio de cada t risk_time_at_starty otra variable que haga lo mismo al final de cada t risk_time_at_end. Estas dos variables serán utilizadas a partir de ahora en los scripts del análisis de supervivencia:

dem_directa_c <- dem_directa_b %>%
  group_by(country_name) %>%
  # vamos a eliminar el primer año para cada país. no está en riesgo, por definición!
  filter(year != min(year)) %>%
  mutate(risk_time_at_end   = c(1:n()),
         risk_time_at_start = c(0:(n() - 1))) %>%
  ungroup() %>%
  dplyr::select(country_name, year, risk_time_at_start, risk_time_at_end, everything())

dem_directa_c
## # A tibble: 12,014 x 25
##    country_name  year risk_time_at_st… risk_time_at_end cic_dummy
##    <chr>        <dbl>            <int>            <int>     <dbl>
##  1 Afghanistan   1920                0                1         0
##  2 Afghanistan   1921                1                2         0
##  3 Afghanistan   1922                2                3         0
##  4 Afghanistan   1923                3                4         0
##  5 Afghanistan   1924                4                5         0
##  6 Afghanistan   1925                5                6         0
##  7 Afghanistan   1926                6                7         0
##  8 Afghanistan   1927                7                8         0
##  9 Afghanistan   1928                8                9         0
## 10 Afghanistan   1929                9               10         0
## # … with 12,004 more rows, and 20 more variables: dem_positive <dbl>,
## #   dem_negative <dbl>, memory <dbl>, v2x_polyarchy <dbl>,
## #   capabilities_geo_ide <dbl>, occur_geo_ide <dbl>,
## #   c_pos_capabilities <dbl>, c_pos_occurrences <dbl>, c_pos_memory <dbl>,
## #   log_pop <dbl>, c_gbr <dbl>, c_fra <dbl>, c_ussr <dbl>, c_spa <dbl>,
## #   c_usa <dbl>, c_ned <dbl>, c_prt <dbl>, c_bel <dbl>, c_ahe <dbl>,
## #   c_ote <dbl>
…
