04 - Guía búsqueda de ayuda | Programación en Ciencias Sociales
…
En este sitio podemos buscar funciones y mirar sus archivos de ayuda en línea. Su buscador integrado no es particularmente bueno, así que recomiendo usar Google. Así llegaremos a esta página, por ejemplo: “mutate rdrr”.

CRAN Task Views

CRAN Task Views son guías muy completas sobre qué paquetes nos pueden ayudar a lidiar con tópicos específicos. Por ejemplo, veamos el CTV de “Estadística para las Ciencias Sociales”.

Solucionar problemas

Problemas con paréntesis y comas

Vamos a usar una base de ejemplo de ggplot2, llamada midwest. Contiene información demográfica sobre distintos condados en Estados Unidos, parte de la zona geográfica llamada “Midwest”.

midwest

## # A tibble: 437 x 28
##      PID county    state  area poptotal popdensity
##    <int> <chr>     <chr> <dbl>    <int>      <dbl>
##  1   561 ADAMS     IL    0.052    66090      1271.
##  2   562 ALEXANDER IL    0.014    10626       759 
##  3   563 BOND      IL    0.022    14991       681.
##  4   564 BOONE     IL    0.017    30806      1812.
##  5   565 BROWN     IL    0.018     5836       324.
##  6   566 BUREAU    IL    0.05     35688       714.
##  7   567 CALHOUN   IL    0.017     5322       313.
##  8   568 CARROLL   IL    0.027    16805       622.
##  9   569 CASS      IL    0.024    13437       560.
## 10   570 CHAMPAIGN IL    0.058   173025      2983.
## # ... with 427 more rows, and 22 more variables:
## #   popwhite <int>, popblack <int>,
## #   popamerindian <int>, popasian <int>,
## #   popother <int>, percwhite <dbl>, percblack <dbl>,
## #   percamerindan <dbl>, percasian <dbl>,
## #   percother <dbl>, popadults <int>, perchsd <dbl>,
## #   percollege <dbl>, percprof <dbl>,
## #   poppovertyknown <int>, percpovertyknown <dbl>,
## #   percbelowpoverty <dbl>,
…
Por último, queremos que esa otra persona pueda correr rápidamente nuestro código, sin tener que preocuparse de nada más aparte de nuestro problema.

Nuestro problema de antes:

midwest %>% 
  filter(county == "IL") %>% 
  mutate(county5 = county * 5)

## Error: Problem with `mutate()` input `county5`.
## x non-numeric argument to binary operator
## i Input `county5` is `county * 5`.

Utilizar la base “midwest” está bien, pero vamos a generar nuestro reprex con otra de ejemplo en el paquete ggplot2, llamada mpg. Esta base se ve de la siguiente forma. No importa mucho su contenido, pero sí que tenemos una variable categórica para usar. En este caso, “model” nos servirá.

## # A tibble: 234 x 11
##    manufacturer model   displ  year   cyl trans   drv  
##    <chr>        <chr>   <dbl> <int> <int> <chr>   <chr>
##  1 audi         a4        1.8  1999     4 auto(l~ f    
##  2 audi         a4        1.8  1999     4 manual~ f    
##  3 audi         a4        2    2008     4 manual~ f    
##  4 audi         a4        2    2008     4 auto(a~ f    
##  5 audi         a4        2.8  1999     6 auto(l~ f    
##  6 audi         a4        2.8  1999     6 manual~ f    
##  7 audi         a4        3.1  2008     6 auto(a~ f    
##  8 audi         a4 qua~   1.8  1999     4 manual~ 4    
##  9 audi         a4 qua~   1.8  1999     4 auto(l~ 4    
## 10 audi         a4 qua~   2    2008     4 manual~ 4    
## # ... with 224 more rows, and 4 more variables:
## #   cty <int>, hwy <int>, fl <chr>, class <chr>
…
