07A - Herramientas de programación | Programación en Ciencias Sociales
…
Aplicación 2: varios archivos Excel

Es muy común que datos gubernamentales estén en múltiples planillas con el mismo formato, que queramos unir. Por ejemplo, así están las estadísticas delictuales para las comunas de la Región de Magallanes. Descargué esos Excel en la carpeta “datos/delitos_comunales/”. Queremos llegar a una sola base.

Obtengamos la base con la tasa de delitos para la comuna de Punta Arenas:

readxl::read_excel("datos/delitos_comunales/Punta Arenas.xlsx", 
                   sheet = "Pag7", range = "B13:G26", # dónde está la info que queremos
                   col_names = c("tipo_delito", 2012:2016)) %>% # creamos nombres de variables "a mano"
  filter(!is.na(tipo_delito)) %>% # eliminamos la fila de más
  # ahora pasamos la base a long:
  pivot_longer(cols = -tipo_delito, names_to = "anio", values_to = "tasa_casos") %>% 
  mutate(anio = as.numeric(anio))

## # A tibble: 65 x 3
##    tipo_delito                        anio tasa_casos
##    <chr>                             <dbl>      <dbl>
##  1 Robo con violencia o intimidación  2012       95.6
##  2 Robo con violencia o intimidación  2013       80.3
##  3 Robo con violencia o intimidación  2014       73.8
##  4 Robo con violencia o intimidación  2015       58.6
##  5 Robo con violencia o intimidación  2016       78.3
##  6 Robo por sorpresa                  2012       15.1
##  7 Robo por sorpresa                  2013       19.1
##  8 Robo por sorpresa                  2014       15.9
##  9 Robo por sorpresa                  2015       18.2
## 10 Robo por sorpresa                  2016       20.6
## # … with 55 more rows
(Ejercicio c)

Genera una función f_procesar_excel_delitos() y testea que funcione con el Excel de la comuna de Porvenir. Tu código:

(Ejercicio d)

Obtén la lista de archivos Excel que queremos procesar, como un vector llamado “vector_archivos_delitos”.

Iteración

Podemos generar la iteración con map_dfr():

map_dfr(.x = vector_archivos_delitos, .f = ~f_procesar_excel_delitos(.x))

## # A tibble: 715 x 3
##    tipo_delito                        anio tasa_casos
##    <chr>                             <dbl>      <dbl>
##  1 Robo con violencia o intimidación  2012          0
##  2 Robo con violencia o intimidación  2013          0
##  3 Robo con violencia o intimidación  2014          0
##  4 Robo con violencia o intimidación  2015          0
##  5 Robo con violencia o intimidación  2016          0
##  6 Robo por sorpresa                  2012          0
##  7 Robo por sorpresa                  2013          0
##  8 Robo por sorpresa                  2014          0
##  9 Robo por sorpresa                  2015          0
## 10 Robo por sorpresa                  2016          0
## # … with 705 more rows
…
Listo, ahora podremos realizar la iteración y en el resultado incluir una columna con la comuna, gracias al argumento .id =:

df_delitos_magallanes <- map_dfr(
  .x = vector_archivos_delitos, .f = ~f_procesar_excel_delitos(.x), .id = "comuna"
  )

df_delitos_magallanes

## # A tibble: 715 x 4
##    comuna    tipo_delito                        anio tasa_casos
##    <chr>     <chr>                             <dbl>      <dbl>
##  1 Antartica Robo con violencia o intimidación  2012          0
##  2 Antartica Robo con violencia o intimidación  2013          0
##  3 Antartica Robo con violencia o intimidación  2014          0
##  4 Antartica Robo con violencia o intimidación  2015          0
##  5 Antartica Robo con violencia o intimidación  2016          0
##  6 Antartica Robo por sorpresa                  2012          0
##  7 Antartica Robo por sorpresa                  2013          0
##  8 Antartica Robo por sorpresa                  2014          0
##  9 Antartica Robo por sorpresa                  2015          0
## 10 Antartica Robo por sorpresa                  2016          0
## # … with 705 more rows
…
