02C - Manejo de datos (extras) | Programación en Ciencias Sociales
…
Aparte de hacer resúmenes, crear múltiples variables según una misma operación es bastante común.

Supongamos que queremos las cifras relativas (tasas) para cada tipo de delito, como en el siguiente ejemplo:

df_casos_policiales_l %>% 
  mutate(lesiones_leves_c1000 = lesiones_leves * 1000 / poblacion_ine_2017) %>% 
  select(comuna, poblacion_ine_2017, lesiones_leves, lesiones_leves_c1000) # solo para legibilidad

## # A tibble: 340 x 4
##    comuna          poblacion_ine_2017 lesiones_leves
##    <chr>                        <dbl>          <dbl>
##  1 Algarrobo                    10700             52
##  2 Alhué                         5916             26
##  3 Alto-Biobío                   5957             24
##  4 Alto-del-Carmen               6519              8
##  5 Alto-Hospicio               124872            523
##  6 Ancud                        44249            132
##  7 Andacollo                    11555             77
##  8 Angol                        55845            244
##  9 Antártica                      202              0
## 10 Antofagasta                 389812           1528
## # ... with 330 more rows, and 1 more variable:
## #   lesiones_leves_c1000 <dbl>

Podemos utilizar mutate_at() para repetir esta operación en todas nuestras variables de interés.

df_casos_policiales_l %>% 
  mutate_at(.vars = vars(robos_con_violencia_o_intimidacion:vif),
            .funs = list(c1000 = ~ . * 1000 / poblacion_ine_2017))

## # A tibble: 340 x 30
##    comuna         comuna_id region_id poblacion_ine_20~
##    <chr>              <dbl>     <dbl>             <dbl>
##  1 Algarrobo           5602         5             10700
##  2 Alhué              13502        13              5916
##  3 Alto-Biobío         8314         8              5957
##  4 Alto-del-Carm~      3302         3              6519
##  5 Alto-Hospicio       1107         1            124872
##  6 Ancud              10202        10             44249
##  7 Andacollo           4103         4             11555
##  8 Angol               9201         9             55845
##  9 Antártica          12202        12               202
## 10 Antofagasta         2101         2            389812
## # ... with 330 more rows, and 26 more variables:
## #   robos_con_violencia_o_intimidacion <dbl>,
## #   robos_por_sorpresa <dbl>,
## #   robos_de_vehiculo_motorizado <dbl>,
## #   robos_de_objeto_de_o_desde_vehiculo <dbl>,
## #   robos_en_lugar_habitado <dbl>,
## #   robos_en_lugar_no_habitado <dbl>,
## #   otros_robos_con_fuerza <dbl>, hurtos <dbl>,
## #   lesiones_menos_graves_graves_o_gravisimas <dbl>,
…
