05A - Manejo avanzado de datos (intro) | Programación en Ciencias Sociales
…
Tenemos una base de datos con los casos policiales de robos cada 1.000 habitantes. Contiene información para 340 comunas de Chile, 2012-2016. Su fuente es la Subsecretaría de Prevención del Delito (2017).

Pivotear bases de datos (wide <-> long)

¿Qué pasa si queremos graficar estos datos, por ejemplo viendo la evolución temporal de la variable en una comuna? El formato de los datos no es el ideal. Aquí los valores de una variable (año) se expandieron hacia las columnas, generando una base en formato wide.

Podemos “alargar” esta base usando la función pivot_longer(), de la siguiente manera:

df_tasa_robos_long <- df_tasa_robos %>% 
  pivot_longer(cols = -c(comuna, comuna_id), # descartamos vars. que no queremos transformar
               names_to = "anio", values_to = "tasa_robos")
df_tasa_robos_long

## # A tibble: 1,700 x 4
##    comuna    comuna_id anio  tasa_robos
##    <chr>         <dbl> <chr>      <dbl>
##  1 Algarrobo      5602 2012       4031.
##  2 Algarrobo      5602 2013       3612.
##  3 Algarrobo      5602 2014       3734.
##  4 Algarrobo      5602 2015       4231.
##  5 Algarrobo      5602 2016       3665.
##  6 Alhué         13502 2012        796.
##  7 Alhué         13502 2013        950.
##  8 Alhué         13502 2014       1167.
##  9 Alhué         13502 2015        606.
## 10 Alhué         13502 2016        956.
## # ... with 1,690 more rows
…
Noten que pivot_longer() tiene una función recíproca, pivot_wider():

df_tasa_robos_long %>% 
  pivot_wider(names_from = "anio", values_from = "tasa_robos")

## # A tibble: 340 x 7
##    comuna    comuna_id `2012` `2013` `2014`
##    <chr>         <dbl>  <dbl>  <dbl>  <dbl>
##  1 Algarrobo      5602  4031.  3612.  3734.
##  2 Alhué         13502   796.   950.  1167.
##  3 Alto-Bio~      8314   225.   305.   245.
##  4 Alto-del~      3302   208.   209.   397.
##  5 Alto-Hos~      1107  2589.  2218.  1930.
##  6 Ancud         10202   579.   763.   697.
##  7 Andacollo      4103   759.   640.   892.
##  8 Angol          9201  1400.  1515.  1822.
##  9 Antártica     12202     0      0      0 
## 10 Antofaga~      2101  2178.  1892.  1938.
## # ... with 330 more rows, and 2 more
## #   variables: 2015 <dbl>, 2016 <dbl>

Recodificar variables

Supongamos que, usando nuestra nueva base long, queremos crear una variable binaria/dummy que indique si la observación es para el gobierno de Piñera I o Bachelet II. Podemos usar if_else() dentro de mutate():

df_tasa_robos_long %>% 
  mutate(d_gob_bachelet = if_else(condition = anio >= 2014, 
                                  true      = 1,
                                  false     = 0))

## # A tibble: 1,700 x 5
##    comuna    comuna_id anio  tasa_robos
##    <chr>         <dbl> <chr>      <dbl>
##  1 Algarrobo      5602 2012       4031.
##  2 Algarrobo      5602 2013       3612.
##  3 Algarrobo      5602 2014       3734.
##  4 Algarrobo      5602 2015       4231.
##  5 Algarrobo      5602 2016       3665.
##  6 Alhué         13502 2012        796.
##  7 Alhué         13502 2013        950.
##  8 Alhué         13502 2014       1167.
##  9 Alhué         13502 2015        606.
## 10 Alhué         13502 2016        956.
## # ... with 1,690 more rows, and 1 more
## #   variable: d_gob_bachelet <dbl>

if_else() nos sirve si es que queremos crear variables binarias (numéricas o no). Pero a menudo queremos asignar más categorías. En esos casos podemos usar case_when():

df_tasa_robos_long %>% 
  mutate(gobierno = case_when(anio < 2014  ~ "Piñera I", # condición ~ valor
                              anio == 2014 ~ "Cambio de mando",
                              anio > 2014  ~ "Bachelet II"))

## # A tibble: 1,700 x 5
##    comuna    comuna_id anio  tasa_robos
##    <chr>         <dbl> <chr>      <dbl>
##  1 Algarrobo      5602 2012       4031.
##  2 Algarrobo      5602 2013       3612.
##  3 Algarrobo      5602 2014       3734.
##  4 Algarrobo      5602 2015       4231.
##  5 Algarrobo      5602 2016       3665.
##  6 Alhué         13502 2012        796.
##  7 Alhué         13502 2013        950.
##  8 Alhué         13502 2014       1167.
##  9 Alhué         13502 2015        606.
## 10 Alhué         13502 2016        956.
## # ... with 1,690 more rows, and 1 more
## #   variable: gobierno <chr>

Una opción válida al usar case_when() es asignar un valor para “cualquier otro caso”:

df_tasa_robos_long %>% 
  mutate(gobierno = case_when(anio < 2014  ~ "Piñera I", 
                              anio == 2014 ~ "Cambio de mando",
                              TRUE         ~ "Bachelet II")) # en cualquier otro caso

## # A tibble: 1,700 x 5
##    comuna    comuna_id anio  tasa_robos
##    <chr>         <dbl> <chr>      <dbl>
##  1 Algarrobo      5602 2012       4031.
##  2 Algarrobo      5602 2013       3612.
##  3 Algarrobo      5602 2014       3734.
##  4 Algarrobo      5602 2015       4231.
##  5 Algarrobo      5602 2016       3665.
##  6 Alhué         13502 2012        796.
##  7 Alhué         13502 2013        950.
##  8 Alhué         13502 2014       1167.
##  9 Alhué         13502 2015        606.
## 10 Alhué         13502 2016        956.
## # ... with 1,690 more rows, and 1 more
## #   variable: gobierno <chr>
…
Para el resto de la clase trabajaremos también con datos de robos, esta vez para los países del Cono Sur (2006-2016). La fuente es la Oficina de las Naciones Unidas contra la Droga y el Delito (UNODC).

df_robos_cono_sur <- read_csv("datos/robos_cono_sur.csv")

## Parsed with column specification:
## cols(
##   pais = col_character(),
##   pais_codigo = col_character(),
##   anio = col_double(),
##   robos_c100k = col_double()
## )

df_robos_cono_sur

## # A tibble: 33 x 4
##    pais      pais_codigo  anio robos_c100k
##    <chr>     <chr>       <dbl>       <dbl>
##  1 Argentina ARG          2006        738.
##  2 Argentina ARG          2007        662.
##  3 Argentina ARG          2008        704.
##  4 Argentina ARG          2009         NA 
##  5 Argentina ARG          2010         NA 
##  6 Argentina ARG          2011         NA 
##  7 Argentina ARG          2012         NA 
##  8 Argentina ARG          2013         NA 
##  9 Argentina ARG          2014        668.
## 10 Argentina ARG          2015        626.
## # ... with 23 more rows
…
## # A tibble: 5 x 4
##   pais      pais_codigo  anio robos_c100k
##   <chr>     <chr>       <dbl>       <dbl>
## 1 Argentina ARG          2009          NA
## 2 Argentina ARG          2010          NA
## 3 Argentina ARG          2011          NA
## 4 Argentina ARG          2012          NA
## 5 Argentina ARG          2013          NA

Podemos realizar una negación en una operación lógica antecediéndola de un signo de exclamación. En este caso, obtendremos solo las observaciones que no tienen NA en “robos_c100k”:

df_robos_cono_sur %>% 
  filter(!is.na(robos_c100k))

## # A tibble: 28 x 4
##    pais      pais_codigo  anio robos_c100k
##    <chr>     <chr>       <dbl>       <dbl>
##  1 Argentina ARG          2006        738.
##  2 Argentina ARG          2007        662.
##  3 Argentina ARG          2008        704.
##  4 Argentina ARG          2014        668.
##  5 Argentina ARG          2015        626.
##  6 Argentina ARG          2016        616.
##  7 Chile     CHL          2006        942.
##  8 Chile     CHL          2007       1018.
##  9 Chile     CHL          2008       1054.
## 10 Chile     CHL          2009       1136.
## # ... with 18 more rows

Crear valores perdidos

df_robos_cono_sur

## # A tibble: 33 x 4
##    pais      pais_codigo  anio robos_c100k
##    <chr>     <chr>       <dbl>       <dbl>
##  1 Argentina ARG          2006        738.
##  2 Argentina ARG          2007        662.
##  3 Argentina ARG          2008        704.
##  4 Argentina ARG          2009         NA 
##  5 Argentina ARG          2010         NA 
##  6 Argentina ARG          2011         NA 
##  7 Argentina ARG          2012         NA 
##  8 Argentina ARG          2013         NA 
##  9 Argentina ARG          2014        668.
## 10 Argentina ARG          2015        626.
## # ... with 23 more rows
…
df_robos_cono_sur %>% 
  mutate(robos_c100k = case_when(
    pais == "Argentina" & anio <= 2008 ~ NA,
    TRUE                               ~ robos_c100k
  ))

Lo anterior falla, pese a que la sintaxis de case_when() es correcta! El problema es que cuando creamos valores perdidos debemos decirle explícitamente a R qué tipo de NAs utilizaremos, según el tipo de vector. Los tipos más comunes son NA_character_ (para vectores de caracteres, chr) o NA_real_ (para vectores de números reales, dbl). Veamos cómo ahora funcionará:

df_robos_cono_sur %>% 
  mutate(robos_c100k = case_when(
    pais == "Argentina" & anio <= 2008 ~ NA_real_,
    TRUE                               ~ robos_c100k
  ))

## # A tibble: 33 x 4
##    pais      pais_codigo  anio robos_c100k
##    <chr>     <chr>       <dbl>       <dbl>
##  1 Argentina ARG          2006         NA 
##  2 Argentina ARG          2007         NA 
##  3 Argentina ARG          2008         NA 
##  4 Argentina ARG          2009         NA 
##  5 Argentina ARG          2010         NA 
##  6 Argentina ARG          2011         NA 
##  7 Argentina ARG          2012         NA 
##  8 Argentina ARG          2013         NA 
##  9 Argentina ARG          2014        668.
## 10 Argentina ARG          2015        626.
## # ... with 23 more rows
…
df_wdi <- read_csv("datos/wdi_cono_sur.csv")

## Parsed with column specification:
## cols(
##   .default = col_double(),
##   pais_codigo = col_character(),
##   external_debt_stocks_total_dod_current_us = col_logical(),
##   total_debt_service_percent_of_exports_of_goods_services_and_primary_income = col_logical()
## )

## See spec(...) for full column specifications.

df_wdi

## # A tibble: 30 x 57
##    pais_codigo  anio population_total
##    <chr>       <dbl>            <dbl>
##  1 ARG          2007         39684295
##  2 CHL          2007         16530195
##  3 URY          2007          3331749
##  4 ARG          2008         40080160
##  5 CHL          2008         16708258
##  6 URY          2008          3340221
##  7 ARG          2009         40482788
##  8 CHL          2009         16886186
##  9 URY          2009          3349676
## 10 ARG          2010         40788453
## # ... with 20 more rows, and 54 more
## #   variables:
## #   population_growth_annual_percent <dbl>,
## #   surface_area_sq_km <dbl>,
## #   population_density_people_per_sq_km_of_land_area <dbl>,
## #   poverty_headcount_ratio_at_national_poverty_lines_percent_of_population <dbl>,
## #   poverty_headcount_ratio_at_1_90_a_day_2011_ppp_percent_of_population <dbl>,
## #   gni_atlas_method_current_us <dbl>,
## #   gni_per_capita_atlas_method_current_us <dbl>,
…
## # A tibble: 2 x 1
##       x
##   <dbl>
## 1     1
## 2     2

Lo mejor es realizar una unión de bases (merge/join). Lejos la más común de estas operaciones es la unión izquierda, en la que queremos añadir información a una base (la izquierda) a partir de otra (la derecha). left_join() nos permitirá hacer esto, mirando las observaciones de ambas bases donde las columnas de identificación toman los mismos valores:

df_robos_cono_sur_con_wdi <- left_join(
  x = df_robos_cono_sur, y = df_wdi,
  by = c("pais_codigo", "anio") # by dice cuáles son las variables de id.
)
df_robos_cono_sur_con_wdi

## # A tibble: 33 x 59
##    pais      pais_codigo  anio robos_c100k
##    <chr>     <chr>       <dbl>       <dbl>
##  1 Argentina ARG          2006        738.
##  2 Argentina ARG          2007        662.
##  3 Argentina ARG          2008        704.
##  4 Argentina ARG          2009         NA 
##  5 Argentina ARG          2010         NA 
##  6 Argentina ARG          2011         NA 
##  7 Argentina ARG          2012         NA 
##  8 Argentina ARG          2013         NA 
##  9 Argentina ARG          2014        668.
## 10 Argentina ARG          2015        626.
## # ... with 23 more rows, and 55 more
## #   variables: population_total <dbl>,
## #   population_growth_annual_percent <dbl>,
## #   surface_area_sq_km <dbl>,
## #   population_density_people_per_sq_km_of_land_area <dbl>,
## #   poverty_headcount_ratio_at_national_poverty_lines_percent_of_population <dbl>,
## #   poverty_headcount_ratio_at_1_90_a_day_2011_ppp_percent_of_population <dbl>,
## #   gni_atlas_method_current_us <dbl>,
## #   gni_per_capita_atlas_method_current_us <dbl>,
…
