06A - Análisis de texto | Programación en Ciencias Sociales
…
La unidad de análisis de estas bases de datos es la línea de texto. Esto es bastante común en los cuerpos de texto que provienen de libros / recursos impresos (la mayoría). Es probable que sea igual en, por ejemplo, programas de candidaturas políticas.

Lo más común en análisis de texto, sin embargo, es analizar palabras o n-gramas (conjuntos de palabras). Esto no quita que a veces otras unidades de análisis sean interesantes (líneas, párrafos, capítulos, etc.), dependiendo de nuestras preguntas de investigación.

Estas diferentes unidades de análisis de texto se llaman “tokens” en tidytext, y es posible pasar una base a una unidad de análisis más pequeña con la función unnest_tokens(). Obtengamos las palabras en “Leviathan”:

palabras_leviathan <- leviathan %>% 
  unnest_tokens(output = word, input = text, token = "words")

¿Cuáles son las palabras más usadas en el libro?

palabras_leviathan %>% 
  count(word, sort = TRUE)

## # A tibble: 9,965 x 2
##    word      n
##    <chr> <int>
##  1 the   14969
##  2 of    10867
##  3 and    7336
##  4 to     7275
##  5 is     4863
##  6 that   4810
##  7 in     4155
##  8 a      3145
##  9 by     2635
## 10 for    2523
## # ... with 9,955 more rows
…
palabras_leviathan_limpio <- leviathan %>% 
  unnest_tokens(output = word, input = text, token = "words") %>% 
  # filtrar stop words!
  filter(!(word %in% stop_words_en))

palabras_leviathan_limpio

## # A tibble: 79,118 x 6
##    author  book  gutenberg_id chapter  line
##    <chr>   <chr>        <dbl>   <dbl> <dbl>
##  1 Thomas~ Levi~         3207       0     1
##  2 Thomas~ Levi~         3207       0     2
##  3 Thomas~ Levi~         3207       0     2
##  4 Thomas~ Levi~         3207       0     3
##  5 Thomas~ Levi~         3207       0     4
##  6 Thomas~ Levi~         3207       0     4
##  7 Thomas~ Levi~         3207       0     4
##  8 Thomas~ Levi~         3207       0     4
##  9 Thomas~ Levi~         3207       0     4
## 10 Thomas~ Levi~         3207       0     4
## # ... with 79,108 more rows, and 1 more
## #   variable: word <chr>

Ahora calculemos las frecuencias:

palabras_leviathan_limpio %>% 
  count(word, sort = T)

## # A tibble: 9,559 x 2
##    word          n
##    <chr>     <int>
##  1 man        1071
##  2 god        1068
##  3 men         998
##  4 power       745
##  5 law         662
##  6 common      632
##  7 soveraign   497
##  8 hath        446
##  9 wealth      438
## 10 nature      420
## # ... with 9,549 more rows
…
Comparar frecuencias de palabras entre documentos

Es claro que los dos libros (documentos) ocupan un vocabulario marcadamente distinto. Podemos graficar esta diferencia.

Primero vamos a crear bases de datos para ambos libros, que contengan la proporción de cada palabra en el texto:

prop_palabras_leviathan <- palabras_leviathan_limpio %>% 
  count(word, sort = T) %>% 
  mutate(prop_leviathan = n / sum(n)) %>% 
  select(-n)

prop_palabras_leviathan

## # A tibble: 9,559 x 2
##    word      prop_leviathan
##    <chr>              <dbl>
##  1 man              0.0135 
##  2 god              0.0135 
##  3 men              0.0126 
##  4 power            0.00942
##  5 law              0.00837
##  6 common           0.00799
##  7 soveraign        0.00628
##  8 hath             0.00564
##  9 wealth           0.00554
## 10 nature           0.00531
## # ... with 9,549 more rows

prop_palabras_rights <- palabras_rights_limpio %>% 
  count(word, sort = T) %>% 
  mutate(prop_rights = n / sum(n)) %>% 
  select(-n)

prop_palabras_rights

## # A tibble: 7,386 x 2
##    word   prop_rights
##    <chr>        <dbl>
##  1 women      0.0124 
##  2 man        0.00857
##  3 men        0.00832
##  4 reason     0.00735
##  5 mind       0.00645
##  6 virtue     0.00551
##  7 woman      0.00529
##  8 love       0.00481
##  9 life       0.00473
## 10 nature     0.00409
## # ... with 7,376 more rows

Ahora vamos a unir las bases de datos, utilizando un full_join(), que básicamente conservará todas las filas y columnas de ambas. Cuando no encuentre un match para llenar una celda, full_join dejará un NA, por lo que en el segundo comando reemplazaremos esos NA por 0, utilizando replace_na():

props_lev_women <- full_join(prop_palabras_leviathan, 
                             prop_palabras_rights, 
                             by = "word") %>% 
  replace_na(replace = list(prop_leviathan = 0, prop_rights = 0))

props_lev_women

## # A tibble: 13,731 x 3
##    word      prop_leviathan prop_rights
##    <chr>              <dbl>       <dbl>
##  1 man              0.0135     0.00857 
##  2 god              0.0135     0.00153 
##  3 men              0.0126     0.00832 
##  4 power            0.00942    0.00267 
##  5 law              0.00837    0.000445
##  6 common           0.00799    0.00198 
##  7 soveraign        0.00628    0       
##  8 hath             0.00564    0.000223
##  9 wealth           0.00554    0.000390
## 10 nature           0.00531    0.00409 
## # ... with 13,721 more rows
…
## [1] 0.2079442

La función bind_tf_idf() nos permite calcular rápidamente el tf_idf para un conteo de palabras. Obtengamos las diez palabras más distintivas de cada capítulo del libro de Wollstonecraft:

tf_idf_rights <- palabras_rights_limpio %>% 
  filter(chapter != 0) %>% 
  count(word, chapter, sort = T) %>% 
  # fíjense en los argumentos:
  bind_tf_idf(term = word, document = chapter, n = n)

tf_idf_rights

## # A tibble: 18,020 x 6
##    word   chapter     n      tf    idf
##    <chr>    <dbl> <int>   <dbl>  <dbl>
##  1 women        4    86 0.0183  0     
##  2 reason       5    68 0.0104  0     
##  3 man          5    61 0.00934 0     
##  4 women       12    51 0.0124  0     
##  5 women       13    51 0.0171  0     
##  6 women        2    48 0.0140  0     
##  7 men          4    47 0.0100  0.0800
##  8 woman        5    45 0.00689 0.167 
##  9 man          2    43 0.0126  0     
## 10 man          4    43 0.00917 0     
## # ... with 18,010 more rows, and 1 more
## #   variable: tf_idf <dbl>

# ahora vamos a quedarnos solo con los diez tf-idf más altos por documento (capítulo): 
rank_tf_idf_rights <- tf_idf_rights %>% 
  group_by(chapter) %>% 
  arrange(-tf_idf) %>% 
  slice(1:10) %>% 
  ungroup()

rank_tf_idf_rights

## # A tibble: 130 x 6
##    word         chapter     n      tf   idf
##    <chr>          <dbl> <int>   <dbl> <dbl>
##  1 profession         1     5 0.00382 1.47 
##  2 barbarism          1     3 0.00229 1.87 
##  3 thousands          1     3 0.00229 1.87 
##  4 curate             1     2 0.00153 2.56 
##  5 deformity          1     2 0.00153 2.56 
##  6 monarchy           1     2 0.00153 2.56 
##  7 pushes             1     2 0.00153 2.56 
##  8 unsound            1     2 0.00153 2.56 
##  9 perfection         1     5 0.00382 0.956
## 10 civilization       1     6 0.00458 0.773
## # ... with 120 more rows, and 1 more
## #   variable: tf_idf <dbl>
…
