07B - Web scraping | Programación en Ciencias Sociales
…
Así, podemos iterar esta función en nuestros cinco archivos para crear una base completa (páginas 1-5). Ahora no utilizaremos walk(), sino que map_dfr() (aquí decidí no conservar el número de página).

archivos <- list.files("webs/", full.names = T)
archivos

## [1] "webs//mostrador_1.html" "webs//mostrador_2.html" "webs//mostrador_3.html" "webs//mostrador_4.html" "webs//mostrador_5.html"

df_mostrador_1_5 <- map_dfr(.x = archivos,
                            .f = ~ {f_procesar_sitio(.x)})
df_mostrador_1_5

## # A tibble: 50 x 3
##    titulo                                                                                link                                                                                                                                      autor                  
##    <chr>                                                                                 <chr>                                                                                                                                     <chr>                  
##  1 Convención y participación: un camino sin retorno                                     https://www.elmostrador.cl/noticias/opinion/columnas/2021/05/24/convencion-y-participacion-un-camino-sin-retorno/                         Vicente Gerlach        
##  2 Arrebol de nuevos amaneceres                                                          https://www.elmostrador.cl/noticias/opinion/columnas/2021/05/24/arrebol-de-nuevos-amaneceres/                                             María Ignacia Ibarra   
##  3 IVA diferenciado: ¿transitorio o permanente?                                          https://www.elmostrador.cl/noticias/opinion/columnas/2021/05/24/iva-diferenciado-transitorio-o-permanente/                                Hernán Calderón        
##  4 Oposición: la teleserie más mala de todas                                             https://www.elmostrador.cl/destacado/2021/05/24/oposicion-la-teleserie-mas-mala-de-todas/                                                 Germán Silva Cuadra    
##  5 Más allá de la “emergencia”: pensar una Renta Básica Universal como política permane… https://www.elmostrador.cl/destacado/2021/05/24/mas-alla-de-la-emergencia-pensar-una-renta-basica-universal-como-politica-permanente/     Carolina Rojas Lash    
##  6 La Convención constituyente y el camino de regreso a una sociedad más justa           https://www.elmostrador.cl/noticias/opinion/columnas/2021/05/23/la-convencion-constituyente-y-el-camino-de-regreso-a-una-sociedad-mas-ju… Enrique Fernández Darr…
##  7 ¡Distanciamiento físico, no social…por favor!                                         https://www.elmostrador.cl/noticias/opinion/columnas/2021/05/23/distanciamiento-fisico-no-socialpor-favor/                                Mauricio Vial          
##  8 Por fin: comenzó la competencia de medios de pago                                     https://www.elmostrador.cl/noticias/opinion/columnas/2021/05/23/por-fin-comenzo-la-competencia-de-medios-de-pago/                         Diego Soffia           
##  9 Boric versus Jadue                                                                    https://www.elmostrador.cl/noticias/opinion/columnas/2021/05/23/boric-versus-jadue/                                                       Eugenio Rivera Urrutia 
## 10 Nuestro mayor poder: la ciudadanía independiente                                      https://www.elmostrador.cl/noticias/opinion/columnas/2021/05/23/nuestro-mayor-poder-la-ciudadania-independiente/                          Aleka Vial             
## # … with 40 more rows
…
