02A - Manejo de datos | Programación en Ciencias Sociales
…
Resúmenes simples para data frames

El resumen más simple de un objeto en R suele poder obtenerse con su nombre comando. Nota cómo debajo de cada nombre, algunas variables tienen <dbl> y otras <chr>. ¿Qué significa esto?

df_aprob

## # A tibble: 1,020 x 12
##    country    year quarter president       
##    <chr>     <dbl>   <dbl> <chr>           
##  1 Argentina  2000       1 Fernando de la ~
##  2 Argentina  2000       2 Fernando de la ~
##  3 Argentina  2000       3 Fernando de la ~
##  4 Argentina  2000       4 Fernando de la ~
##  5 Argentina  2001       1 Fernando de la ~
##  6 Argentina  2001       2 Fernando de la ~
##  7 Argentina  2001       3 Fernando de la ~
##  8 Argentina  2001       4 Fernando de la ~
##  9 Argentina  2002       1 Eduardo Alberto~
## 10 Argentina  2002       2 Eduardo Alberto~
## # ... with 1,010 more rows, and 8 more
## #   variables: net_approval <dbl>,
## #   pres_sex <chr>, pres_sex_d <dbl>,
## #   exec_corr <dbl>, gdp_growth <dbl>,
## #   unemp <dbl>, wdi_gdp <dbl>,
## #   wdi_pop <dbl>
…
wdi_pop

Manejo de datos: operaciones básicas

En todas las operaciones básicas que veremos hoy el primer argumento en la función será el data frame a editar.

Seleccionar columnas con select()

Seleccionemos solo la columna de países:

select(df_aprob, country)

## # A tibble: 1,020 x 1
##    country  
##    <chr>    
##  1 Argentina
##  2 Argentina
##  3 Argentina
##  4 Argentina
##  5 Argentina
##  6 Argentina
##  7 Argentina
##  8 Argentina
##  9 Argentina
## 10 Argentina
## # ... with 1,010 more rows

Recuerda que esto no creó ningún objeto nuevo, es solo un comando que estamos ejecutando en la consola. Si quisiéramos crear un objeto nuevo, tendríamos que asignarlo:

df_aprob_reducida <- select(df_aprob, country)
df_aprob_reducida

## # A tibble: 1,020 x 1
##    country  
##    <chr>    
##  1 Argentina
##  2 Argentina
##  3 Argentina
##  4 Argentina
##  5 Argentina
##  6 Argentina
##  7 Argentina
##  8 Argentina
##  9 Argentina
## 10 Argentina
## # ... with 1,010 more rows

Podemos seleccionar múltiples columnas a la vez, separadas por comas:

select(df_aprob, country, year, unemp)

## # A tibble: 1,020 x 3
##    country    year unemp
##    <chr>     <dbl> <dbl>
##  1 Argentina  2000  15  
##  2 Argentina  2000  15  
##  3 Argentina  2000  15  
##  4 Argentina  2000  15  
##  5 Argentina  2001  18.3
##  6 Argentina  2001  18.3
##  7 Argentina  2001  18.3
##  8 Argentina  2001  18.3
##  9 Argentina  2002  17.9
## 10 Argentina  2002  17.9
## # ... with 1,010 more rows

Supongamos que queremos las primeras cinco variables de la base de datos. Las siguientes tres formas nos permitirán obtenerlas:

select(df_aprob, country, year, quarter, president, net_approval)

## # A tibble: 1,020 x 5
##    country    year quarter president       
##    <chr>     <dbl>   <dbl> <chr>           
##  1 Argentina  2000       1 Fernando de la ~
##  2 Argentina  2000       2 Fernando de la ~
##  3 Argentina  2000       3 Fernando de la ~
##  4 Argentina  2000       4 Fernando de la ~
##  5 Argentina  2001       1 Fernando de la ~
##  6 Argentina  2001       2 Fernando de la ~
##  7 Argentina  2001       3 Fernando de la ~
##  8 Argentina  2001       4 Fernando de la ~
##  9 Argentina  2002       1 Eduardo Alberto~
## 10 Argentina  2002       2 Eduardo Alberto~
## # ... with 1,010 more rows, and 1 more
## #   variable: net_approval <dbl>

select(df_aprob, country:net_approval) # esta es la forma recomendada para la mayoría de los casos

## # A tibble: 1,020 x 5
##    country    year quarter president       
##    <chr>     <dbl>   <dbl> <chr>           
##  1 Argentina  2000       1 Fernando de la ~
##  2 Argentina  2000       2 Fernando de la ~
##  3 Argentina  2000       3 Fernando de la ~
##  4 Argentina  2000       4 Fernando de la ~
##  5 Argentina  2001       1 Fernando de la ~
##  6 Argentina  2001       2 Fernando de la ~
##  7 Argentina  2001       3 Fernando de la ~
##  8 Argentina  2001       4 Fernando de la ~
##  9 Argentina  2002       1 Eduardo Alberto~
## 10 Argentina  2002       2 Eduardo Alberto~
## # ... with 1,010 more rows, and 1 more
## #   variable: net_approval <dbl>

select(df_aprob, 1:5)

## # A tibble: 1,020 x 5
##    country    year quarter president       
##    <chr>     <dbl>   <dbl> <chr>           
##  1 Argentina  2000       1 Fernando de la ~
##  2 Argentina  2000       2 Fernando de la ~
##  3 Argentina  2000       3 Fernando de la ~
##  4 Argentina  2000       4 Fernando de la ~
##  5 Argentina  2001       1 Fernando de la ~
##  6 Argentina  2001       2 Fernando de la ~
##  7 Argentina  2001       3 Fernando de la ~
##  8 Argentina  2001       4 Fernando de la ~
##  9 Argentina  2002       1 Eduardo Alberto~
## 10 Argentina  2002       2 Eduardo Alberto~
## # ... with 1,010 more rows, and 1 more
## #   variable: net_approval <dbl>

El comando select() también nos sirve para reordenar las columnas. Supongamos que queremos que la variable president sea la primera. Podemos hacer algo como esto:

select(df_aprob, president, country:year, net_approval:unemp)

## # A tibble: 1,020 x 9
##    president     country  year net_approval
##    <chr>         <chr>   <dbl>        <dbl>
##  1 Fernando de ~ Argent~  2000        40.1 
##  2 Fernando de ~ Argent~  2000        16.4 
##  3 Fernando de ~ Argent~  2000        24.0 
##  4 Fernando de ~ Argent~  2000       -18.3 
##  5 Fernando de ~ Argent~  2001        -6.97
##  6 Fernando de ~ Argent~  2001       -20.1 
##  7 Fernando de ~ Argent~  2001       -19.4 
##  8 Fernando de ~ Argent~  2001       -23.2 
##  9 Eduardo Albe~ Argent~  2002        -2.01
## 10 Eduardo Albe~ Argent~  2002       -20.1 
## # ... with 1,010 more rows, and 5 more
## #   variables: pres_sex <chr>,
## #   pres_sex_d <dbl>, exec_corr <dbl>,
## #   gdp_growth <dbl>, unemp <dbl>

Esta forma es un poco tediosa. Hay una función de ayuda que nos será útil en este caso, se llama everything()

select(df_aprob, president, everything()) # selecciona "president" y todo lo demás

## # A tibble: 1,020 x 12
##    president         country   year quarter
##    <chr>             <chr>    <dbl>   <dbl>
##  1 Fernando de la R~ Argenti~  2000       1
##  2 Fernando de la R~ Argenti~  2000       2
##  3 Fernando de la R~ Argenti~  2000       3
##  4 Fernando de la R~ Argenti~  2000       4
##  5 Fernando de la R~ Argenti~  2001       1
##  6 Fernando de la R~ Argenti~  2001       2
##  7 Fernando de la R~ Argenti~  2001       3
##  8 Fernando de la R~ Argenti~  2001       4
##  9 Eduardo Alberto ~ Argenti~  2002       1
## 10 Eduardo Alberto ~ Argenti~  2002       2
## # ... with 1,010 more rows, and 8 more
## #   variables: net_approval <dbl>,
## #   pres_sex <chr>, pres_sex_d <dbl>,
## #   exec_corr <dbl>, gdp_growth <dbl>,
## #   unemp <dbl>, wdi_gdp <dbl>,
## #   wdi_pop <dbl>

Finalmente, también podemos excluir variables con un signo -:

select(df_aprob, -president)

## # A tibble: 1,020 x 11
##    country    year quarter net_approval
##    <chr>     <dbl>   <dbl>        <dbl>
##  1 Argentina  2000       1        40.1 
##  2 Argentina  2000       2        16.4 
##  3 Argentina  2000       3        24.0 
##  4 Argentina  2000       4       -18.3 
##  5 Argentina  2001       1        -6.97
##  6 Argentina  2001       2       -20.1 
##  7 Argentina  2001       3       -19.4 
##  8 Argentina  2001       4       -23.2 
##  9 Argentina  2002       1        -2.01
## 10 Argentina  2002       2       -20.1 
## # ... with 1,010 more rows, and 7 more
## #   variables: pres_sex <chr>,
## #   pres_sex_d <dbl>, exec_corr <dbl>,
## #   gdp_growth <dbl>, unemp <dbl>,
## #   wdi_gdp <dbl>, wdi_pop <dbl>

Renombrar columnas con rename()

Podemos cambiar el nombre de una columna con el comando rename(). Por ejemplo:

rename(df_aprob, trimeste = quarter) # noten que no estoy modificando la base, solo imprimiéndola!

## # A tibble: 1,020 x 12
##    country   year trimeste president       
##    <chr>    <dbl>    <dbl> <chr>           
##  1 Argenti~  2000        1 Fernando de la ~
##  2 Argenti~  2000        2 Fernando de la ~
##  3 Argenti~  2000        3 Fernando de la ~
##  4 Argenti~  2000        4 Fernando de la ~
##  5 Argenti~  2001        1 Fernando de la ~
##  6 Argenti~  2001        2 Fernando de la ~
##  7 Argenti~  2001        3 Fernando de la ~
##  8 Argenti~  2001        4 Fernando de la ~
##  9 Argenti~  2002        1 Eduardo Alberto~
## 10 Argenti~  2002        2 Eduardo Alberto~
## # ... with 1,010 more rows, and 8 more
## #   variables: net_approval <dbl>,
## #   pres_sex <chr>, pres_sex_d <dbl>,
## #   exec_corr <dbl>, gdp_growth <dbl>,
## #   unemp <dbl>, wdi_gdp <dbl>,
## #   wdi_pop <dbl>

Filtrar observaciones con filter()

A menudo queremos quedarnos solo con algunas observaciones de nuestra base de datos, filtrando de acuerdo a características específicas. Podemos hacer esto gracias a la función filter() y algo llamado “operadores lógicos”. Para comenzar, quedémonos solo con las observaciones de Chile:

filter(df_aprob, country == "Chile")

## # A tibble: 60 x 12
##    country  year quarter president         
##    <chr>   <dbl>   <dbl> <chr>             
##  1 Chile    2000       1 Eduardo Frei Ruiz~
##  2 Chile    2000       2 Ricardo Lagos Esc~
##  3 Chile    2000       3 Ricardo Lagos Esc~
##  4 Chile    2000       4 Ricardo Lagos Esc~
##  5 Chile    2001       1 Ricardo Lagos Esc~
##  6 Chile    2001       2 Ricardo Lagos Esc~
##  7 Chile    2001       3 Ricardo Lagos Esc~
##  8 Chile    2001       4 Ricardo Lagos Esc~
##  9 Chile    2002       1 Ricardo Lagos Esc~
## 10 Chile    2002       2 Ricardo Lagos Esc~
## # ... with 50 more rows, and 8 more
## #   variables: net_approval <dbl>,
## #   pres_sex <chr>, pres_sex_d <dbl>,
## #   exec_corr <dbl>, gdp_growth <dbl>,
## #   unemp <dbl>, wdi_gdp <dbl>,
## #   wdi_pop <dbl>
…
&
intersección

|
unión

%in%
está contenido en

Por ejemplo, podemos obtener todas las observaciones (país-año-trimestre) en las que la aprobación presidencial neta es positiva:

filter(df_aprob, net_approval > 0)

## # A tibble: 709 x 12
##    country    year quarter president       
##    <chr>     <dbl>   <dbl> <chr>           
##  1 Argentina  2000       1 Fernando de la ~
##  2 Argentina  2000       2 Fernando de la ~
##  3 Argentina  2000       3 Fernando de la ~
##  4 Argentina  2003       2 Eduardo Alberto~
##  5 Argentina  2003       3 Néstor Carlos K~
##  6 Argentina  2003       4 Néstor Carlos K~
##  7 Argentina  2004       1 Néstor Carlos K~
##  8 Argentina  2004       2 Néstor Carlos K~
##  9 Argentina  2004       3 Néstor Carlos K~
## 10 Argentina  2004       4 Néstor Carlos K~
## # ... with 699 more rows, and 8 more
## #   variables: net_approval <dbl>,
## #   pres_sex <chr>, pres_sex_d <dbl>,
## #   exec_corr <dbl>, gdp_growth <dbl>,
## #   unemp <dbl>, wdi_gdp <dbl>,
## #   wdi_pop <dbl>

Podemos también realizar filtros más complejos. Obtengamos solo las observaciones del Cono Sur:

filter(df_aprob, country == "Argentina" | country == "Chile" | country == "Uruguay")

## # A tibble: 180 x 12
##    country    year quarter president       
##    <chr>     <dbl>   <dbl> <chr>           
##  1 Argentina  2000       1 Fernando de la ~
##  2 Argentina  2000       2 Fernando de la ~
##  3 Argentina  2000       3 Fernando de la ~
##  4 Argentina  2000       4 Fernando de la ~
##  5 Argentina  2001       1 Fernando de la ~
##  6 Argentina  2001       2 Fernando de la ~
##  7 Argentina  2001       3 Fernando de la ~
##  8 Argentina  2001       4 Fernando de la ~
##  9 Argentina  2002       1 Eduardo Alberto~
## 10 Argentina  2002       2 Eduardo Alberto~
## # ... with 170 more rows, and 8 more
## #   variables: net_approval <dbl>,
## #   pres_sex <chr>, pres_sex_d <dbl>,
## #   exec_corr <dbl>, gdp_growth <dbl>,
## #   unemp <dbl>, wdi_gdp <dbl>,
## #   wdi_pop <dbl>

filter(df_aprob, country %in% c("Argentina", "Chile", "Uruguay")) # lo mismo, con otro op. lógico

## # A tibble: 180 x 12
##    country    year quarter president       
##    <chr>     <dbl>   <dbl> <chr>           
##  1 Argentina  2000       1 Fernando de la ~
##  2 Argentina  2000       2 Fernando de la ~
##  3 Argentina  2000       3 Fernando de la ~
##  4 Argentina  2000       4 Fernando de la ~
##  5 Argentina  2001       1 Fernando de la ~
##  6 Argentina  2001       2 Fernando de la ~
##  7 Argentina  2001       3 Fernando de la ~
##  8 Argentina  2001       4 Fernando de la ~
##  9 Argentina  2002       1 Eduardo Alberto~
## 10 Argentina  2002       2 Eduardo Alberto~
## # ... with 170 more rows, and 8 more
## #   variables: net_approval <dbl>,
## #   pres_sex <chr>, pres_sex_d <dbl>,
## #   exec_corr <dbl>, gdp_growth <dbl>,
## #   unemp <dbl>, wdi_gdp <dbl>,
## #   wdi_pop <dbl>

Podemos también incluir pequeñas operaciones en nuestros filtros. Obtengamos todas las observaciones en las que la corrupción ejecutiva es mayor a la del promedio de toda la base:

filter(df_aprob, exec_corr > mean(exec_corr))

## # A tibble: 456 x 12
##    country    year quarter president       
##    <chr>     <dbl>   <dbl> <chr>           
##  1 Argentina  2003       1 Eduardo Alberto~
##  2 Argentina  2003       2 Eduardo Alberto~
##  3 Argentina  2003       3 Néstor Carlos K~
##  4 Argentina  2003       4 Néstor Carlos K~
##  5 Argentina  2004       1 Néstor Carlos K~
##  6 Argentina  2004       2 Néstor Carlos K~
##  7 Argentina  2004       3 Néstor Carlos K~
##  8 Argentina  2004       4 Néstor Carlos K~
##  9 Argentina  2005       1 Néstor Carlos K~
## 10 Argentina  2005       2 Néstor Carlos K~
## # ... with 446 more rows, and 8 more
## #   variables: net_approval <dbl>,
## #   pres_sex <chr>, pres_sex_d <dbl>,
## #   exec_corr <dbl>, gdp_growth <dbl>,
## #   unemp <dbl>, wdi_gdp <dbl>,
## #   wdi_pop <dbl>
(Ejercicios C)

(C1) Selecciona solo las dos columnas que registran el sexo del presidente/a en la base de datos. Recuerda que los chunks se insertan con Ctrl/Cmd + Alt + i. Tu código:

(C2) Filtra la base de datos para que solo tenga las observaciones del año 2000. Tu código:

(C3) Filtra la base de datos para que solo incluya observaciones de crisis económica: cuando el crecimiento del PIB sea negativo y/o el desempleo sea mayor al 20%. Tu código:

Ordenar el data frame con arrange()

Podemos cambiar el orden de las observaciones con el comando arrange(). Por ejemplo, ordenémoslas desde el país-año-trimestre menos corrupto al más corrupto:

arrange(df_aprob, exec_corr)

## # A tibble: 1,020 x 12
##    country  year quarter president       
##    <chr>   <dbl>   <dbl> <chr>           
##  1 Uruguay  2000       1 Julio Sanguietti
##  2 Uruguay  2000       2 Jorge Battle    
##  3 Uruguay  2000       3 Jorge Battle    
##  4 Uruguay  2000       4 Jorge Battle    
##  5 Uruguay  2001       1 Jorge Battle    
##  6 Uruguay  2001       2 Jorge Battle    
##  7 Uruguay  2001       3 Jorge Battle    
##  8 Uruguay  2001       4 Jorge Battle    
##  9 Uruguay  2002       1 Jorge Battle    
## 10 Uruguay  2002       2 Jorge Battle    
## # ... with 1,010 more rows, and 8 more
## #   variables: net_approval <dbl>,
## #   pres_sex <chr>, pres_sex_d <dbl>,
## #   exec_corr <dbl>, gdp_growth <dbl>,
## #   unemp <dbl>, wdi_gdp <dbl>,
## #   wdi_pop <dbl>

Si quisiéramos ordenarlo inversamente, tendríamos que añadir un - (signo menos) antes de la variable:

arrange(df_aprob, -exec_corr)

## # A tibble: 1,020 x 12
##    country    year quarter president     
##    <chr>     <dbl>   <dbl> <chr>         
##  1 Venezuela  2013       1 Hugo Chávez   
##  2 Venezuela  2013       2 Nicolás Maduro
##  3 Venezuela  2013       3 Nicolás Maduro
##  4 Venezuela  2013       4 Nicolás Maduro
##  5 Venezuela  2014       1 Nicolás Maduro
##  6 Venezuela  2014       2 Nicolás Maduro
##  7 Venezuela  2014       3 Nicolás Maduro
##  8 Venezuela  2014       4 Nicolás Maduro
##  9 Venezuela  2007       1 Hugo Chávez   
## 10 Venezuela  2007       2 Hugo Chávez   
## # ... with 1,010 more rows, and 8 more
## #   variables: net_approval <dbl>,
## #   pres_sex <chr>, pres_sex_d <dbl>,
## #   exec_corr <dbl>, gdp_growth <dbl>,
## #   unemp <dbl>, wdi_gdp <dbl>,
## #   wdi_pop <dbl>

Atención, lo anterior solo sirve en columnas numéricas. Para ordenar una categórica inversamente, debemos usar el comando desc():

arrange(df_aprob, desc(country))

## # A tibble: 1,020 x 12
##    country    year quarter president  
##    <chr>     <dbl>   <dbl> <chr>      
##  1 Venezuela  2000       1 Hugo Chávez
##  2 Venezuela  2000       2 Hugo Chávez
##  3 Venezuela  2000       3 Hugo Chávez
##  4 Venezuela  2000       4 Hugo Chávez
##  5 Venezuela  2001       1 Hugo Chávez
##  6 Venezuela  2001       2 Hugo Chávez
##  7 Venezuela  2001       3 Hugo Chávez
##  8 Venezuela  2001       4 Hugo Chávez
##  9 Venezuela  2002       1 Hugo Chávez
## 10 Venezuela  2002       2 Hugo Chávez
## # ... with 1,010 more rows, and 8 more
## #   variables: net_approval <dbl>,
## #   pres_sex <chr>, pres_sex_d <dbl>,
## #   exec_corr <dbl>, gdp_growth <dbl>,
## #   unemp <dbl>, wdi_gdp <dbl>,
## #   wdi_pop <dbl>

Podemos ordenar por más de una variable. Esto es, ordenar a partir de una primera variable y luego ordenar los empates a partir de otra segunda variable. Veamos el siguiente ejemplo:

arrange(df_aprob, pres_sex, -net_approval)

## # A tibble: 1,020 x 12
##    country   year quarter president        
##    <chr>    <dbl>   <dbl> <chr>            
##  1 Brazil    2013       1 Dilma Vana Rouss~
##  2 Brazil    2012       4 Dilma Vana Rouss~
##  3 Brazil    2012       2 Dilma Vana Rouss~
##  4 Brazil    2012       3 Dilma Vana Rouss~
##  5 Brazil    2012       1 Dilma Vana Rouss~
##  6 Brazil    2011       4 Dilma Vana Rouss~
##  7 Brazil    2011       1 Dilma Vana Rouss~
##  8 Brazil    2011       3 Dilma Vana Rouss~
##  9 Brazil    2013       2 Dilma Vana Rouss~
## 10 Argenti~  2011       4 Cristina Fernánd~
## # ... with 1,010 more rows, and 8 more
## #   variables: net_approval <dbl>,
## #   pres_sex <chr>, pres_sex_d <dbl>,
## #   exec_corr <dbl>, gdp_growth <dbl>,
## #   unemp <dbl>, wdi_gdp <dbl>,
## #   wdi_pop <dbl>

Transformar variables con mutate()

Transformaciones con una variable

Supongamos que queremos crear una variable con el PIB en versión logarítmica:

mutate(df_aprob, wdi_gdp_log = log(wdi_gdp))

## # A tibble: 1,020 x 13
##    country    year quarter president       
##    <chr>     <dbl>   <dbl> <chr>           
##  1 Argentina  2000       1 Fernando de la ~
##  2 Argentina  2000       2 Fernando de la ~
##  3 Argentina  2000       3 Fernando de la ~
##  4 Argentina  2000       4 Fernando de la ~
##  5 Argentina  2001       1 Fernando de la ~
##  6 Argentina  2001       2 Fernando de la ~
##  7 Argentina  2001       3 Fernando de la ~
##  8 Argentina  2001       4 Fernando de la ~
##  9 Argentina  2002       1 Eduardo Alberto~
## 10 Argentina  2002       2 Eduardo Alberto~
## # ... with 1,010 more rows, and 9 more
## #   variables: net_approval <dbl>,
## #   pres_sex <chr>, pres_sex_d <dbl>,
## #   exec_corr <dbl>, gdp_growth <dbl>,
## #   unemp <dbl>, wdi_gdp <dbl>,
## #   wdi_pop <dbl>, wdi_gdp_log <dbl>
…
