05B - Visualización de datos (extensiones) | Programación en Ciencias Sociales
…
## (este no es el formato original de OWID, aunque se parece bastante)

df_gasto_burocracia <- read_csv("datos/gasto_burocracia.csv")

## Parsed with column specification:
## cols(
##   PAÍS = col_character(),
##   AÑO = col_double(),
##   `% DE BUROCRACIA EN GASTO FISCAL` = col_double()
## )

df_gasto_burocracia

## # A tibble: 216 x 3
##    PAÍS       AÑO `% DE BUROCRACIA EN GAST~
##    <chr>    <dbl>                     <dbl>
##  1 Argenti~  2000                      14.7
##  2 Argenti~  2001                      14.2
##  3 Argenti~  2002                      11.3
##  4 Argenti~  2003                      11.7
##  5 Argenti~  2004                      11.5
##  6 Argenti~  2005                      NA  
##  7 Argenti~  2006                      NA  
##  8 Argenti~  2007                      NA  
##  9 Argenti~  2008                      NA  
## 10 Argenti~  2009                      NA  
## # ... with 206 more rows
…
