Guía - Búsqueda de ayuda - CPO3523
…
En este sitio podemos buscar funciones y mirar sus archivos de ayuda en línea. Prueba a buscar alguna función conocida (por ejemplo, mutate, arrange, select, etc.). En la columna de la derecha aparecerán las funciones, mientras que la de la izquierda mostrará paquetes relacionados con nuestra búsqueda.

CRAN Task Views

CRAN Task Views son guías muy completas sobre qué paquetes nos pueden ayudar a lidiar con tópicos específicos. Por ejemplo, veamos el CTV de “Estadística para las Ciencias Sociales”.

Solucionar problemas

Problemas con paréntesis y comas

Vamos a usar una base de ejemplo de ggplot2, llamada midwest. Contiene información demográfica sobre distintos condados en Estados Unidos, parte de la zona geográfica llamada “Midwest”.

midwest

## # A tibble: 437 x 28
##      PID county state  area poptotal popdensity popwhite popblack popamerindian
##    <int> <chr>  <chr> <dbl>    <int>      <dbl>    <int>    <int>         <int>
##  1   561 ADAMS  IL    0.052    66090      1271.    63917     1702            98
##  2   562 ALEXA… IL    0.014    10626       759      7054     3496            19
##  3   563 BOND   IL    0.022    14991       681.    14477      429            35
##  4   564 BOONE  IL    0.017    30806      1812.    29344      127            46
##  5   565 BROWN  IL    0.018     5836       324.     5264      547            14
##  6   566 BUREAU IL    0.05     35688       714.    35157       50            65
##  7   567 CALHO… IL    0.017     5322       313.     5298        1             8
##  8   568 CARRO… IL    0.027    16805       622.    16519      111            30
##  9   569 CASS   IL    0.024    13437       560.    13384       16             8
## 10   570 CHAMP… IL    0.058   173025      2983.   146506    16559           331
## # … with 427 more rows, and 19 more variables: popasian <int>, popother <int>,
## #   percwhite <dbl>, percblack <dbl>, percamerindan <dbl>, percasian <dbl>,
## #   percother <dbl>, popadults <int>, perchsd <dbl>, percollege <dbl>,
## #   percprof <dbl>, poppovertyknown <int>, percpovertyknown <dbl>,
## #   percbelowpoverty <dbl>, percchildbelowpovert <dbl>, percadultpoverty <dbl>,
## #   percelderlypoverty <dbl>, inmetro <int>, category <chr>
…
Adicionalmente, no queremos que esa otra persona tenga que entender nuestra base de datos en particular, por lo que los reprex usualmente están hechos con bases de datos pequeñas creadas o con bases de datos que vienen por defecto con R o el tidyverse (mtcars, midwest, mpg, diamonds, etc.).

Por último, queremos que esa otra persona pueda correr rápidamente nuestro código, sin tener que preocuparse de nada más aparte de nuestro problema.

Nuestro problema de antes:

midwest %>% 
  filter(state = "IL")

## Error: `state` (`state = "IL"`) must not be named, do you need `==`?

Utilizar la base “midwest” está bien, pero vamos a generar nuestro reprex con otra de ejemplo en el paquete ggplot2, llamada mpg. Esta base se ve de la siguiente forma. No importa mucho su contenido, pero sí que tenemos variables categóricas por las que querríamos filtrar, como por ejemplo “model”.

## # A tibble: 234 x 11
##    manufacturer model    displ  year   cyl trans   drv     cty   hwy fl    class
##    <chr>        <chr>    <dbl> <int> <int> <chr>   <chr> <int> <int> <chr> <chr>
##  1 audi         a4         1.8  1999     4 auto(l… f        18    29 p     comp…
##  2 audi         a4         1.8  1999     4 manual… f        21    29 p     comp…
##  3 audi         a4         2    2008     4 manual… f        20    31 p     comp…
##  4 audi         a4         2    2008     4 auto(a… f        21    30 p     comp…
##  5 audi         a4         2.8  1999     6 auto(l… f        16    26 p     comp…
##  6 audi         a4         2.8  1999     6 manual… f        18    26 p     comp…
##  7 audi         a4         3.1  2008     6 auto(a… f        18    27 p     comp…
##  8 audi         a4 quat…   1.8  1999     4 manual… 4        18    26 p     comp…
##  9 audi         a4 quat…   1.8  1999     4 auto(l… 4        16    25 p     comp…
## 10 audi         a4 quat…   2    2008     4 manual… 4        20    28 p     comp…
## # … with 224 more rows
…
